PCBNEW-LibModule-V1  12/08/2011 15:51:19
$INDEX
Capacitor32x15RM27
Capacitor27x11RM22
Capacitor18x7RM15
Capacitor18x5RM15
Capacitor7x3.5RM5
Capacitor7.5x6.5RM5
Capacitor7x2.5RM5
Capacitor4x3RM2.5
Capacitor12.5x3.5RM10
RV20TOURS
Capacitor27x7RM22
$EndINDEX
$MODULE Capacitor7.5x6.5RM5
Po 0 0 0 15 4BAE1AFB 00000000 ~~
Li Capacitor7.5x6.5RM5
Cd Capacitor 7,5mm x 6,5mm RM 5mm
Kw Capacitor Kondensator
Sc 00000000
AR
Op 0 0 0
T0 1000 -2000 600 600 0 120 N V 21 N"C"
T1 400 2000 600 600 0 120 N V 21 N"Capacitor7.5x6.5RM5"
DS 2500 1300 2500 -1300 150 21
DS 2500 -1300 -500 -1300 150 21
DS -500 -1300 -500 1300 150 21
DS -500 1300 2500 1300 150 21
$PAD
Sh "1" C 591 591 0 0 0
Dr 315 0 0
At STD N 00E0FFFF
Ne 0 ""
Po 0 0
$EndPAD
$PAD
Sh "2" C 591 591 0 0 0
Dr 315 0 0
At STD N 00E0FFFF
Ne 0 ""
Po 2000 0
$EndPAD
$EndMODULE  Capacitor7.5x6.5RM5
$MODULE Capacitor7x2.5RM5
Po 0 0 0 15 4BAE1B31 00000000 ~~
Li Capacitor7x2.5RM5
Cd Capacitor 7mm x 2,5mm RM 5mm
Kw Capacitor Kondensator
Sc 00000000
AR
Op 0 0 0
T0 1000 -1000 600 600 0 120 N V 21 N"C"
T1 500 1500 600 600 0 120 N V 21 N"Capacitor7x2.5RM5"
DS 2500 500 2500 -500 150 21
DS 2500 -500 -500 -500 150 21
DS -500 -500 -500 500 150 21
DS -500 500 2500 500 150 21
$PAD
Sh "1" C 591 591 0 0 0
Dr 315 0 0
At STD N 00E0FFFF
Ne 0 ""
Po 0 0
$EndPAD
$PAD
Sh "2" C 591 591 0 0 0
Dr 315 0 0
At STD N 00E0FFFF
Ne 0 ""
Po 2000 0
$EndPAD
$EndMODULE  Capacitor7x2.5RM5
$MODULE Capacitor7x3.5RM5
Po 0 0 0 15 4BAE1B7D 00000000 ~~
Li Capacitor7x3.5RM5
Cd Capacitor 7mm x 3,5mm RM 5mm
Kw Capacitor Kondensator
Sc 00000000
AR
Op 0 0 0
T0 1050 -1350 600 600 0 120 N V 21 N"C"
T1 300 1300 600 600 0 120 N V 21 N"Capacitor7x3.5RM5"
DS 2400 700 2400 300 150 21
DS 2400 -700 2400 -350 150 21
DS -400 700 -400 350 150 21
DS -400 -700 -400 -350 150 21
DS 2400 -700 -400 -700 150 21
DS -400 700 2400 700 150 21
$PAD
Sh "1" C 591 591 0 0 0
Dr 315 0 0
At STD N 00E0FFFF
Ne 0 ""
Po 0 0
$EndPAD
$PAD
Sh "2" C 591 591 0 0 0
Dr 315 0 0
At STD N 00E0FFFF
Ne 0 ""
Po 2000 0
$EndPAD
$EndMODULE  Capacitor7x3.5RM5
$MODULE Capacitor18x5RM15
Po 0 0 0 15 4B5769D8 00000000 ~~
Li Capacitor18x5RM15
Cd Capacitor 18mm x 5mm RM 5mm
Kw Capacitor Kondensator Folienkondensator
Sc 00000000
AR
Op 0 0 0
T0 100 -1600 600 600 0 120 N V 21 N"C"
T1 400 1700 600 600 0 120 N V 21 N"Capacitor18x5RM15"
DS -800 1000 -500 1000 150 21
DS -500 -1000 -800 -1000 150 21
DS 6800 1000 6800 -1000 150 21
DS 6800 -1000 -600 -1000 150 21
DS -800 -1000 -800 1000 150 21
DS -600 1000 6800 1000 150 21
$PAD
Sh "1" C 984 984 0 0 0
Dr 472 0 0
At STD N 00E0FFFF
Ne 0 ""
Po 0 0
$EndPAD
$PAD
Sh "2" C 984 984 0 0 0
Dr 472 0 0
At STD N 00E0FFFF
Ne 0 ""
Po 6000 0
$EndPAD
$EndMODULE  Capacitor18x5RM15
$MODULE Capacitor18x7RM15
Po 0 0 0 15 4B5769F9 00000000 ~~
Li Capacitor18x7RM15
Cd Capacitor 18mm x 7mm RM 15mm
Kw Capacitor Kondensator Folienkondensator
Sc 00000000
AR
Op 0 0 0
T0 -100 -3600 600 600 0 120 N V 21 N"C"
T1 -400 3000 600 600 0 120 N V 21 N"Capacitor18x7RM15"
DS 6700 1450 6700 -1250 150 21
DS 6700 -1250 6700 -1350 150 21
DS 6700 -1350 -700 -1350 150 21
DS -700 -1350 -700 1450 150 21
DS -700 1450 6700 1450 150 21
$PAD
Sh "1" C 984 984 0 0 0
Dr 472 0 0
At STD N 00E0FFFF
Ne 0 ""
Po 0 50
$EndPAD
$PAD
Sh "2" C 984 984 0 0 0
Dr 472 0 0
At STD N 00E0FFFF
Ne 0 ""
Po 6000 50
$EndPAD
$EndMODULE  Capacitor18x7RM15
$MODULE Capacitor27x11RM22
Po 0 0 0 15 4B576A20 00000000 ~~
Li Capacitor27x11RM22
Cd Capacitor 27mm x 11mm RM 22mm
Kw Capacitor Kondensator Folienkondensator
Sc 00000000
AR
Op 0 0 0
T0 100 -3600 600 600 0 120 N V 21 N"C"
T1 100 3200 600 600 0 120 N V 21 N"Capacitor27x11RM22"
DS 9900 -2500 -1100 -2500 150 21
DS -1100 -2500 -1100 2500 150 21
DS -1100 2500 9900 2500 150 21
DS 9900 2500 9900 -2500 150 21
$PAD
Sh "1" C 984 984 0 0 0
Dr 472 0 0
At STD N 00E0FFFF
Ne 0 ""
Po 0 0
$EndPAD
$PAD
Sh "2" C 984 984 0 0 0
Dr 472 0 0
At STD N 00E0FFFF
Ne 0 ""
Po 8800 0
$EndPAD
$EndMODULE  Capacitor27x11RM22
$MODULE Capacitor32x15RM27
Po 0 0 0 15 4B576A5C 00000000 ~~
Li Capacitor32x15RM27
Cd Capacitor 32mm x 15mm RM 27mm
Kw Capacitor Kondensator Folienkondensator
Sc 00000000
AR
Op 0 0 0
T0 0 -5000 600 600 0 120 N V 21 N"C"
T1 0 5000 600 600 0 120 N V 21 N"Capacitor32x15RM27"
DS -1000 3000 -500 3000 150 21
DS 0 -3000 -500 -3000 150 21
DS -500 -3000 -1000 -3000 150 21
DS 12000 3000 12000 -3000 150 21
DS 12000 -3000 -500 -3000 150 21
DS -1000 -3000 -1000 3000 150 21
DS -500 3000 12000 3000 150 21
$PAD
Sh "1" C 984 984 0 0 0
Dr 472 0 0
At STD N 00E0FFFF
Ne 0 ""
Po 11000 0
$EndPAD
$PAD
Sh "2" C 984 984 0 0 0
Dr 472 0 0
At STD N 00E0FFFF
Ne 0 ""
Po 0 0
$EndPAD
$EndMODULE  Capacitor32x15RM27
$MODULE Capacitor4x3RM2.5
Po 0 0 0 15 4BAE1C6A 00000000 ~~
Li Capacitor4x3RM2.5
Cd Capacitor 4mm x 2,5mm RM 2,5mm
Kw Capacitor Kondensator
Sc 00000000
AR
Op 0 0 0
T0 500 -1000 600 600 0 120 N V 21 N"C"
T1 100 1200 600 600 0 120 N V 21 N"Capacitor4x2.5M2.5"
DS 1300 -500 -300 -500 150 21
DS -300 500 1300 500 150 21
$PAD
Sh "1" C 591 591 0 0 0
Dr 315 0 0
At STD N 00E0FFFF
Ne 0 ""
Po 0 0
$EndPAD
$PAD
Sh "2" C 591 591 0 0 0
Dr 315 0 0
At STD N 00E0FFFF
Ne 0 ""
Po 1000 0
$EndPAD
$EndMODULE  Capacitor4x3RM2.5
$MODULE Capacitor12.5x3.5RM10
Po 0 0 0 15 4E43B408 00000000 ~~
Li Capacitor12.5x3.5RM10
Cd Capacitor 7mm x 3,5mm RM 5mm
Kw Capacitor Kondensator
Sc 00000000
AR
Op 0 0 0
T0 1050 -1350 600 600 0 120 N V 21 N"C"
T1 300 1300 600 600 0 120 N V 21 N"Capacitor12.5x3.5RM10"
DS 1550 700 -400 700 150 21
DS 1550 -700 -400 -700 150 21
DS 4368 700 4368 300 150 21
DS 4368 -700 4368 -350 150 21
DS -400 700 -400 350 150 21
DS -400 -700 -400 -350 150 21
DS 4368 -700 1568 -700 150 21
DS 1568 700 4368 700 150 21
$PAD
Sh "1" C 591 591 0 0 0
Dr 315 0 0
At STD N 00E0FFFF
Ne 0 ""
Po 0 0
$EndPAD
$PAD
Sh "2" C 591 591 0 0 0
Dr 315 0 0
At STD N 00E0FFFF
Ne 0 ""
Po 3968 0
$EndPAD
$EndMODULE  Capacitor12.5x3.5RM10
$MODULE RV20TOURS
Po 0 0 0 15 4E43BB5D 00000000 ~~
Li RV20TOURS
Sc 00000000
AR
Op 0 0 0
T0 -4000 600 600 600 0 120 N V 21 N"RV20TOURS"
T1 -6000 -2400 600 600 0 120 N V 21 N"RV**"
DS 0 -512 236 -512 150 21
DS 78 -1299 236 -1299 150 21
DS 236 -1299 236 -512 150 21
DS 0 0 -7520 0 150 21
DS -7520 0 -7520 -1890 150 21
DS -7520 -1890 0 -1890 150 21
DS 0 -1890 0 0 150 21
$PAD
Sh "3" C 600 600 0 0 0
Dr 320 0 0
At STD N 00000001
Ne 0 ""
Po -1260 -1457
$EndPAD
$PAD
Sh "2" C 600 600 0 0 0
Dr 320 0 0
At STD N 00000001
Ne 0 ""
Po -3200 -400
$EndPAD
$PAD
Sh "1" C 600 600 0 0 0
Dr 320 0 0
At STD N 00000001
Ne 0 ""
Po -6220 -1457
$EndPAD
$EndMODULE  RV20TOURS
$MODULE Capacitor27x7RM22
Po 0 0 0 15 4E452FCE 00000000 ~~
Li Capacitor27x7RM22
Cd Capacitor 27mm x 11mm RM 22mm
Kw Capacitor Kondensator Folienkondensator
Sc 00000000
AR 
Op 0 0 0
T0 -394 -1969 600 600 0 120 N V 21 N"C"
T1 6102 1969 600 600 0 120 N V 21 N"Capacitor22x7RM22"
DS 9843 1378 -787 1378 150 21
DS -787 -1378 9843 -1378 150 21
DS -787 -1378 -787 1378 150 21
DS 9843 1378 9843 -1378 150 21
$PAD
Sh "1" C 984 984 0 0 0
Dr 472 0 0
At STD N 00E0FFFF
Ne 0 ""
Po 0 0
$EndPAD
$PAD
Sh "2" C 984 984 0 0 0
Dr 472 0 0
At STD N 00E0FFFF
Ne 0 ""
Po 9055 0
$EndPAD
$EndMODULE  Capacitor27x7RM22
$EndLIBRARY
