PCBNEW-LibModule-V1  14/08/2011 16:18:35
$INDEX
HE10-10D
HE10-MULTICOMP
$EndINDEX
$MODULE HE10-10D
Po 0 0 0 15 4E47D882 4E47D792 ~~
Li HE10-10D
Cd Connecteur HE10 10 contacts droit
Kw CONN HE10
Sc 4E47D792
AR
Op 0 0 0
T0 3543 -4134 700 700 0 120 N V 21 N"HE10-10D"
T1 2165 591 700 700 0 120 N V 21 N"Val**"
DS 7677 -197 7677 -3346 150 21
DS 7677 -3346 197 -3346 150 21
DS 197 -3346 197 -197 150 21
DS 7874 0 7874 -3543 150 21
DS 0 0 0 -3543 150 21
DS 0 -3543 7874 -3543 150 21
DS 2953 -197 2953 0 150 21
DS 4921 -197 4921 0 150 21
DS 4921 -197 7677 -197 150 21
DS 197 -197 2953 -197 150 21
DS 0 0 7874 0 150 21
DS 1337 -1272 837 -1572 120 21
DS 837 -1572 837 -972 120 21
DS 837 -972 1337 -1272 120 21
$PAD
Sh "1" R 600 600 0 0 0
Dr 360 0 0
At STD N 00E0FFFF
Ne 0 ""
Po 1937 -1272
$EndPAD
$PAD
Sh "2" C 600 600 0 0 0
Dr 360 0 0
At STD N 00E0FFFF
Ne 0 ""
Po 1937 -2272
$EndPAD
$PAD
Sh "3" C 600 600 0 0 0
Dr 360 0 0
At STD N 00E0FFFF
Ne 0 ""
Po 2937 -1272
$EndPAD
$PAD
Sh "4" C 600 600 0 0 0
Dr 360 0 0
At STD N 00E0FFFF
Ne 0 ""
Po 2937 -2272
$EndPAD
$PAD
Sh "5" C 600 600 0 0 0
Dr 360 0 0
At STD N 00E0FFFF
Ne 0 ""
Po 3937 -1272
$EndPAD
$PAD
Sh "6" C 600 600 0 0 0
Dr 360 0 0
At STD N 00E0FFFF
Ne 0 ""
Po 3937 -2272
$EndPAD
$PAD
Sh "7" C 600 600 0 0 0
Dr 360 0 0
At STD N 00E0FFFF
Ne 0 ""
Po 4937 -1272
$EndPAD
$PAD
Sh "8" C 600 600 0 0 0
Dr 360 0 0
At STD N 00E0FFFF
Ne 0 ""
Po 4937 -2272
$EndPAD
$PAD
Sh "9" C 600 600 0 0 0
Dr 360 0 0
At STD N 00E0FFFF
Ne 0 ""
Po 5937 -1272
$EndPAD
$PAD
Sh "10" C 600 600 0 0 0
Dr 360 0 0
At STD N 00E0FFFF
Ne 0 ""
Po 5937 -2272
$EndPAD
$SHAPE3D
Na "conn_HExx/he10_10.wrl"
Sc 1.000000 1.000000 1.000000
Of 0.000000 0.000000 0.000000
Ro 0.000000 0.000000 0.000000
$EndSHAPE3D
$EndMODULE  HE10-10D
$MODULE HE10-MULTICOMP
Po 0 0 0 15 4E47D92D 00000000 ~~
Li HE10-MULTICOMP
Cd Connecteur HE10 10 contacts droit
Kw CONN HE10
Sc 00000000
AR 
Op 0 0 0
T0 3543 -4134 700 700 0 120 N V 21 N"HE10-MULTICOMP"
T1 2165 591 700 700 0 120 N V 21 N"Val**"
DS 7677 -197 7677 -3346 150 21
DS 7677 -3346 197 -3346 150 21
DS 197 -3346 197 -197 150 21
DS 7874 0 7874 -3543 150 21
DS 0 0 0 -3543 150 21
DS 0 -3543 7874 -3543 150 21
DS 2953 -197 2953 0 150 21
DS 4921 -197 4921 0 150 21
DS 4921 -197 7677 -197 150 21
DS 197 -197 2953 -197 150 21
DS 0 0 7874 0 150 21
DS 1337 -1272 837 -1572 120 21
DS 837 -1572 837 -972 120 21
DS 837 -972 1337 -1272 120 21
$PAD
Sh "1" R 600 600 0 0 0
Dr 360 0 0
At STD N 00E0FFFF
Ne 0 ""
Po 1937 -1272
$EndPAD
$PAD
Sh "2" C 600 600 0 0 0
Dr 360 0 0
At STD N 00E0FFFF
Ne 0 ""
Po 1937 -2272
$EndPAD
$PAD
Sh "3" C 600 600 0 0 0
Dr 360 0 0
At STD N 00E0FFFF
Ne 0 ""
Po 2937 -1272
$EndPAD
$PAD
Sh "4" C 600 600 0 0 0
Dr 360 0 0
At STD N 00E0FFFF
Ne 0 ""
Po 2937 -2272
$EndPAD
$PAD
Sh "5" C 600 600 0 0 0
Dr 360 0 0
At STD N 00E0FFFF
Ne 0 ""
Po 3937 -1272
$EndPAD
$PAD
Sh "6" C 600 600 0 0 0
Dr 360 0 0
At STD N 00E0FFFF
Ne 0 ""
Po 3937 -2272
$EndPAD
$PAD
Sh "7" C 600 600 0 0 0
Dr 360 0 0
At STD N 00E0FFFF
Ne 0 ""
Po 4937 -1272
$EndPAD
$PAD
Sh "8" C 600 600 0 0 0
Dr 360 0 0
At STD N 00E0FFFF
Ne 0 ""
Po 4937 -2272
$EndPAD
$PAD
Sh "9" C 600 600 0 0 0
Dr 360 0 0
At STD N 00E0FFFF
Ne 0 ""
Po 5937 -1272
$EndPAD
$PAD
Sh "10" C 600 600 0 0 0
Dr 360 0 0
At STD N 00E0FFFF
Ne 0 ""
Po 5937 -2272
$EndPAD
$SHAPE3D
Na "conn_HExx/he10_10.wrl"
Sc 1.000000 1.000000 1.000000
Of 0.000000 0.000000 0.000000
Ro 0.000000 0.000000 0.000000
$EndSHAPE3D
$EndMODULE  HE10-MULTICOMP
$EndLIBRARY
