PCBNEW-LibModule-V1  12/08/2011 19:39:28
$INDEX
RELBISTABLE
$EndINDEX
$MODULE RELBISTABLE
Po 0 0 0 15 4E456526 00000000 ~~
Li RELBISTABLE
Sc 00000000
AR 
Op 0 0 0
T0 3937 1181 600 600 0 120 N V 21 N"RELBISTABLE"
T1 2559 -984 600 600 0 120 N V 21 N"REL**"
DS -394 394 -394 591 150 21
DS -394 591 5512 591 150 21
DS 5512 591 5512 394 150 21
DS -394 -2362 -394 -2559 150 21
DS -394 -2559 5512 -2559 150 21
DS 5512 -2559 5512 -2362 150 21
DS 0 -1378 0 -590 150 21
DS 5512 394 5512 -2362 150 21
DS -394 -2362 -394 394 150 21
$PAD
Sh "8" C 787 787 0 0 0
Dr 394 0 0
At STD N 00E0FFFF
Ne 0 ""
Po 0 0
$EndPAD
$PAD
Sh "9" C 787 787 0 0 0
Dr 394 0 0
At STD N 00E0FFFF
Ne 0 ""
Po 0 -1968
$EndPAD
$PAD
Sh "14" C 787 787 0 0 0
Dr 394 0 0
At STD N 00E0FFFF
Ne 0 ""
Po 1969 -1969
$EndPAD
$PAD
Sh "12" C 787 787 0 0 0
Dr 394 0 0
At STD N 00E0FFFF
Ne 0 ""
Po 2952 -1968
$EndPAD
$PAD
Sh "16" C 787 787 0 0 0
Dr 394 0 0
At STD N 00E0FFFF
Ne 0 ""
Po 3937 -1968
$EndPAD
$PAD
Sh "3" C 787 787 0 0 0
Dr 394 0 0
At STD N 00E0FFFF
Ne 0 ""
Po 1969 0
$EndPAD
$PAD
Sh "5" C 787 787 0 0 0
Dr 394 0 0
At STD N 00E0FFFF
Ne 0 ""
Po 2953 0
$EndPAD
$PAD
Sh "1" C 787 787 0 0 0
Dr 394 0 0
At STD N 00E0FFFF
Ne 0 ""
Po 3937 0
$EndPAD
$EndMODULE  RELBISTABLE
$EndLIBRARY
