PCBNEW-LibModule-V1  12/08/2011 19:03:10
$INDEX
>VALUE
$EndINDEX
$MODULE >VALUE
Po 0 0 0 15 4E455C6B 4E455BC0 ~~
Li >VALUE
Sc 4E455BC0
AR 
Op 0 0 0
At SMD 
T0 1900 -2550 500 500 0 35 N V 21 N">VALUE"
T1 1600 -1550 500 500 1800 35 N V 21 N">NAME"
DS 201 20 400 20 26 21
DS 400 20 400 -30 26 21
DS 201 -30 400 -30 26 21
DS 201 20 201 -30 26 21
DS 201 600 400 600 26 21
DS 400 600 400 20 26 21
DS 201 20 400 20 26 21
DS 201 600 201 20 26 21
DS 700 20 900 20 26 21
DS 900 20 900 -30 26 21
DS 700 -30 900 -30 26 21
DS 700 20 700 -30 26 21
DS 700 600 900 600 26 21
DS 900 600 900 20 26 21
DS 700 20 900 20 26 21
DS 700 600 700 20 26 21
DS 1200 20 1400 20 26 21
DS 1400 20 1400 -30 26 21
DS 1200 -30 1400 -30 26 21
DS 1200 20 1200 -30 26 21
DS 1200 600 1400 600 26 21
DS 1400 600 1400 20 26 21
DS 1200 20 1400 20 26 21
DS 1200 600 1200 20 26 21
DS 1700 20 1900 20 26 21
DS 1900 20 1900 -30 26 21
DS 1700 -30 1900 -30 26 21
DS 1700 20 1700 -30 26 21
DS 1700 600 1900 600 26 21
DS 1900 600 1900 20 26 21
DS 1700 20 1900 20 26 21
DS 1700 600 1700 20 26 21
DS 2200 600 2400 600 26 21
DS 2400 600 2400 20 26 21
DS 2200 20 2400 20 26 21
DS 2200 600 2200 20 26 21
DS 2200 20 2400 20 26 21
DS 2400 20 2400 -30 26 21
DS 2200 -30 2400 -30 26 21
DS 2200 20 2200 -30 26 21
DS 2700 20 2900 20 26 21
DS 2900 20 2900 -30 26 21
DS 2700 -30 2900 -30 26 21
DS 2700 20 2700 -30 26 21
DS 2700 600 2900 600 26 21
DS 2900 600 2900 20 26 21
DS 2700 20 2900 20 26 21
DS 2700 600 2700 20 26 21
DS 3200 20 3400 20 26 21
DS 3400 20 3400 -30 26 21
DS 3200 -30 3400 -30 26 21
DS 3200 20 3200 -30 26 21
DS 3200 600 3400 600 26 21
DS 3400 600 3400 20 26 21
DS 3200 20 3400 20 26 21
DS 3200 600 3200 20 26 21
DS 3700 20 3900 20 26 21
DS 3900 20 3900 -30 26 21
DS 3700 -30 3900 -30 26 21
DS 3700 20 3700 -30 26 21
DS 3700 600 3900 600 26 21
DS 3900 600 3900 20 26 21
DS 3700 20 3900 20 26 21
DS 3700 600 3700 20 26 21
DS 201 -3020 400 -3020 26 21
DS 400 -3020 400 -3600 26 21
DS 201 -3600 400 -3600 26 21
DS 201 -3020 201 -3600 26 21
DS 201 -2970 400 -2970 26 21
DS 400 -2970 400 -3020 26 21
DS 201 -3020 400 -3020 26 21
DS 201 -2970 201 -3020 26 21
DS 700 -2970 900 -2970 26 21
DS 900 -2970 900 -3020 26 21
DS 700 -3020 900 -3020 26 21
DS 700 -2970 700 -3020 26 21
DS 700 -3020 900 -3020 26 21
DS 900 -3020 900 -3600 26 21
DS 700 -3600 900 -3600 26 21
DS 700 -3020 700 -3600 26 21
DS 1200 -2970 1400 -2970 26 21
DS 1400 -2970 1400 -3020 26 21
DS 1200 -3020 1400 -3020 26 21
DS 1200 -2970 1200 -3020 26 21
DS 1200 -3020 1400 -3020 26 21
DS 1400 -3020 1400 -3600 26 21
DS 1200 -3600 1400 -3600 26 21
DS 1200 -3020 1200 -3600 26 21
DS 1700 -2970 1900 -2970 26 21
DS 1900 -2970 1900 -3020 26 21
DS 1700 -3020 1900 -3020 26 21
DS 1700 -2970 1700 -3020 26 21
DS 1700 -3020 1900 -3020 26 21
DS 1900 -3020 1900 -3600 26 21
DS 1700 -3600 1900 -3600 26 21
DS 1700 -3020 1700 -3600 26 21
DS 2200 -2970 2400 -2970 26 21
DS 2400 -2970 2400 -3020 26 21
DS 2200 -3020 2400 -3020 26 21
DS 2200 -2970 2200 -3020 26 21
DS 2200 -3020 2400 -3020 26 21
DS 2400 -3020 2400 -3600 26 21
DS 2200 -3600 2400 -3600 26 21
DS 2200 -3020 2200 -3600 26 21
DS 2700 -2970 2900 -2970 26 21
DS 2900 -2970 2900 -3020 26 21
DS 2700 -3020 2900 -3020 26 21
DS 2700 -2970 2700 -3020 26 21
DS 2700 -3020 2900 -3020 26 21
DS 2900 -3020 2900 -3600 26 21
DS 2700 -3600 2900 -3600 26 21
DS 2700 -3020 2700 -3600 26 21
DS 3200 -2970 3400 -2970 26 21
DS 3400 -2970 3400 -3020 26 21
DS 3200 -3020 3400 -3020 26 21
DS 3200 -2970 3200 -3020 26 21
DS 3200 -3020 3400 -3020 26 21
DS 3400 -3020 3400 -3600 26 21
DS 3200 -3600 3400 -3600 26 21
DS 3200 -3020 3200 -3600 26 21
DS 3700 -2970 3900 -2970 26 21
DS 3900 -2970 3900 -3020 26 21
DS 3700 -3020 3900 -3020 26 21
DS 3700 -2970 3700 -3020 26 21
DS 3700 -3020 3900 -3020 26 21
DS 3900 -3020 3900 -3600 26 21
DS 3700 -3600 3900 -3600 26 21
DS 3700 -3020 3700 -3600 26 21
DS 4200 -2970 4400 -2970 26 21
DS 4400 -2970 4400 -3020 26 21
DS 4200 -3020 4400 -3020 26 21
DS 4200 -2970 4200 -3020 26 21
DS 4700 -2970 4900 -2970 26 21
DS 4900 -2970 4900 -3020 26 21
DS 4700 -3020 4900 -3020 26 21
DS 4700 -2970 4700 -3020 26 21
DS 5200 -2970 5400 -2970 26 21
DS 5400 -2970 5400 -3020 26 21
DS 5200 -3020 5400 -3020 26 21
DS 5200 -2970 5200 -3020 26 21
DS 5700 -2970 5899 -2970 26 21
DS 5899 -2970 5899 -3020 26 21
DS 5700 -3020 5899 -3020 26 21
DS 5700 -2970 5700 -3020 26 21
DS 6200 -2970 6400 -2970 26 21
DS 6400 -2970 6400 -3020 26 21
DS 6200 -3020 6400 -3020 26 21
DS 6200 -2970 6200 -3020 26 21
DS 6700 -2970 6900 -2970 26 21
DS 6900 -2970 6900 -3020 26 21
DS 6700 -3020 6900 -3020 26 21
DS 6700 -2970 6700 -3020 26 21
DS 4200 20 4400 20 26 21
DS 4400 20 4400 -30 26 21
DS 4200 -30 4400 -30 26 21
DS 4200 20 4200 -30 26 21
DS 4700 20 4900 20 26 21
DS 4900 20 4900 -30 26 21
DS 4700 -30 4900 -30 26 21
DS 4700 20 4700 -30 26 21
DS 5200 20 5400 20 26 21
DS 5400 20 5400 -30 26 21
DS 5200 -30 5400 -30 26 21
DS 5200 20 5200 -30 26 21
DS 5700 20 5899 20 26 21
DS 5899 20 5899 -30 26 21
DS 5700 -30 5899 -30 26 21
DS 5700 20 5700 -30 26 21
DS 6200 20 6400 20 26 21
DS 6400 20 6400 -30 26 21
DS 6200 -30 6400 -30 26 21
DS 6200 20 6200 -30 26 21
DS 6700 20 6900 20 26 21
DS 6900 20 6900 -30 26 21
DS 6700 -30 6900 -30 26 21
DS 6700 20 6700 -30 26 21
DS 4200 600 4400 600 26 21
DS 4400 600 4400 20 26 21
DS 4200 20 4400 20 26 21
DS 4200 600 4200 20 26 21
DS 4700 600 4900 600 26 21
DS 4900 600 4900 20 26 21
DS 4700 20 4900 20 26 21
DS 4700 600 4700 20 26 21
DS 5200 600 5400 600 26 21
DS 5400 600 5400 20 26 21
DS 5200 20 5400 20 26 21
DS 5200 600 5200 20 26 21
DS 5700 600 5899 600 26 21
DS 5899 600 5899 20 26 21
DS 5700 20 5899 20 26 21
DS 5700 600 5700 20 26 21
DS 6200 600 6400 600 26 21
DS 6400 600 6400 20 26 21
DS 6200 20 6400 20 26 21
DS 6200 600 6200 20 26 21
DS 6700 600 6900 600 26 21
DS 6900 600 6900 20 26 21
DS 6700 20 6900 20 26 21
DS 6700 600 6700 20 26 21
DS 4200 -3020 4400 -3020 26 21
DS 4400 -3020 4400 -3600 26 21
DS 4200 -3600 4400 -3600 26 21
DS 4200 -3020 4200 -3600 26 21
DS 4700 -3020 4900 -3020 26 21
DS 4900 -3020 4900 -3600 26 21
DS 4700 -3600 4900 -3600 26 21
DS 4700 -3020 4700 -3600 26 21
DS 5200 -3020 5400 -3020 26 21
DS 5400 -3020 5400 -3600 26 21
DS 5200 -3600 5400 -3600 26 21
DS 5200 -3020 5200 -3600 26 21
DS 5700 -3020 5899 -3020 26 21
DS 5899 -3020 5899 -3600 26 21
DS 5700 -3600 5899 -3600 26 21
DS 5700 -3020 5700 -3600 26 21
DS 6200 -3020 6400 -3020 26 21
DS 6400 -3020 6400 -3600 26 21
DS 6200 -3600 6400 -3600 26 21
DS 6200 -3020 6200 -3600 26 21
DS 6700 -3020 6900 -3020 26 21
DS 6900 -3020 6900 -3600 26 21
DS 6700 -3600 6900 -3600 26 21
DS 6700 -3020 6700 -3600 26 21
DS 50 0 50 -3000 50 21
DS 50 -3000 7050 -3000 50 21
DS 7050 -3000 7050 0 50 21
DS 7050 0 50 0 50 21
DC 300 -350 230 -280 1 21
$PAD
Sh "1" R 260 800 0 0 0
Dr 0 0 0
At SMD N 00888000
Ne 0 ""
Po 300 480
$EndPAD
$PAD
Sh "2" R 260 800 0 0 0
Dr 0 0 0
At SMD N 00888000
Ne 0 ""
Po 800 480
$EndPAD
$PAD
Sh "3" R 260 800 0 0 0
Dr 0 0 0
At SMD N 00888000
Ne 0 ""
Po 1300 480
$EndPAD
$PAD
Sh "4" R 260 800 0 0 0
Dr 0 0 0
At SMD N 00888000
Ne 0 ""
Po 1800 480
$EndPAD
$PAD
Sh "5" R 260 800 0 0 0
Dr 0 0 0
At SMD N 00888000
Ne 0 ""
Po 2300 480
$EndPAD
$PAD
Sh "6" R 260 800 0 0 0
Dr 0 0 0
At SMD N 00888000
Ne 0 ""
Po 2800 480
$EndPAD
$PAD
Sh "7" R 260 800 0 0 0
Dr 0 0 0
At SMD N 00888000
Ne 0 ""
Po 3300 480
$EndPAD
$PAD
Sh "8" R 260 800 0 0 0
Dr 0 0 0
At SMD N 00888000
Ne 0 ""
Po 3800 480
$EndPAD
$PAD
Sh "9" R 260 800 0 0 0
Dr 0 0 0
At SMD N 00888000
Ne 0 ""
Po 4300 480
$EndPAD
$PAD
Sh "10" R 260 800 0 0 0
Dr 0 0 0
At SMD N 00888000
Ne 0 ""
Po 4800 480
$EndPAD
$PAD
Sh "11" R 260 800 0 0 0
Dr 0 0 0
At SMD N 00888000
Ne 0 ""
Po 5300 480
$EndPAD
$PAD
Sh "12" R 260 800 0 0 0
Dr 0 0 0
At SMD N 00888000
Ne 0 ""
Po 5800 480
$EndPAD
$PAD
Sh "13" R 260 800 0 0 0
Dr 0 0 0
At SMD N 00888000
Ne 0 ""
Po 6300 480
$EndPAD
$PAD
Sh "14" R 260 800 0 0 0
Dr 0 0 0
At SMD N 00888000
Ne 0 ""
Po 6800 480
$EndPAD
$PAD
Sh "15" R 260 800 0 0 0
Dr 0 0 0
At SMD N 00888000
Ne 0 ""
Po 6800 -3480
$EndPAD
$PAD
Sh "16" R 260 800 0 0 0
Dr 0 0 0
At SMD N 00888000
Ne 0 ""
Po 6300 -3480
$EndPAD
$PAD
Sh "17" R 260 800 0 0 0
Dr 0 0 0
At SMD N 00888000
Ne 0 ""
Po 5800 -3480
$EndPAD
$PAD
Sh "18" R 260 800 0 0 0
Dr 0 0 0
At SMD N 00888000
Ne 0 ""
Po 5300 -3480
$EndPAD
$PAD
Sh "19" R 260 800 0 0 0
Dr 0 0 0
At SMD N 00888000
Ne 0 ""
Po 4800 -3480
$EndPAD
$PAD
Sh "20" R 260 800 0 0 0
Dr 0 0 0
At SMD N 00888000
Ne 0 ""
Po 4300 -3480
$EndPAD
$PAD
Sh "21" R 260 800 0 0 0
Dr 0 0 0
At SMD N 00888000
Ne 0 ""
Po 3800 -3480
$EndPAD
$PAD
Sh "22" R 260 800 0 0 0
Dr 0 0 0
At SMD N 00888000
Ne 0 ""
Po 3300 -3480
$EndPAD
$PAD
Sh "23" R 260 800 0 0 0
Dr 0 0 0
At SMD N 00888000
Ne 0 ""
Po 2800 -3480
$EndPAD
$PAD
Sh "24" R 260 800 0 0 0
Dr 0 0 0
At SMD N 00888000
Ne 0 ""
Po 2300 -3480
$EndPAD
$PAD
Sh "25" R 260 800 0 0 0
Dr 0 0 0
At SMD N 00888000
Ne 0 ""
Po 1800 -3480
$EndPAD
$PAD
Sh "26" R 260 800 0 0 0
Dr 0 0 0
At SMD N 00888000
Ne 0 ""
Po 1300 -3480
$EndPAD
$PAD
Sh "27" R 260 800 0 0 0
Dr 0 0 0
At SMD N 00888000
Ne 0 ""
Po 800 -3480
$EndPAD
$PAD
Sh "28" R 260 800 0 0 0
Dr 0 0 0
At SMD N 00888000
Ne 0 ""
Po 300 -3480
$EndPAD
$EndMODULE  >VALUE
$EndLIBRARY
