PCBNEW-LibModule-V1  19/08/2011 16:20:14
$INDEX
TRSIGNAL
$EndINDEX
$MODULE TRSIGNAL
Po 0 0 0 15 4E4E711A 00000000 ~~
Li TRSIGNAL
Sc 00000000
AR 
Op 0 0 0
T0 3150 591 600 600 0 120 N V 21 N"TRSIGNAL"
T1 3150 -2756 600 600 0 120 N V 21 N"TR*"
DS 5709 0 0 0 150 21
DS 0 -5315 5709 -5315 150 21
DC 591 -4921 591 -4724 150 21
DS 5709 0 5709 -5315 150 21
DS 0 -5315 0 0 150 21
$PAD
Sh "1" C 787 787 0 0 0
Dr 315 0 0
At STD N 00E0FFFF
Ne 0 ""
Po 394 -1181
$EndPAD
$PAD
Sh "2" C 787 787 0 0 0
Dr 315 0 0
At STD N 00E0FFFF
Ne 0 ""
Po 394 -4134
$EndPAD
$PAD
Sh "3" C 787 787 0 0 0
Dr 315 0 0
At STD N 00E0FFFF
Ne 0 ""
Po 5315 -4134
$EndPAD
$PAD
Sh "4" C 787 787 0 0 0
Dr 315 0 0
At STD N 00E0FFFF
Ne 0 ""
Po 5315 -1181
$EndPAD
$EndMODULE  TRSIGNAL
$EndLIBRARY
