EESchema Schematic File Version 4
EELAYER 30 0
EELAYER END
$Descr A4 11693 8268
encoding utf-8
Sheet 4 5
Title ""
Date "15 nov 2014"
Rev ""
Comp ""
Comment1 ""
Comment2 ""
Comment3 ""
Comment4 ""
$EndDescr
Text HLabel 7250 2950 2    60   Output ~ 0
VOUT
Text HLabel 3050 3600 0    60   Input ~ 0
VIN
Text HLabel 6750 2100 2    60   Input ~ 0
+5V
Wire Wire Line
	6000 3100 6100 3100
Wire Wire Line
	6100 3100 6100 2100
Wire Wire Line
	4800 2100 6100 2100
Wire Wire Line
	4800 2100 4800 3100
Wire Wire Line
	4800 3100 4900 3100
Connection ~ 6100 2100
Wire Wire Line
	4900 3200 4100 3200
Connection ~ 4100 3400
Connection ~ 4100 3600
Wire Wire Line
	4750 3600 4750 4450
Wire Wire Line
	4750 4450 6950 4450
Connection ~ 4750 3600
Wire Wire Line
	6950 3200 6950 3400
Connection ~ 6950 3400
Wire Wire Line
	6000 3600 6950 3600
Connection ~ 6950 3600
Wire Wire Line
	6000 3200 6250 3200
Wire Wire Line
	6250 3200 6250 2950
Wire Wire Line
	6250 2950 7150 2950
Connection ~ 6250 3200
Wire Wire Line
	3950 3800 4550 3800
Wire Wire Line
	4900 3300 4850 3300
Wire Wire Line
	4850 3300 4850 3500
Wire Wire Line
	4850 3700 4900 3700
Wire Wire Line
	4850 4200 6150 4200
Wire Wire Line
	6150 4200 6150 3700
Connection ~ 4850 3700
Wire Wire Line
	4850 3500 4900 3500
Connection ~ 4850 3500
Wire Wire Line
	6150 3700 6000 3700
Wire Wire Line
	6150 3500 6000 3500
Connection ~ 6150 3700
Wire Wire Line
	6150 3300 6000 3300
Connection ~ 6150 3500
Wire Wire Line
	4550 4700 4850 4700
Connection ~ 4550 3800
Wire Wire Line
	6550 2700 6900 2700
Connection ~ 6550 2100
Text Label 6900 2700 2    60   ~ 0
AGND
Text Label 4850 4700 2    60   ~ 0
AGND
Text HLabel 5050 4700 2    60   Input ~ 0
AGND
Text HLabel 3950 3800 0    60   Input ~ 0
-5V
Wire Wire Line
	4100 3200 4100 3400
Connection ~ 4850 4700
Connection ~ 4850 4200
Wire Wire Line
	6000 3800 6350 3800
Text Label 4150 3800 0    60   ~ 0
V-
Text Label 6350 3800 0    60   ~ 0
V-
$Comp
L ltc1563-3:LTC1563-3 U1
U 1 1 5461EBD0
P 5450 3950
AR Path="/5461DA93/5461EBD0" Ref="U1"  Part="1" 
AR Path="/5461E4E7/5461EBD0" Ref="U2"  Part="1" 
AR Path="/5BE50C6A/5461EBD0" Ref="U5"  Part="1" 
AR Path="/5BE5104D/5461EBD0" Ref="U6"  Part="1" 
F 0 "U6" H 5450 3950 60  0000 C CNN
F 1 "LTC1563-3" H 5450 3850 60  0000 C CNN
F 2 "Package_SO:SSOP-16_3.9x4.9mm_P0.635mm" H 5450 3950 60  0001 C CNN
F 3 "~" H 5450 3950 60  0000 C CNN
	1    5450 3950
	1    0    0    -1  
$EndComp
Wire Wire Line
	6100 2100 6550 2100
Wire Wire Line
	4100 3400 4100 3600
Wire Wire Line
	4750 3600 4900 3600
Wire Wire Line
	6950 3400 6950 3600
Wire Wire Line
	4850 3700 4850 4200
Wire Wire Line
	4850 3500 4850 3700
Wire Wire Line
	6150 3700 6150 3500
Wire Wire Line
	6150 3500 6150 3300
Wire Wire Line
	4550 3800 4900 3800
Wire Wire Line
	6550 2100 6750 2100
Wire Wire Line
	4850 4700 5050 4700
Wire Wire Line
	4850 4200 4850 4700
$Comp
L Device:R R16
U 1 1 5BE38073
P 6600 3200
AR Path="/5BE50C6A/5BE38073" Ref="R16"  Part="1" 
AR Path="/5BE5104D/5BE38073" Ref="R22"  Part="1" 
F 0 "R22" V 6393 3200 50  0000 C CNN
F 1 "116,1K" V 6484 3200 50  0000 C CNN
F 2 "Resistor_SMD:R_0805_2012Metric" V 6530 3200 50  0001 C CNN
F 3 "~" H 6600 3200 50  0001 C CNN
	1    6600 3200
	0    1    1    0   
$EndComp
$Comp
L Device:C C19
U 1 1 5BE380EE
P 4550 4100
AR Path="/5BE50C6A/5BE380EE" Ref="C19"  Part="1" 
AR Path="/5BE5104D/5BE380EE" Ref="C21"  Part="1" 
F 0 "C21" H 4665 4146 50  0000 L CNN
F 1 "0,1µF" H 4665 4055 50  0000 L CNN
F 2 "Capacitor_SMD:C_0805_2012Metric_Pad1.15x1.40mm_HandSolder" H 4588 3950 50  0001 C CNN
F 3 "~" H 4550 4100 50  0001 C CNN
	1    4550 4100
	1    0    0    -1  
$EndComp
$Comp
L Device:C C20
U 1 1 5BE382CD
P 6550 2400
AR Path="/5BE50C6A/5BE382CD" Ref="C20"  Part="1" 
AR Path="/5BE5104D/5BE382CD" Ref="C22"  Part="1" 
F 0 "C22" H 6665 2446 50  0000 L CNN
F 1 "0,1µF" H 6665 2355 50  0000 L CNN
F 2 "Capacitor_SMD:C_0805_2012Metric_Pad1.15x1.40mm_HandSolder" H 6588 2250 50  0001 C CNN
F 3 "~" H 6550 2400 50  0001 C CNN
	1    6550 2400
	1    0    0    -1  
$EndComp
Wire Wire Line
	6550 2100 6550 2250
Wire Wire Line
	6550 2550 6550 2700
Wire Wire Line
	4550 3800 4550 3950
Wire Wire Line
	4550 4250 4550 4700
$Comp
L Device:R R17
U 1 1 5BE3C655
P 6600 3400
AR Path="/5BE50C6A/5BE3C655" Ref="R17"  Part="1" 
AR Path="/5BE5104D/5BE3C655" Ref="R23"  Part="1" 
F 0 "R23" V 6393 3400 50  0000 C CNN
F 1 "116,1K" V 6484 3400 50  0000 C CNN
F 2 "Resistor_SMD:R_0805_2012Metric" V 6530 3400 50  0001 C CNN
F 3 "~" H 6600 3400 50  0001 C CNN
	1    6600 3400
	0    1    1    0   
$EndComp
$Comp
L Device:R R13
U 1 1 5BE3D376
P 3700 3600
AR Path="/5BE50C6A/5BE3D376" Ref="R13"  Part="1" 
AR Path="/5BE5104D/5BE3D376" Ref="R19"  Part="1" 
F 0 "R19" V 3493 3600 50  0000 C CNN
F 1 "116,1K" V 3584 3600 50  0000 C CNN
F 2 "Resistor_SMD:R_0805_2012Metric" V 3630 3600 50  0001 C CNN
F 3 "~" H 3700 3600 50  0001 C CNN
	1    3700 3600
	0    1    1    0   
$EndComp
$Comp
L Device:R R18
U 1 1 5BE3E0CB
P 6950 4050
AR Path="/5BE50C6A/5BE3E0CB" Ref="R18"  Part="1" 
AR Path="/5BE5104D/5BE3E0CB" Ref="R24"  Part="1" 
F 0 "R24" H 7020 4096 50  0000 L CNN
F 1 "116,1K" H 7020 4005 50  0000 L CNN
F 2 "Resistor_SMD:R_0805_2012Metric" V 6880 4050 50  0001 C CNN
F 3 "~" H 6950 4050 50  0001 C CNN
	1    6950 4050
	1    0    0    -1  
$EndComp
$Comp
L Device:R R15
U 1 1 5BE3E0D1
P 4450 3600
AR Path="/5BE50C6A/5BE3E0D1" Ref="R15"  Part="1" 
AR Path="/5BE5104D/5BE3E0D1" Ref="R21"  Part="1" 
F 0 "R21" V 4243 3600 50  0000 C CNN
F 1 "116,1K" V 4334 3600 50  0000 C CNN
F 2 "Resistor_SMD:R_0805_2012Metric" V 4380 3600 50  0001 C CNN
F 3 "~" H 4450 3600 50  0001 C CNN
	1    4450 3600
	0    1    1    0   
$EndComp
$Comp
L Device:R R14
U 1 1 5BE3E0D7
P 4450 3400
AR Path="/5BE50C6A/5BE3E0D7" Ref="R14"  Part="1" 
AR Path="/5BE5104D/5BE3E0D7" Ref="R20"  Part="1" 
F 0 "R20" V 4243 3400 50  0000 C CNN
F 1 "116,1K" V 4334 3400 50  0000 C CNN
F 2 "Resistor_SMD:R_0805_2012Metric" V 4380 3400 50  0001 C CNN
F 3 "~" H 4450 3400 50  0001 C CNN
	1    4450 3400
	0    1    1    0   
$EndComp
Wire Wire Line
	3050 3600 3300 3600
Wire Wire Line
	3850 3600 4100 3600
Wire Wire Line
	4100 3400 4300 3400
Wire Wire Line
	4100 3600 4300 3600
Wire Wire Line
	4600 3400 4900 3400
Wire Wire Line
	4600 3600 4750 3600
Wire Wire Line
	6950 4200 6950 4450
Wire Wire Line
	6950 3600 6950 3900
Wire Wire Line
	6750 3400 6950 3400
Wire Wire Line
	6750 3200 6950 3200
Wire Wire Line
	6250 3200 6450 3200
Wire Wire Line
	6000 3400 6450 3400
$Comp
L Device:R R25
U 1 1 5BF1E663
P 5000 1750
AR Path="/5BE50C6A/5BF1E663" Ref="R25"  Part="1" 
AR Path="/5BE5104D/5BF1E663" Ref="R26"  Part="1" 
F 0 "R26" V 4793 1750 50  0000 C CNN
F 1 "1000Mhom" V 4884 1750 50  0000 C CNN
F 2 "Resistor_SMD:R_1206_3216Metric" V 4930 1750 50  0001 C CNN
F 3 "~" H 5000 1750 50  0001 C CNN
	1    5000 1750
	0    1    1    0   
$EndComp
Wire Wire Line
	3300 3600 3300 1750
Wire Wire Line
	3300 1750 4850 1750
Connection ~ 3300 3600
Wire Wire Line
	3300 3600 3550 3600
Wire Wire Line
	5150 1750 7150 1750
Wire Wire Line
	7150 1750 7150 2950
Connection ~ 7150 2950
Wire Wire Line
	7150 2950 7250 2950
Text Notes 4050 1450 0    50   ~ 0
Bypass resistor, 0 hom in fact. When no filter is in use.\n
$EndSCHEMATC
