EESchema Schematic File Version 4
EELAYER 30 0
EELAYER END
$Descr A4 11693 8268
encoding utf-8
Sheet 2 5
Title ""
Date ""
Rev ""
Comp ""
Comment1 ""
Comment2 ""
Comment3 ""
Comment4 ""
$EndDescr
Wire Wire Line
	7200 3650 6900 3650
Wire Wire Line
	5200 3350 5500 3350
Wire Wire Line
	5350 2650 5350 2850
Wire Wire Line
	3800 4050 5300 4050
Connection ~ 5300 3850
Wire Wire Line
	5300 4050 5300 3850
Wire Wire Line
	5350 2850 5200 2850
Connection ~ 3800 3850
Wire Wire Line
	3850 3850 3800 3850
Wire Wire Line
	3800 3650 3850 3650
Wire Wire Line
	3850 2550 3850 2100
Wire Wire Line
	5850 2100 5850 2950
Wire Wire Line
	5850 2950 5200 2950
Connection ~ 5950 3250
Wire Wire Line
	5200 3450 5800 3450
Wire Wire Line
	5800 3450 5800 3250
Wire Wire Line
	5800 3750 5950 3750
Connection ~ 5950 3750
Connection ~ 6850 2650
Wire Wire Line
	3800 3750 3850 3750
Connection ~ 3800 3750
Wire Wire Line
	5300 3850 5200 3850
Wire Wire Line
	3800 3350 3850 3350
Connection ~ 3800 3650
Wire Wire Line
	5800 3250 5950 3250
Wire Wire Line
	5200 2650 5350 2650
Wire Wire Line
	5500 3250 5200 3250
Wire Wire Line
	7200 3550 6900 3550
NoConn ~ 5200 2750
NoConn ~ 5200 2550
Text Label 3300 2750 0    60   ~ 0
MCLK
$Comp
L ak4396:AK4396UC U3
U 1 1 5BE9B618
P 4400 3950
F 0 "U3" H 4250 3950 60  0000 C CNN
F 1 "AK4396UC" H 4400 5450 60  0000 C CNN
F 2 "Package_SO:SSOP-28_5.3x10.2mm_P0.65mm" H 4400 3950 60  0001 C CNN
F 3 "" H 4400 3950 60  0001 C CNN
	1    4400 3950
	1    0    0    -1  
$EndComp
Text Label 6900 3650 0    60   ~ 0
AOR-
Text Label 6900 3550 0    60   ~ 0
AOR+
Text Label 5500 3350 2    60   ~ 0
AOR-
Text Label 5500 3250 2    60   ~ 0
AOR+
Text Label 3150 3550 0    60   ~ 0
CDTI
Text Label 3150 3450 0    60   ~ 0
CCLK
Text GLabel 7200 2650 2    60   Input ~ 0
GNDA
Text Label 3300 3250 0    60   ~ 0
AK4396CS/
Text Label 3300 2850 0    60   ~ 0
POWERDOWN
Text Label 3300 2950 0    60   ~ 0
SCLK
Text Label 3300 3050 0    60   ~ 0
SDATA
Text Label 3300 3150 0    60   ~ 0
LRCK
Text GLabel 3650 4050 0    60   Input ~ 0
GNDA
Wire Wire Line
	5300 3850 5300 3750
Wire Wire Line
	3800 3850 3800 3750
Wire Wire Line
	6850 2650 7200 2650
Wire Wire Line
	3800 3750 3800 3650
Wire Wire Line
	5300 3750 5200 3750
Wire Wire Line
	3800 3650 3800 3350
$Sheet
S 7200 2800 550  1400
U 5BE3945A
F0 "amp_dif" 50
F1 "amp_dif.sch" 50
F2 "AOUTL" I R 7750 3400 50 
F3 "AOUTL+" I L 7200 3050 50 
F4 "AOUTL-" I L 7200 3150 50 
F5 "AOUTR" I R 7750 3300 50 
F6 "AOUTR+" I L 7200 3550 50 
F7 "AOUTR-" I L 7200 3650 50 
$EndSheet
$Comp
L Device:C C9
U 1 1 5BE3C879
P 6400 2400
F 0 "C9" H 6515 2446 50  0000 L CNN
F 1 "0,1µF" H 6515 2355 50  0000 L CNN
F 2 "Capacitor_THT:C_Rect_L7.2mm_W5.5mm_P5.00mm_FKS2_FKP2_MKS2_MKP2" H 6438 2250 50  0001 C CNN
F 3 "~" H 6400 2400 50  0001 C CNN
F 4 "1890265" H 6400 2400 50  0001 C CNN "Ref Farnell"
	1    6400 2400
	1    0    0    -1  
$EndComp
$Comp
L Device:CP1 C12
U 1 1 5BE3C8F6
P 6850 2400
F 0 "C12" H 6965 2446 50  0000 L CNN
F 1 "10uF" H 6965 2355 50  0000 L CNN
F 2 "Capacitor_THT:CP_Radial_D5.0mm_P2.00mm" H 6850 2400 50  0001 C CNN
F 3 "~" H 6850 2400 50  0001 C CNN
F 4 "2841905" H 6850 2400 50  0001 C CNN "Ref Farnell"
	1    6850 2400
	1    0    0    -1  
$EndComp
$Comp
L Device:C C7
U 1 1 5BE3CA9C
P 5950 3500
F 0 "C7" H 6065 3546 50  0000 L CNN
F 1 "0,1µF" H 6065 3455 50  0000 L CNN
F 2 "Capacitor_THT:C_Rect_L7.2mm_W5.5mm_P5.00mm_FKS2_FKP2_MKS2_MKP2" H 5988 3350 50  0001 C CNN
F 3 "~" H 5950 3500 50  0001 C CNN
F 4 "1890265" H 5950 3500 50  0001 C CNN "Ref Farnell"
	1    5950 3500
	1    0    0    -1  
$EndComp
$Comp
L Device:CP1 C10
U 1 1 5BE3CAA2
P 6400 3500
F 0 "C10" H 6285 3454 50  0000 R CNN
F 1 "10uF" H 6285 3545 50  0000 R CNN
F 2 "Capacitor_THT:CP_Radial_D5.0mm_P2.00mm" H 6400 3500 50  0001 C CNN
F 3 "~" H 6400 3500 50  0001 C CNN
F 4 "2841905" H 6400 3500 50  0001 C CNN "Ref Farnell"
	1    6400 3500
	-1   0    0    1   
$EndComp
Wire Wire Line
	5850 2100 6400 2100
Wire Wire Line
	6850 2100 6850 2250
Wire Wire Line
	6850 2550 6850 2650
Wire Wire Line
	6400 2650 6400 2550
Wire Wire Line
	6400 2650 6850 2650
Wire Wire Line
	6400 2250 6400 2100
Connection ~ 6400 2100
Wire Wire Line
	6400 2100 6850 2100
$Comp
L Device:C C5
U 1 1 5BE47434
P 3000 2400
F 0 "C5" H 3115 2446 50  0000 L CNN
F 1 "0,1µF" H 3115 2355 50  0000 L CNN
F 2 "Capacitor_THT:C_Rect_L7.2mm_W5.5mm_P5.00mm_FKS2_FKP2_MKS2_MKP2" H 3038 2250 50  0001 C CNN
F 3 "~" H 3000 2400 50  0001 C CNN
F 4 "1890265" H 3000 2400 50  0001 C CNN "Ref Farnell"
	1    3000 2400
	1    0    0    -1  
$EndComp
$Comp
L Device:CP1 C6
U 1 1 5BE4743A
P 3500 2400
F 0 "C6" H 3385 2354 50  0000 R CNN
F 1 "10uF" H 3385 2445 50  0000 R CNN
F 2 "Capacitor_THT:CP_Radial_D5.0mm_P2.00mm" H 3500 2400 50  0001 C CNN
F 3 "~" H 3500 2400 50  0001 C CNN
F 4 "2841905" H 3500 2400 50  0001 C CNN "Ref Farnell"
	1    3500 2400
	-1   0    0    1   
$EndComp
$Comp
L Device:C C8
U 1 1 5BE4ADF0
P 5950 4150
F 0 "C8" H 6065 4196 50  0000 L CNN
F 1 "0,1µF" H 6065 4105 50  0000 L CNN
F 2 "Capacitor_THT:C_Rect_L7.2mm_W5.5mm_P5.00mm_FKS2_FKP2_MKS2_MKP2" H 5988 4000 50  0001 C CNN
F 3 "~" H 5950 4150 50  0001 C CNN
F 4 "1890265" H 5950 4150 50  0001 C CNN "Ref Farnell"
	1    5950 4150
	1    0    0    -1  
$EndComp
$Comp
L Device:CP1 C11
U 1 1 5BE4ADF6
P 6400 4150
F 0 "C11" H 6515 4196 50  0000 L CNN
F 1 "10uF" H 6515 4105 50  0000 L CNN
F 2 "Capacitor_THT:CP_Radial_D5.0mm_P2.00mm" H 6400 4150 50  0001 C CNN
F 3 "~" H 6400 4150 50  0001 C CNN
F 4 "2841905" H 6400 4150 50  0001 C CNN "Ref Farnell"
	1    6400 4150
	1    0    0    -1  
$EndComp
Wire Wire Line
	5200 3050 7200 3050
Wire Wire Line
	5200 3150 7200 3150
Wire Wire Line
	5950 3250 6400 3250
Wire Wire Line
	6400 3750 6400 3650
Wire Wire Line
	5950 3750 6400 3750
Wire Wire Line
	6400 3350 6400 3250
Wire Wire Line
	5950 3250 5950 3350
Wire Wire Line
	5950 3650 5950 3750
Wire Wire Line
	5950 4300 5950 4400
Wire Wire Line
	6400 4400 6400 4300
Wire Wire Line
	5950 4400 6400 4400
Wire Wire Line
	6400 3750 6550 3750
Wire Wire Line
	2750 2650 2850 2650
Wire Wire Line
	3500 2250 3500 2100
Connection ~ 3500 2100
Wire Wire Line
	3500 2100 3850 2100
Wire Wire Line
	3500 2550 3500 2650
Connection ~ 3500 2650
Wire Wire Line
	3500 2650 3850 2650
Wire Wire Line
	3000 2550 3000 2650
Connection ~ 3000 2650
Wire Wire Line
	3000 2650 3500 2650
Wire Wire Line
	3000 2250 3000 2100
Connection ~ 3000 2100
Wire Wire Line
	3000 2100 3500 2100
Text Label 8050 3300 0    50   ~ 0
OUTR
Text Label 8050 3400 0    50   ~ 0
OUTL
Text HLabel 8550 3300 2    50   Output ~ 0
OUTR
Text HLabel 8550 3400 2    50   Output ~ 0
OUTL
Wire Wire Line
	7750 3300 8550 3300
Wire Wire Line
	7750 3400 8550 3400
Text HLabel 3050 2750 0    50   Input ~ 0
MCLK
Wire Wire Line
	3050 2750 3850 2750
Text HLabel 3050 2850 0    50   Input ~ 0
RESET
Text HLabel 3050 2950 0    50   Input ~ 0
SCLK
Text HLabel 3050 3050 0    50   Input ~ 0
SDATA
Text HLabel 3050 3150 0    50   Input ~ 0
LRCK
Text HLabel 3050 3250 0    50   Input ~ 0
CS
Text HLabel 3050 3450 0    50   Input ~ 0
CCLK
Text HLabel 3050 3550 0    50   Input ~ 0
CDTI
Wire Wire Line
	3050 2850 3850 2850
Wire Wire Line
	3050 2950 3850 2950
Wire Wire Line
	3050 3050 3850 3050
Wire Wire Line
	3050 3150 3850 3150
Wire Wire Line
	3050 3250 3850 3250
Wire Wire Line
	3050 3450 3850 3450
Wire Wire Line
	3050 3550 3850 3550
Text HLabel 2750 2650 0    50   Input ~ 0
3,3V
Text HLabel 2750 2100 0    50   Input ~ 0
DGND
Text HLabel 6550 3750 2    50   Input ~ 0
5VA
$Comp
L power:PWR_FLAG #FLG0105
U 1 1 5E196443
P 2850 2650
F 0 "#FLG0105" H 2850 2725 50  0001 C CNN
F 1 "PWR_FLAG" H 2850 2824 50  0000 C CNN
F 2 "" H 2850 2650 50  0001 C CNN
F 3 "~" H 2850 2650 50  0001 C CNN
	1    2850 2650
	1    0    0    -1  
$EndComp
Connection ~ 2850 2650
Wire Wire Line
	2850 2650 3000 2650
Wire Wire Line
	2750 2100 3000 2100
Wire Wire Line
	5950 4000 5950 3750
Connection ~ 6400 3750
Wire Wire Line
	5200 3650 5300 3650
Wire Wire Line
	5800 3650 5800 3750
Wire Wire Line
	6400 3750 6400 4000
Wire Wire Line
	5950 4400 5300 4400
Wire Wire Line
	5300 4400 5300 4050
Connection ~ 5950 4400
Connection ~ 5300 4050
Text GLabel 6650 3250 2    60   Input ~ 0
GNDA
Wire Wire Line
	3800 3850 3800 4050
Wire Wire Line
	3650 4050 3800 4050
Connection ~ 3800 4050
Wire Wire Line
	5200 3550 5300 3550
Wire Wire Line
	5300 3550 5300 3650
Connection ~ 5300 3650
Wire Wire Line
	5300 3650 5800 3650
Wire Wire Line
	6400 3250 6650 3250
Connection ~ 6400 3250
Text GLabel 5500 2650 2    60   Input ~ 0
GNDA
Wire Wire Line
	5350 2650 5500 2650
Connection ~ 5350 2650
$EndSCHEMATC
