EESchema Schematic File Version 4
EELAYER 30 0
EELAYER END
$Descr A4 11693 8268
encoding utf-8
Sheet 3 5
Title ""
Date "7 dec 2011"
Rev ""
Comp ""
Comment1 ""
Comment2 ""
Comment3 ""
Comment4 ""
$EndDescr
Wire Wire Line
	8800 3550 8650 3550
Wire Wire Line
	8650 3550 8650 3500
Wire Wire Line
	5100 6100 4450 6100
Connection ~ 4450 4150
Connection ~ 6300 5300
Wire Wire Line
	5100 4450 5100 5200
Wire Wire Line
	8800 2850 8650 2850
Wire Wire Line
	8650 2850 8650 2900
Wire Wire Line
	6300 5300 7200 5300
Connection ~ 5100 4450
Wire Wire Line
	6300 4150 6300 4450
Wire Wire Line
	6300 4450 6300 5300
Connection ~ 6300 4450
Connection ~ 4450 4450
Connection ~ 4450 5400
Connection ~ 5100 5400
Connection ~ 5100 6100
Wire Wire Line
	4450 4450 4450 4150
Text HLabel 7200 5300 2    60   Input ~ 0
AOUTL
Text HLabel 3400 5400 0    60   Input ~ 0
AOUTL+
Text HLabel 3400 4150 0    60   Input ~ 0
AOUTL-
Text GLabel 7200 6100 2    60   Input ~ 0
GNDA
Text GLabel 8800 2850 2    60   Input ~ 0
15VA
Text GLabel 8800 3550 2    60   Input ~ 0
-15VA
$Comp
L Device:R R?
U 1 1 5BE385A4
P 4750 5400
AR Path="/5BE9B629/5BE385A4" Ref="R?"  Part="1" 
AR Path="/5BE3945A/5BE385A4" Ref="R10"  Part="1" 
AR Path="/5BE99B33/5BE3945A/5BE385A4" Ref="R10"  Part="1" 
F 0 "R10" V 4543 5400 50  0000 C CNN
F 1 "150R" V 4634 5400 50  0000 C CNN
F 2 "Resistor_SMD:R_0805_2012Metric" V 4680 5400 50  0001 C CNN
F 3 "~" H 4750 5400 50  0001 C CNN
	1    4750 5400
	0    1    1    0   
$EndComp
$Comp
L Device:C C?
U 1 1 5BE3ACE7
P 5600 4450
AR Path="/5BE9B629/5BE3ACE7" Ref="C?"  Part="1" 
AR Path="/5BE3945A/5BE3ACE7" Ref="C14"  Part="1" 
AR Path="/5BE99B33/5BE3945A/5BE3ACE7" Ref="C18"  Part="1" 
F 0 "C18" V 5348 4450 50  0000 C CNN
F 1 "680p" V 5439 4450 50  0000 C CNN
F 2 "Capacitor_SMD:C_0805_2012Metric" H 5638 4300 50  0001 C CNN
F 3 "~" H 5600 4450 50  0001 C CNN
F 4 "2905295" H 5600 4450 50  0001 C CNN "Ref Farnell"
	1    5600 4450
	0    1    1    0   
$EndComp
$Comp
L Device:R R?
U 1 1 5BE3D1EA
P 5600 4150
AR Path="/5BE9B629/5BE3D1EA" Ref="R?"  Part="1" 
AR Path="/5BE3945A/5BE3D1EA" Ref="R12"  Part="1" 
AR Path="/5BE99B33/5BE3945A/5BE3D1EA" Ref="R12"  Part="1" 
F 0 "R12" V 5393 4150 50  0000 C CNN
F 1 "2,4K" V 5484 4150 50  0000 C CNN
F 2 "Resistor_SMD:R_0805_2012Metric" V 5530 4150 50  0001 C CNN
F 3 "~" H 5600 4150 50  0001 C CNN
F 4 "9332880" H 5600 4150 50  0001 C CNN "Ref Farnell"
	1    5600 4150
	0    1    1    0   
$EndComp
Wire Wire Line
	4900 5400 5100 5400
Wire Wire Line
	4450 5400 4600 5400
$Comp
L Device:R R?
U 1 1 5BE430DD
P 4100 5400
AR Path="/5BE9B629/5BE430DD" Ref="R?"  Part="1" 
AR Path="/5BE3945A/5BE430DD" Ref="R4"  Part="1" 
AR Path="/5BE99B33/5BE3945A/5BE430DD" Ref="R4"  Part="1" 
F 0 "R4" H 4170 5446 50  0000 L CNN
F 1 "2,4K" H 4170 5355 50  0000 L CNN
F 2 "Resistor_SMD:R_0805_2012Metric" V 4030 5400 50  0001 C CNN
F 3 "~" H 4100 5400 50  0001 C CNN
F 4 "9332880" H 4100 5400 50  0001 C CNN "Ref Farnell"
	1    4100 5400
	0    -1   -1   0   
$EndComp
$Comp
L Device:C C?
U 1 1 5BE455FD
P 5100 5700
AR Path="/5BE9B629/5BE455FD" Ref="C?"  Part="1" 
AR Path="/5BE3945A/5BE455FD" Ref="C4"  Part="1" 
AR Path="/5BE99B33/5BE3945A/5BE455FD" Ref="C16"  Part="1" 
F 0 "C16" H 5215 5746 50  0000 L CNN
F 1 "680p" H 5215 5655 50  0000 L CNN
F 2 "Capacitor_SMD:C_0805_2012Metric" H 5138 5550 50  0001 C CNN
F 3 "~" H 5100 5700 50  0001 C CNN
F 4 "2905295" H 5100 5700 50  0001 C CNN "Ref Farnell"
	1    5100 5700
	1    0    0    -1  
$EndComp
$Comp
L Device:R R?
U 1 1 5BE46C68
P 4100 4150
AR Path="/5BE9B629/5BE46C68" Ref="R?"  Part="1" 
AR Path="/5BE3945A/5BE46C68" Ref="R3"  Part="1" 
AR Path="/5BE99B33/5BE3945A/5BE46C68" Ref="R3"  Part="1" 
F 0 "R3" H 4170 4196 50  0000 L CNN
F 1 "2,4K" H 4170 4105 50  0000 L CNN
F 2 "Resistor_SMD:R_0805_2012Metric" V 4030 4150 50  0001 C CNN
F 3 "~" H 4100 4150 50  0001 C CNN
F 4 "9332880" H 4100 4150 50  0001 C CNN "Ref Farnell"
	1    4100 4150
	0    -1   -1   0   
$EndComp
$Comp
L Device:C C?
U 1 1 5BE4A43B
P 4450 4950
AR Path="/5BE9B629/5BE4A43B" Ref="C?"  Part="1" 
AR Path="/5BE3945A/5BE4A43B" Ref="C2"  Part="1" 
AR Path="/5BE99B33/5BE3945A/5BE4A43B" Ref="C14"  Part="1" 
F 0 "C14" H 4565 4996 50  0000 L CNN
F 1 "3,3n" H 4565 4905 50  0000 L CNN
F 2 "Capacitor_SMD:C_0805_2012Metric" H 4488 4800 50  0001 C CNN
F 3 "~" H 4450 4950 50  0001 C CNN
F 4 "1789732" H 4450 4950 50  0001 C CNN "Ref Farnell"
	1    4450 4950
	1    0    0    -1  
$EndComp
$Comp
L Device:R R?
U 1 1 5BE4B985
P 4750 4450
AR Path="/5BE9B629/5BE4B985" Ref="R?"  Part="1" 
AR Path="/5BE3945A/5BE4B985" Ref="R9"  Part="1" 
AR Path="/5BE99B33/5BE3945A/5BE4B985" Ref="R9"  Part="1" 
F 0 "R9" V 4543 4450 50  0000 C CNN
F 1 "150R" V 4634 4450 50  0000 C CNN
F 2 "Resistor_SMD:R_0805_2012Metric" V 4680 4450 50  0001 C CNN
F 3 "~" H 4750 4450 50  0001 C CNN
	1    4750 4450
	0    1    1    0   
$EndComp
Wire Wire Line
	4450 4450 4450 4800
Wire Wire Line
	4250 4150 4450 4150
Wire Wire Line
	3400 4150 3950 4150
Wire Wire Line
	3400 5400 3950 5400
Wire Wire Line
	4250 5400 4450 5400
Wire Wire Line
	4450 5100 4450 5400
Wire Wire Line
	4450 4450 4600 4450
Wire Wire Line
	4900 4450 5100 4450
Wire Wire Line
	4450 5400 4450 5600
Wire Wire Line
	4450 5900 4450 6100
Wire Wire Line
	5100 5400 5100 5550
Wire Wire Line
	5100 5850 5100 6100
Wire Wire Line
	4450 4150 5450 4150
Wire Wire Line
	5750 4150 6300 4150
Wire Wire Line
	5750 4450 6300 4450
Wire Wire Line
	5100 4450 5450 4450
Wire Wire Line
	6000 5300 6300 5300
Wire Wire Line
	5100 5200 5400 5200
Wire Wire Line
	5100 5400 5400 5400
Wire Wire Line
	5100 3350 4450 3350
Connection ~ 4450 1400
Connection ~ 6300 2550
Wire Wire Line
	5100 1700 5100 2450
Wire Wire Line
	6300 2550 7200 2550
Connection ~ 5100 1700
Wire Wire Line
	6300 1400 6300 1700
Wire Wire Line
	6300 1700 6300 2550
Connection ~ 6300 1700
Connection ~ 4450 1700
Connection ~ 4450 2650
Connection ~ 5100 2650
Connection ~ 5100 3350
Wire Wire Line
	4450 1700 4450 1400
Text HLabel 7200 2550 2    60   Input ~ 0
AOUTR
Text HLabel 3400 2650 0    60   Input ~ 0
AOUTR+
Text HLabel 3400 1400 0    60   Input ~ 0
AOUTR-
Text GLabel 7200 3350 2    60   Input ~ 0
GNDA
$Comp
L Device:R R?
U 1 1 5BE65CC3
P 4750 2650
AR Path="/5BE9B629/5BE65CC3" Ref="R?"  Part="1" 
AR Path="/5BE3945A/5BE65CC3" Ref="R8"  Part="1" 
AR Path="/5BE99B33/5BE3945A/5BE65CC3" Ref="R8"  Part="1" 
F 0 "R8" V 4543 2650 50  0000 C CNN
F 1 "150R" V 4634 2650 50  0000 C CNN
F 2 "Resistor_SMD:R_0805_2012Metric" V 4680 2650 50  0001 C CNN
F 3 "~" H 4750 2650 50  0001 C CNN
	1    4750 2650
	0    1    1    0   
$EndComp
$Comp
L Device:C C?
U 1 1 5BE65CC9
P 5600 1700
AR Path="/5BE9B629/5BE65CC9" Ref="C?"  Part="1" 
AR Path="/5BE3945A/5BE65CC9" Ref="C13"  Part="1" 
AR Path="/5BE99B33/5BE3945A/5BE65CC9" Ref="C17"  Part="1" 
F 0 "C17" V 5348 1700 50  0000 C CNN
F 1 "680p" V 5439 1700 50  0000 C CNN
F 2 "Capacitor_SMD:C_0805_2012Metric" H 5638 1550 50  0001 C CNN
F 3 "~" H 5600 1700 50  0001 C CNN
F 4 "2905295" H 5600 1700 50  0001 C CNN "Ref Farnell"
	1    5600 1700
	0    1    1    0   
$EndComp
$Comp
L Device:R R?
U 1 1 5BE65CCF
P 5600 1400
AR Path="/5BE9B629/5BE65CCF" Ref="R?"  Part="1" 
AR Path="/5BE3945A/5BE65CCF" Ref="R11"  Part="1" 
AR Path="/5BE99B33/5BE3945A/5BE65CCF" Ref="R11"  Part="1" 
F 0 "R11" V 5393 1400 50  0000 C CNN
F 1 "2,4K" V 5484 1400 50  0000 C CNN
F 2 "Resistor_SMD:R_0805_2012Metric" V 5530 1400 50  0001 C CNN
F 3 "~" H 5600 1400 50  0001 C CNN
F 4 "9332880x8" H 5600 1400 50  0001 C CNN "Ref Farnell"
	1    5600 1400
	0    1    1    0   
$EndComp
Wire Wire Line
	4900 2650 5100 2650
Wire Wire Line
	4450 2650 4600 2650
$Comp
L Device:R R?
U 1 1 5BE65CD7
P 4450 3000
AR Path="/5BE9B629/5BE65CD7" Ref="R?"  Part="1" 
AR Path="/5BE3945A/5BE65CD7" Ref="R5"  Part="1" 
AR Path="/5BE99B33/5BE3945A/5BE65CD7" Ref="R5"  Part="1" 
F 0 "R5" H 4520 3046 50  0000 L CNN
F 1 "2,4K" H 4520 2955 50  0000 L CNN
F 2 "Resistor_SMD:R_0805_2012Metric" V 4380 3000 50  0001 C CNN
F 3 "~" H 4450 3000 50  0001 C CNN
F 4 "9332880" H 4450 3000 50  0001 C CNN "Ref Farnell"
	1    4450 3000
	1    0    0    -1  
$EndComp
$Comp
L Device:R R?
U 1 1 5BE65CDD
P 4100 2650
AR Path="/5BE9B629/5BE65CDD" Ref="R?"  Part="1" 
AR Path="/5BE3945A/5BE65CDD" Ref="R2"  Part="1" 
AR Path="/5BE99B33/5BE3945A/5BE65CDD" Ref="R2"  Part="1" 
F 0 "R2" H 4170 2696 50  0000 L CNN
F 1 "2,4K" H 4170 2605 50  0000 L CNN
F 2 "Resistor_SMD:R_0805_2012Metric" V 4030 2650 50  0001 C CNN
F 3 "~" H 4100 2650 50  0001 C CNN
F 4 "9332880" H 4100 2650 50  0001 C CNN "Ref Farnell"
	1    4100 2650
	0    -1   -1   0   
$EndComp
$Comp
L Device:C C?
U 1 1 5BE65CE3
P 5100 2950
AR Path="/5BE9B629/5BE65CE3" Ref="C?"  Part="1" 
AR Path="/5BE3945A/5BE65CE3" Ref="C3"  Part="1" 
AR Path="/5BE99B33/5BE3945A/5BE65CE3" Ref="C15"  Part="1" 
F 0 "C15" H 5215 2996 50  0000 L CNN
F 1 "680p" H 5215 2905 50  0000 L CNN
F 2 "Capacitor_SMD:C_0805_2012Metric" H 5138 2800 50  0001 C CNN
F 3 "~" H 5100 2950 50  0001 C CNN
F 4 "2905295" H 5100 2950 50  0001 C CNN "Ref Farnell"
	1    5100 2950
	1    0    0    -1  
$EndComp
$Comp
L Device:R R?
U 1 1 5BE65CE9
P 4100 1400
AR Path="/5BE9B629/5BE65CE9" Ref="R?"  Part="1" 
AR Path="/5BE3945A/5BE65CE9" Ref="R1"  Part="1" 
AR Path="/5BE99B33/5BE3945A/5BE65CE9" Ref="R1"  Part="1" 
F 0 "R1" H 4170 1446 50  0000 L CNN
F 1 "2,4K" H 4170 1355 50  0000 L CNN
F 2 "Resistor_SMD:R_0805_2012Metric" V 4030 1400 50  0001 C CNN
F 3 "~" H 4100 1400 50  0001 C CNN
F 4 "9332880" H 4100 1400 50  0001 C CNN "Ref Farnell"
	1    4100 1400
	0    -1   -1   0   
$EndComp
$Comp
L Device:C C?
U 1 1 5BE65CEF
P 4450 2200
AR Path="/5BE9B629/5BE65CEF" Ref="C?"  Part="1" 
AR Path="/5BE3945A/5BE65CEF" Ref="C1"  Part="1" 
AR Path="/5BE99B33/5BE3945A/5BE65CEF" Ref="C13"  Part="1" 
F 0 "C13" H 4565 2246 50  0000 L CNN
F 1 "3,3n" H 4565 2155 50  0000 L CNN
F 2 "Capacitor_SMD:C_0805_2012Metric" H 4488 2050 50  0001 C CNN
F 3 "~" H 4450 2200 50  0001 C CNN
F 4 "1789732" H 4450 2200 50  0001 C CNN "Ref Farnell"
	1    4450 2200
	1    0    0    -1  
$EndComp
$Comp
L Device:R R?
U 1 1 5BE65CF5
P 4750 1700
AR Path="/5BE9B629/5BE65CF5" Ref="R?"  Part="1" 
AR Path="/5BE3945A/5BE65CF5" Ref="R7"  Part="1" 
AR Path="/5BE99B33/5BE3945A/5BE65CF5" Ref="R7"  Part="1" 
F 0 "R7" V 4543 1700 50  0000 C CNN
F 1 "150R" V 4634 1700 50  0000 C CNN
F 2 "Resistor_SMD:R_0805_2012Metric" V 4680 1700 50  0001 C CNN
F 3 "~" H 4750 1700 50  0001 C CNN
	1    4750 1700
	0    1    1    0   
$EndComp
Wire Wire Line
	4450 1700 4450 2050
Wire Wire Line
	4250 1400 4450 1400
Wire Wire Line
	3400 1400 3950 1400
Wire Wire Line
	3400 2650 3950 2650
Wire Wire Line
	4250 2650 4450 2650
Wire Wire Line
	4450 2350 4450 2650
Wire Wire Line
	4450 1700 4600 1700
Wire Wire Line
	4900 1700 5100 1700
Wire Wire Line
	4450 2650 4450 2850
Wire Wire Line
	4450 3150 4450 3350
Wire Wire Line
	5100 2650 5100 2800
Wire Wire Line
	5100 3100 5100 3350
Wire Wire Line
	4450 1400 5450 1400
Wire Wire Line
	5750 1400 6300 1400
Wire Wire Line
	5750 1700 6300 1700
Wire Wire Line
	5100 1700 5450 1700
Wire Wire Line
	6000 2550 6300 2550
Wire Wire Line
	5100 2450 5400 2450
Wire Wire Line
	5100 2650 5400 2650
$Comp
L Device:R R31
U 1 1 5DE7D8EF
P 6300 2900
F 0 "R31" H 6370 2946 50  0000 L CNN
F 1 "47K" H 6370 2855 50  0000 L CNN
F 2 "Resistor_SMD:R_0805_2012Metric" V 6230 2900 50  0001 C CNN
F 3 "~" H 6300 2900 50  0001 C CNN
	1    6300 2900
	1    0    0    -1  
$EndComp
$Comp
L Device:R R32
U 1 1 5DE7D9A9
P 6300 5650
F 0 "R32" H 6370 5696 50  0000 L CNN
F 1 "47K" H 6370 5605 50  0000 L CNN
F 2 "Resistor_SMD:R_0805_2012Metric" V 6230 5650 50  0001 C CNN
F 3 "~" H 6300 5650 50  0001 C CNN
	1    6300 5650
	1    0    0    -1  
$EndComp
Wire Wire Line
	6300 2750 6300 2550
Wire Wire Line
	5100 3350 6300 3350
Wire Wire Line
	6300 3350 6300 3050
Connection ~ 6300 3350
Wire Wire Line
	6300 3350 7200 3350
Wire Wire Line
	5100 6100 6300 6100
Wire Wire Line
	6300 6100 6300 5800
Connection ~ 6300 6100
Wire Wire Line
	6300 6100 7200 6100
Wire Wire Line
	6300 5300 6300 5500
$Comp
L Amplifier_Operational:OPA1602 U4
U 2 1 5F33870B
P 5700 5300
F 0 "U4" H 5700 5667 50  0000 C CNN
F 1 "OPA1602" H 5700 5576 50  0000 C CNN
F 2 "Package_SO:SOIC-8_3.9x4.9mm_P1.27mm" H 5700 5300 50  0001 C CNN
F 3 "http://www.ti.com/lit/ds/symlink/opa1604.pdf" H 5700 5300 50  0001 C CNN
F 4 "3116895" H 5700 5300 50  0001 C CNN "Ref Farnell"
	2    5700 5300
	1    0    0    -1  
$EndComp
$Comp
L Amplifier_Operational:OPA1602 U4
U 1 1 5F335A30
P 5700 2550
F 0 "U4" H 5700 2917 50  0000 C CNN
F 1 "OPA1602" H 5700 2826 50  0000 C CNN
F 2 "Package_SO:SOIC-8_3.9x4.9mm_P1.27mm" H 5700 2550 50  0001 C CNN
F 3 "http://www.ti.com/lit/ds/symlink/opa1604.pdf" H 5700 2550 50  0001 C CNN
	1    5700 2550
	1    0    0    -1  
$EndComp
$Comp
L Amplifier_Operational:OPA1602 U4
U 3 1 5F359A23
P 8750 3200
F 0 "U4" H 8708 3246 50  0000 L CNN
F 1 "OPA1602" H 8708 3155 50  0000 L CNN
F 2 "Package_SO:SOIC-8_3.9x4.9mm_P1.27mm" H 8750 3200 50  0001 C CNN
F 3 "http://www.ti.com/lit/ds/symlink/opa1604.pdf" H 8750 3200 50  0001 C CNN
	3    8750 3200
	1    0    0    -1  
$EndComp
$Comp
L Device:R R?
U 1 1 5BE40C09
P 4450 5750
AR Path="/5BE9B629/5BE40C09" Ref="R?"  Part="1" 
AR Path="/5BE3945A/5BE40C09" Ref="R6"  Part="1" 
AR Path="/5BE99B33/5BE3945A/5BE40C09" Ref="R6"  Part="1" 
F 0 "R6" H 4520 5796 50  0000 L CNN
F 1 "2,4K" H 4520 5705 50  0000 L CNN
F 2 "Resistor_SMD:R_0805_2012Metric" V 4380 5750 50  0001 C CNN
F 3 "~" H 4450 5750 50  0001 C CNN
F 4 "9332880" H 4450 5750 50  0001 C CNN "Ref Farnell"
	1    4450 5750
	1    0    0    -1  
$EndComp
$EndSCHEMATC
