EESchema Schematic File Version 4
EELAYER 30 0
EELAYER END
$Descr A4 11693 8268
encoding utf-8
Sheet 1 5
Title ""
Date ""
Rev ""
Comp ""
Comment1 ""
Comment2 ""
Comment3 ""
Comment4 ""
$EndDescr
$Comp
L Mechanical:MountingHole_Pad H1
U 1 1 5BE99A3D
P 9200 1700
F 0 "H1" H 9300 1751 50  0000 L CNN
F 1 "MountingHole_Pad" H 9300 1660 50  0000 L CNN
F 2 "MountingHole:MountingHole_3.2mm_M3_Pad" H 9200 1700 50  0001 C CNN
F 3 "~" H 9200 1700 50  0001 C CNN
	1    9200 1700
	1    0    0    -1  
$EndComp
$Comp
L Mechanical:MountingHole_Pad H2
U 1 1 5BE99ACD
P 9200 2000
F 0 "H2" H 9300 2051 50  0000 L CNN
F 1 "MountingHole_Pad" H 9300 1960 50  0000 L CNN
F 2 "MountingHole:MountingHole_3.2mm_M3_Pad" H 9200 2000 50  0001 C CNN
F 3 "~" H 9200 2000 50  0001 C CNN
	1    9200 2000
	1    0    0    -1  
$EndComp
$Comp
L Mechanical:MountingHole_Pad H3
U 1 1 5BE99B23
P 9200 2300
F 0 "H3" H 9300 2351 50  0000 L CNN
F 1 "Modac Commit 29/03/2020" H 9300 2260 50  0000 L CNN
F 2 "MountingHole:MountingHole_3.2mm_M3_Pad" H 9200 2300 50  0001 C CNN
F 3 "~" H 9200 2300 50  0001 C CNN
	1    9200 2300
	1    0    0    -1  
$EndComp
$Comp
L Mechanical:MountingHole_Pad H4
U 1 1 5BE99B29
P 9200 2600
F 0 "H4" H 9300 2651 50  0000 L CNN
F 1 "MountingHole_Pad" H 9300 2560 50  0000 L CNN
F 2 "MountingHole:MountingHole_3.2mm_M3_Pad" H 9200 2600 50  0001 C CNN
F 3 "~" H 9200 2600 50  0001 C CNN
	1    9200 2600
	1    0    0    -1  
$EndComp
$Sheet
S 3200 3800 1050 1300
U 5BE99B33
F0 "AKM4396" 50
F1 "AKM4396.sch" 50
F2 "OUTR" O R 4250 4100 50 
F3 "OUTL" O R 4250 4000 50 
F4 "MCLK" I L 3200 4000 50 
F5 "RESET" I L 3200 3900 50 
F6 "SCLK" I L 3200 4200 50 
F7 "SDATA" I L 3200 4500 50 
F8 "LRCK" I L 3200 4300 50 
F9 "CS" I L 3200 4600 50 
F10 "CCLK" I L 3200 4400 50 
F11 "CDTI" I L 3200 4100 50 
F12 "3,3V" I L 3200 4800 50 
F13 "DGND" I L 3200 4900 50 
F14 "5VA" I R 4250 4600 50 
$EndSheet
Text Label 9350 4150 0    50   ~ 0
AUDR
Text Label 1850 4000 0    50   ~ 0
MCLK
Text Label 1850 4600 0    50   ~ 0
PWDWN_RESET
Text Label 1850 4200 0    50   ~ 0
SCLK
Text Label 1850 4400 0    50   ~ 0
LRCK
Text Label 1850 4500 0    50   ~ 0
CS
Text Label 1850 3900 0    50   ~ 0
3,3V
Text GLabel 7400 1650 2    50   Input ~ 0
GNDA
Wire Wire Line
	9200 1800 9050 1800
Wire Wire Line
	9050 1800 9050 2100
Wire Wire Line
	9050 2100 9200 2100
Wire Wire Line
	9050 2100 9050 2400
Wire Wire Line
	9050 2400 9200 2400
Connection ~ 9050 2100
Wire Wire Line
	9050 2400 9050 2700
Wire Wire Line
	9050 2700 9200 2700
Connection ~ 9050 2400
Wire Wire Line
	9050 2700 8650 2700
Connection ~ 9050 2700
Text GLabel 8650 2700 0    50   Input ~ 0
GNDA
Wire Wire Line
	2350 5150 2550 5150
Text GLabel 2550 5150 2    50   Input ~ 0
GNDA
Text Notes 1050 5200 0    50   ~ 0
Micro Match Connector\n
Text Label 7400 1150 0    50   ~ 0
+5V
Wire Wire Line
	6100 1450 6100 1650
Connection ~ 6100 1650
Wire Wire Line
	6400 1150 6850 1150
Wire Wire Line
	4250 4600 4550 4600
Text Label 4550 4600 0    50   ~ 0
+5V
$Comp
L power:PWR_FLAG #FLG0101
U 1 1 5BF1D885
P 4150 2300
F 0 "#FLG0101" H 4150 2375 50  0001 C CNN
F 1 "PWR_FLAG" H 4150 2473 50  0000 C CNN
F 2 "" H 4150 2300 50  0001 C CNN
F 3 "~" H 4150 2300 50  0001 C CNN
	1    4150 2300
	-1   0    0    1   
$EndComp
$Comp
L power:PWR_FLAG #FLG0102
U 1 1 5BF1D9E5
P 4150 1050
F 0 "#FLG0102" H 4150 1125 50  0001 C CNN
F 1 "PWR_FLAG" H 4150 1224 50  0000 C CNN
F 2 "" H 4150 1050 50  0001 C CNN
F 3 "~" H 4150 1050 50  0001 C CNN
	1    4150 1050
	1    0    0    -1  
$EndComp
$Comp
L power:PWR_FLAG #FLG0103
U 1 1 5BF1DAE8
P 2350 5250
F 0 "#FLG0103" H 2350 5325 50  0001 C CNN
F 1 "PWR_FLAG" H 2350 5423 50  0000 C CNN
F 2 "" H 2350 5250 50  0001 C CNN
F 3 "~" H 2350 5250 50  0001 C CNN
	1    2350 5250
	-1   0    0    1   
$EndComp
$Comp
L Connector:TestPoint TP3
U 1 1 5BF7BB04
P 6850 1000
F 0 "TP3" H 6908 1120 50  0000 L CNN
F 1 "+5V" H 6908 1029 50  0000 L CNN
F 2 "TestPoint:TestPoint_Pad_D1.0mm" H 7050 1000 50  0001 C CNN
F 3 "~" H 7050 1000 50  0001 C CNN
	1    6850 1000
	1    0    0    -1  
$EndComp
$Comp
L Connector:TestPoint TP1
U 1 1 5BF816B1
P 5500 950
F 0 "TP1" H 5558 1070 50  0000 L CNN
F 1 "+15V" H 5558 979 50  0000 L CNN
F 2 "TestPoint:TestPoint_Pad_D1.0mm" H 5700 950 50  0001 C CNN
F 3 "~" H 5700 950 50  0001 C CNN
	1    5500 950 
	1    0    0    -1  
$EndComp
$Comp
L Connector:TestPoint TP6
U 1 1 5BF8718B
P 9600 4350
F 0 "TP6" H 9542 4377 50  0000 R CNN
F 1 "AUDR" H 9542 4468 50  0000 R CNN
F 2 "TestPoint:TestPoint_Pad_D1.0mm" H 9800 4350 50  0001 C CNN
F 3 "~" H 9800 4350 50  0001 C CNN
	1    9600 4350
	-1   0    0    1   
$EndComp
Wire Wire Line
	6850 1150 6850 1000
Connection ~ 6850 1150
Wire Wire Line
	6850 1150 7400 1150
Wire Wire Line
	2350 5150 2350 5250
Wire Wire Line
	1450 4000 3200 4000
Wire Wire Line
	1450 4200 3200 4200
Wire Wire Line
	1450 4300 1850 4300
Wire Wire Line
	1450 4400 2250 4400
Wire Wire Line
	2250 4400 2250 4300
Wire Wire Line
	2250 4300 3200 4300
Wire Wire Line
	2950 4600 3200 4600
Wire Wire Line
	1450 5000 1850 5000
Connection ~ 2350 5150
Wire Wire Line
	3200 4900 2350 4900
Wire Wire Line
	2350 4900 2350 5150
Text Label 9350 4000 0    50   ~ 0
GNDA
Text Label 9350 3850 0    50   ~ 0
AUDL
$Comp
L Device:C C1
U 1 1 5DB7DEBE
P 4850 3950
F 0 "C1" V 4598 3950 50  0000 C CNN
F 1 "0.1uF" V 4689 3950 50  0000 C CNN
F 2 "Capacitor_THT:C_Rect_L7.2mm_W5.5mm_P5.00mm_FKS2_FKP2_MKS2_MKP2" H 4888 3800 50  0001 C CNN
F 3 "~" H 4850 3950 50  0001 C CNN
F 4 "1890265" H 4850 3950 50  0001 C CNN "Ref Farnell"
	1    4850 3950
	0    1    1    0   
$EndComp
$Comp
L Device:C C2
U 1 1 5DB7DFFA
P 4850 4400
F 0 "C2" V 4598 4400 50  0000 C CNN
F 1 "0.1uF" V 4689 4400 50  0000 C CNN
F 2 "Capacitor_THT:C_Rect_L7.2mm_W5.5mm_P5.00mm_FKS2_FKP2_MKS2_MKP2" H 4888 4250 50  0001 C CNN
F 3 "~" H 4850 4400 50  0001 C CNN
F 4 "1890265" H 4850 4400 50  0001 C CNN "Ref Farnell"
	1    4850 4400
	0    1    1    0   
$EndComp
Wire Wire Line
	4250 4000 4400 4000
Wire Wire Line
	4400 4000 4400 3950
Wire Wire Line
	4400 3950 4700 3950
Wire Wire Line
	4250 4100 4400 4100
Wire Wire Line
	5000 4400 5100 4400
Wire Wire Line
	4700 4400 4400 4400
Wire Wire Line
	4400 4100 4400 4400
$Comp
L Device:CP1 C23
U 1 1 5BF0C2CE
P 5500 1350
F 0 "C23" H 5385 1304 50  0000 R CNN
F 1 "10µF" H 5385 1395 50  0000 R CNN
F 2 "Capacitor_THT:CP_Radial_D5.0mm_P2.00mm" H 5500 1350 50  0001 C CNN
F 3 "~" H 5500 1350 50  0001 C CNN
F 4 "2841905" H 5500 1350 50  0001 C CNN "Ref Farnell"
	1    5500 1350
	-1   0    0    -1  
$EndComp
Wire Wire Line
	6100 1650 7400 1650
$Comp
L Connector:Conn_01x03_Female J6
U 1 1 5DC6CE18
P 3000 1650
F 0 "J6" H 2894 1935 50  0000 C CNN
F 1 "+15 GND -15" H 2894 1844 50  0000 C CNN
F 2 "lib:0533750310" H 3000 1650 50  0001 C CNN
F 3 "~" H 3000 1650 50  0001 C CNN
	1    3000 1650
	-1   0    0    -1  
$EndComp
Wire Wire Line
	5500 1150 5500 1200
Wire Wire Line
	5500 1150 5800 1150
Wire Wire Line
	5500 1500 5500 1650
Wire Wire Line
	5500 1650 6100 1650
Connection ~ 5500 1650
Text GLabel 4000 1150 0    60   Input ~ 0
15VA
Text GLabel 4000 2200 0    60   Input ~ 0
-15VA
$Comp
L Connector:Conn_01x04_Female J8
U 1 1 5E120645
P 10200 3950
F 0 "J8" H 10227 3926 50  0000 L CNN
F 1 "Conn_01x04_Female" H 9950 3650 50  0000 L CNN
F 2 "lib:ConnectorMicromatch-4" H 10200 3950 50  0001 C CNN
F 3 "~" H 10200 3950 50  0001 C CNN
F 4 "3784710" H 10200 3950 50  0001 C CNN "Ref Farnell"
	1    10200 3950
	1    0    0    -1  
$EndComp
Wire Wire Line
	9850 4050 9850 4000
Wire Wire Line
	9850 3950 10000 3950
Wire Wire Line
	9850 4050 10000 4050
Wire Wire Line
	10000 4150 9600 4150
Wire Wire Line
	9600 4350 9600 4150
Connection ~ 9600 4150
Wire Wire Line
	9600 4150 9350 4150
Wire Wire Line
	9350 3850 9600 3850
Wire Wire Line
	9600 3650 9600 3850
Connection ~ 9600 3850
Wire Wire Line
	9600 3850 10000 3850
$Comp
L Connector:TestPoint TP5
U 1 1 5BF84411
P 9600 3650
F 0 "TP5" H 9658 3770 50  0000 L CNN
F 1 "AUDL" H 9658 3679 50  0000 L CNN
F 2 "TestPoint:TestPoint_Pad_D1.0mm" H 9800 3650 50  0001 C CNN
F 3 "~" H 9800 3650 50  0001 C CNN
	1    9600 3650
	1    0    0    -1  
$EndComp
Connection ~ 9850 4000
Wire Wire Line
	9850 4000 9850 3950
Wire Wire Line
	9350 4000 9850 4000
Wire Wire Line
	5500 950  5500 1150
Connection ~ 5500 1150
Wire Wire Line
	3200 1550 3400 1550
Wire Wire Line
	4150 1550 4150 1150
Wire Wire Line
	4150 1150 5500 1150
Wire Wire Line
	3200 1650 3450 1650
Wire Wire Line
	3200 1750 3500 1750
Wire Wire Line
	4150 1750 4150 2200
Wire Wire Line
	4000 2200 4150 2200
Connection ~ 4150 2200
Wire Wire Line
	4000 1150 4150 1150
Connection ~ 4150 1150
Wire Wire Line
	4150 1150 4150 1050
Wire Wire Line
	4150 2200 4150 2300
$Comp
L Connector:Conn_01x03_Female J7
U 1 1 5E351FF6
P 3000 2200
F 0 "J7" H 2894 2485 50  0000 C CNN
F 1 "+15 GND -15" H 2894 2394 50  0000 C CNN
F 2 "lib:0533750310" H 3000 2200 50  0001 C CNN
F 3 "~" H 3000 2200 50  0001 C CNN
	1    3000 2200
	-1   0    0    -1  
$EndComp
Wire Wire Line
	3400 1550 3400 2100
Wire Wire Line
	3400 2100 3200 2100
Connection ~ 3400 1550
Wire Wire Line
	3400 1550 4150 1550
Wire Wire Line
	3200 2200 3450 2200
Wire Wire Line
	3450 2200 3450 1650
Connection ~ 3450 1650
Wire Wire Line
	3450 1650 4900 1650
Wire Wire Line
	3500 1750 3500 2300
Wire Wire Line
	3500 2300 3200 2300
Connection ~ 3500 1750
Wire Wire Line
	3500 1750 4150 1750
$Comp
L Regulator_Linear:L78L05_SOT89 U1
U 1 1 5E196D34
P 6100 1150
F 0 "U1" H 6100 1392 50  0000 C CNN
F 1 "L78L05_SOT89" H 6100 1301 50  0000 C CNN
F 2 "Package_TO_SOT_SMD:SOT-89-3" H 6100 1350 50  0001 C CIN
F 3 "http://www.st.com/content/ccc/resource/technical/document/datasheet/15/55/e5/aa/23/5b/43/fd/CD00000446.pdf/files/CD00000446.pdf/jcr:content/translations/en.CD00000446.pdf" H 6100 1100 50  0001 C CNN
F 4 "1467762" H 6100 1150 50  0001 C CNN "Ref Farnell"
	1    6100 1150
	1    0    0    -1  
$EndComp
Wire Wire Line
	5000 3950 6800 3950
$Comp
L Connector:TestPoint TP2
U 1 1 5E850DF4
P 4900 2250
F 0 "TP2" H 4958 2370 50  0000 L CNN
F 1 "-15V" H 4958 2279 50  0000 L CNN
F 2 "TestPoint:TestPoint_Pad_D1.0mm" H 5100 2250 50  0001 C CNN
F 3 "~" H 5100 2250 50  0001 C CNN
	1    4900 2250
	-1   0    0    1   
$EndComp
$Comp
L Device:CP1 C3
U 1 1 5E85D8A3
P 4900 1950
F 0 "C3" H 4785 1904 50  0000 R CNN
F 1 "10µF" H 4785 1995 50  0000 R CNN
F 2 "Capacitor_THT:CP_Radial_D5.0mm_P2.00mm" H 4900 1950 50  0001 C CNN
F 3 "~" H 4900 1950 50  0001 C CNN
F 4 "2841905" H 4900 1950 50  0001 C CNN "Ref Farnell"
	1    4900 1950
	-1   0    0    -1  
$EndComp
Wire Wire Line
	4900 1800 4900 1650
Connection ~ 4900 1650
Wire Wire Line
	4900 1650 5500 1650
Wire Wire Line
	4150 2200 4900 2200
Wire Wire Line
	4900 2200 4900 2100
Wire Wire Line
	4900 2200 4900 2250
Connection ~ 4900 2200
$Sheet
S 7750 4300 900  1250
U 5EC0768F
F0 "preamp" 50
F1 "preamp.sch" 50
F2 "DACL" I L 7750 4550 50 
F3 "PREAMPL" I R 8650 4550 50 
F4 "GNDA" I L 7750 5400 50 
F5 "DACR" I L 7750 4700 50 
F6 "PREAMPR" I R 8650 4700 50 
F7 "+15V" I R 8650 5100 50 
F8 "-15V" I R 8650 5250 50 
$EndSheet
Wire Wire Line
	7750 5400 7450 5400
Wire Wire Line
	8650 4700 8950 4700
Wire Wire Line
	8650 4550 8950 4550
Text Label 6350 3950 0    50   ~ 0
AUDFLTL
Text Label 7450 5400 0    50   ~ 0
GNDA
Text Label 8950 4550 0    50   ~ 0
AUDL
Text Label 8950 4700 0    50   ~ 0
AUDR
Text Label 1850 4700 0    50   ~ 0
IDENTCS
$Sheet
S 3300 6400 900  500 
U 5EC7A14F
F0 "DacIdentifier" 50
F1 "identifier.sch" 50
F2 "GND" I L 3300 6600 50 
F3 "VDD" I L 3300 6500 50 
F4 "SDI" I R 4200 6500 50 
F5 "CS" I R 4200 6700 50 
F6 "CLK" I R 4200 6800 50 
F7 "SDO" O R 4200 6600 50 
$EndSheet
Text Label 3000 6600 0    50   ~ 0
DGND
Text Label 4400 6500 0    50   ~ 0
CDTI
Text Label 4400 6600 0    50   ~ 0
CDTO
Text Label 4400 6800 0    50   ~ 0
CCLK
Text Label 4400 6700 0    50   ~ 0
IDENTCS
Text Label 3000 6500 0    50   ~ 0
3,3V
Wire Wire Line
	3000 6500 3300 6500
Wire Wire Line
	3000 6600 3300 6600
Wire Wire Line
	4200 6500 4400 6500
Wire Wire Line
	4200 6600 4400 6600
Wire Wire Line
	4200 6700 4400 6700
Wire Wire Line
	4200 6800 4400 6800
Text Label 1850 5000 0    50   ~ 0
CDTO
Text GLabel 8950 5100 2    60   Input ~ 0
15VA
Text GLabel 8950 5250 2    60   Input ~ 0
-15VA
Wire Wire Line
	8650 5100 8950 5100
Wire Wire Line
	8950 5250 8650 5250
Wire Wire Line
	6800 3950 6800 4550
Wire Wire Line
	6800 4550 7750 4550
Wire Wire Line
	5100 4700 5100 4400
Wire Wire Line
	5100 4700 7750 4700
Text Label 1850 4100 0    50   ~ 0
DGND
Text Label 1850 4800 0    50   ~ 0
CCLK
Text Label 1850 4300 0    50   ~ 0
SDATA
Text Label 1850 4900 0    50   ~ 0
CDTI
Text Label 7500 4700 0    50   ~ 0
AUDFLTR
Wire Wire Line
	1850 4600 1450 4600
Wire Wire Line
	1450 4800 1850 4800
Wire Wire Line
	1450 4900 1850 4900
Wire Wire Line
	3200 3900 2550 3900
Wire Wire Line
	2550 4100 3200 4100
Wire Wire Line
	3200 4500 2550 4500
Wire Wire Line
	3200 4400 2550 4400
Text Label 2550 3900 0    50   ~ 0
PWDWN_RESET
Text Label 2550 4100 0    50   ~ 0
CDTI
Text Label 2550 4500 0    50   ~ 0
SDATA
Text Label 2550 4400 0    50   ~ 0
CCLK
Text Label 2400 4900 0    50   ~ 0
DGND
$Comp
L Connector:Conn_01x12_Female J1
U 1 1 60AD5DD4
P 1250 4500
F 0 "J1" H 1142 3675 50  0000 C CNN
F 1 "Conn_01x12_Female" H 1142 3766 50  0000 C CNN
F 2 "lib:ConnectorMicromatch-12" H 1250 4500 50  0001 C CNN
F 3 "~" H 1250 4500 50  0001 C CNN
	1    1250 4500
	-1   0    0    1   
$EndComp
Wire Wire Line
	1450 4700 1850 4700
Text Label 2950 4800 0    50   ~ 0
3,3V
Wire Wire Line
	2950 4800 3200 4800
Text Label 2950 4600 0    50   ~ 0
CS
Wire Wire Line
	1450 4500 1850 4500
Wire Wire Line
	1450 4100 1850 4100
Wire Wire Line
	1450 3900 1850 3900
$EndSCHEMATC
