(kicad_sch (version 20230121) (generator eeschema)

  (uuid 942a6645-aee6-43ac-b150-b610932c5a2c)

  (paper "A4")

  (lib_symbols
    (symbol "Connector_Generic:Conn_01x03" (pin_names (offset 1.016) hide) (in_bom yes) (on_board yes)
      (property "Reference" "J" (at 0 5.08 0)
        (effects (font (size 1.27 1.27)))
      )
      (property "Value" "Conn_01x03" (at 0 -5.08 0)
        (effects (font (size 1.27 1.27)))
      )
      (property "Footprint" "" (at 0 0 0)
        (effects (font (size 1.27 1.27)) hide)
      )
      (property "Datasheet" "~" (at 0 0 0)
        (effects (font (size 1.27 1.27)) hide)
      )
      (property "ki_keywords" "connector" (at 0 0 0)
        (effects (font (size 1.27 1.27)) hide)
      )
      (property "ki_description" "Generic connector, single row, 01x03, script generated (kicad-library-utils/schlib/autogen/connector/)" (at 0 0 0)
        (effects (font (size 1.27 1.27)) hide)
      )
      (property "ki_fp_filters" "Connector*:*_1x??_*" (at 0 0 0)
        (effects (font (size 1.27 1.27)) hide)
      )
      (symbol "Conn_01x03_1_1"
        (rectangle (start -1.27 -2.413) (end 0 -2.667)
          (stroke (width 0.1524) (type solid))
          (fill (type none))
        )
        (rectangle (start -1.27 0.127) (end 0 -0.127)
          (stroke (width 0.1524) (type solid))
          (fill (type none))
        )
        (rectangle (start -1.27 2.667) (end 0 2.413)
          (stroke (width 0.1524) (type solid))
          (fill (type none))
        )
        (rectangle (start -1.27 3.81) (end 1.27 -3.81)
          (stroke (width 0.254) (type solid))
          (fill (type background))
        )
        (pin passive line (at -5.08 2.54 0) (length 3.81)
          (name "Pin_1" (effects (font (size 1.27 1.27))))
          (number "1" (effects (font (size 1.27 1.27))))
        )
        (pin passive line (at -5.08 0 0) (length 3.81)
          (name "Pin_2" (effects (font (size 1.27 1.27))))
          (number "2" (effects (font (size 1.27 1.27))))
        )
        (pin passive line (at -5.08 -2.54 0) (length 3.81)
          (name "Pin_3" (effects (font (size 1.27 1.27))))
          (number "3" (effects (font (size 1.27 1.27))))
        )
      )
    )
    (symbol "Connector_Generic:Conn_02x05_Odd_Even" (pin_names (offset 1.016) hide) (in_bom yes) (on_board yes)
      (property "Reference" "J" (at 1.27 7.62 0)
        (effects (font (size 1.27 1.27)))
      )
      (property "Value" "Conn_02x05_Odd_Even" (at 1.27 -7.62 0)
        (effects (font (size 1.27 1.27)))
      )
      (property "Footprint" "" (at 0 0 0)
        (effects (font (size 1.27 1.27)) hide)
      )
      (property "Datasheet" "~" (at 0 0 0)
        (effects (font (size 1.27 1.27)) hide)
      )
      (property "ki_keywords" "connector" (at 0 0 0)
        (effects (font (size 1.27 1.27)) hide)
      )
      (property "ki_description" "Generic connector, double row, 02x05, odd/even pin numbering scheme (row 1 odd numbers, row 2 even numbers), script generated (kicad-library-utils/schlib/autogen/connector/)" (at 0 0 0)
        (effects (font (size 1.27 1.27)) hide)
      )
      (property "ki_fp_filters" "Connector*:*_2x??_*" (at 0 0 0)
        (effects (font (size 1.27 1.27)) hide)
      )
      (symbol "Conn_02x05_Odd_Even_1_1"
        (rectangle (start -1.27 -4.953) (end 0 -5.207)
          (stroke (width 0.1524) (type solid))
          (fill (type none))
        )
        (rectangle (start -1.27 -2.413) (end 0 -2.667)
          (stroke (width 0.1524) (type solid))
          (fill (type none))
        )
        (rectangle (start -1.27 0.127) (end 0 -0.127)
          (stroke (width 0.1524) (type solid))
          (fill (type none))
        )
        (rectangle (start -1.27 2.667) (end 0 2.413)
          (stroke (width 0.1524) (type solid))
          (fill (type none))
        )
        (rectangle (start -1.27 5.207) (end 0 4.953)
          (stroke (width 0.1524) (type solid))
          (fill (type none))
        )
        (rectangle (start -1.27 6.35) (end 3.81 -6.35)
          (stroke (width 0.254) (type solid))
          (fill (type background))
        )
        (rectangle (start 3.81 -4.953) (end 2.54 -5.207)
          (stroke (width 0.1524) (type solid))
          (fill (type none))
        )
        (rectangle (start 3.81 -2.413) (end 2.54 -2.667)
          (stroke (width 0.1524) (type solid))
          (fill (type none))
        )
        (rectangle (start 3.81 0.127) (end 2.54 -0.127)
          (stroke (width 0.1524) (type solid))
          (fill (type none))
        )
        (rectangle (start 3.81 2.667) (end 2.54 2.413)
          (stroke (width 0.1524) (type solid))
          (fill (type none))
        )
        (rectangle (start 3.81 5.207) (end 2.54 4.953)
          (stroke (width 0.1524) (type solid))
          (fill (type none))
        )
        (pin passive line (at -5.08 5.08 0) (length 3.81)
          (name "Pin_1" (effects (font (size 1.27 1.27))))
          (number "1" (effects (font (size 1.27 1.27))))
        )
        (pin passive line (at 7.62 -5.08 180) (length 3.81)
          (name "Pin_10" (effects (font (size 1.27 1.27))))
          (number "10" (effects (font (size 1.27 1.27))))
        )
        (pin passive line (at 7.62 5.08 180) (length 3.81)
          (name "Pin_2" (effects (font (size 1.27 1.27))))
          (number "2" (effects (font (size 1.27 1.27))))
        )
        (pin passive line (at -5.08 2.54 0) (length 3.81)
          (name "Pin_3" (effects (font (size 1.27 1.27))))
          (number "3" (effects (font (size 1.27 1.27))))
        )
        (pin passive line (at 7.62 2.54 180) (length 3.81)
          (name "Pin_4" (effects (font (size 1.27 1.27))))
          (number "4" (effects (font (size 1.27 1.27))))
        )
        (pin passive line (at -5.08 0 0) (length 3.81)
          (name "Pin_5" (effects (font (size 1.27 1.27))))
          (number "5" (effects (font (size 1.27 1.27))))
        )
        (pin passive line (at 7.62 0 180) (length 3.81)
          (name "Pin_6" (effects (font (size 1.27 1.27))))
          (number "6" (effects (font (size 1.27 1.27))))
        )
        (pin passive line (at -5.08 -2.54 0) (length 3.81)
          (name "Pin_7" (effects (font (size 1.27 1.27))))
          (number "7" (effects (font (size 1.27 1.27))))
        )
        (pin passive line (at 7.62 -2.54 180) (length 3.81)
          (name "Pin_8" (effects (font (size 1.27 1.27))))
          (number "8" (effects (font (size 1.27 1.27))))
        )
        (pin passive line (at -5.08 -5.08 0) (length 3.81)
          (name "Pin_9" (effects (font (size 1.27 1.27))))
          (number "9" (effects (font (size 1.27 1.27))))
        )
      )
    )
    (symbol "Device:R" (pin_numbers hide) (pin_names (offset 0)) (in_bom yes) (on_board yes)
      (property "Reference" "R" (at 2.032 0 90)
        (effects (font (size 1.27 1.27)))
      )
      (property "Value" "R" (at 0 0 90)
        (effects (font (size 1.27 1.27)))
      )
      (property "Footprint" "" (at -1.778 0 90)
        (effects (font (size 1.27 1.27)) hide)
      )
      (property "Datasheet" "~" (at 0 0 0)
        (effects (font (size 1.27 1.27)) hide)
      )
      (property "ki_keywords" "R res resistor" (at 0 0 0)
        (effects (font (size 1.27 1.27)) hide)
      )
      (property "ki_description" "Resistor" (at 0 0 0)
        (effects (font (size 1.27 1.27)) hide)
      )
      (property "ki_fp_filters" "R_*" (at 0 0 0)
        (effects (font (size 1.27 1.27)) hide)
      )
      (symbol "R_0_1"
        (rectangle (start -1.016 -2.54) (end 1.016 2.54)
          (stroke (width 0.254) (type solid))
          (fill (type none))
        )
      )
      (symbol "R_1_1"
        (pin passive line (at 0 3.81 270) (length 1.27)
          (name "~" (effects (font (size 1.27 1.27))))
          (number "1" (effects (font (size 1.27 1.27))))
        )
        (pin passive line (at 0 -3.81 90) (length 1.27)
          (name "~" (effects (font (size 1.27 1.27))))
          (number "2" (effects (font (size 1.27 1.27))))
        )
      )
    )
    (symbol "RF_Module:ESP32-WROOM-32" (in_bom yes) (on_board yes)
      (property "Reference" "U" (at -12.7 34.29 0)
        (effects (font (size 1.27 1.27)) (justify left))
      )
      (property "Value" "ESP32-WROOM-32" (at 1.27 34.29 0)
        (effects (font (size 1.27 1.27)) (justify left))
      )
      (property "Footprint" "RF_Module:ESP32-WROOM-32" (at 0 -38.1 0)
        (effects (font (size 1.27 1.27)) hide)
      )
      (property "Datasheet" "https://www.espressif.com/sites/default/files/documentation/esp32-wroom-32_datasheet_en.pdf" (at -7.62 1.27 0)
        (effects (font (size 1.27 1.27)) hide)
      )
      (property "ki_keywords" "RF Radio BT ESP ESP32 Espressif onboard PCB antenna" (at 0 0 0)
        (effects (font (size 1.27 1.27)) hide)
      )
      (property "ki_description" "RF Module, ESP32-D0WDQ6 SoC, Wi-Fi 802.11b/g/n, Bluetooth, BLE, 32-bit, 2.7-3.6V, onboard antenna, SMD" (at 0 0 0)
        (effects (font (size 1.27 1.27)) hide)
      )
      (property "ki_fp_filters" "ESP32?WROOM?32*" (at 0 0 0)
        (effects (font (size 1.27 1.27)) hide)
      )
      (symbol "ESP32-WROOM-32_0_1"
        (rectangle (start -12.7 33.02) (end 12.7 -33.02)
          (stroke (width 0.254) (type solid))
          (fill (type background))
        )
      )
      (symbol "ESP32-WROOM-32_1_1"
        (pin power_in line (at 0 -35.56 90) (length 2.54)
          (name "GND" (effects (font (size 1.27 1.27))))
          (number "1" (effects (font (size 1.27 1.27))))
        )
        (pin bidirectional line (at 15.24 -12.7 180) (length 2.54)
          (name "IO25" (effects (font (size 1.27 1.27))))
          (number "10" (effects (font (size 1.27 1.27))))
        )
        (pin bidirectional line (at 15.24 -15.24 180) (length 2.54)
          (name "IO26" (effects (font (size 1.27 1.27))))
          (number "11" (effects (font (size 1.27 1.27))))
        )
        (pin bidirectional line (at 15.24 -17.78 180) (length 2.54)
          (name "IO27" (effects (font (size 1.27 1.27))))
          (number "12" (effects (font (size 1.27 1.27))))
        )
        (pin bidirectional line (at 15.24 10.16 180) (length 2.54)
          (name "IO14" (effects (font (size 1.27 1.27))))
          (number "13" (effects (font (size 1.27 1.27))))
        )
        (pin bidirectional line (at 15.24 15.24 180) (length 2.54)
          (name "IO12" (effects (font (size 1.27 1.27))))
          (number "14" (effects (font (size 1.27 1.27))))
        )
        (pin passive line (at 0 -35.56 90) (length 2.54) hide
          (name "GND" (effects (font (size 1.27 1.27))))
          (number "15" (effects (font (size 1.27 1.27))))
        )
        (pin bidirectional line (at 15.24 12.7 180) (length 2.54)
          (name "IO13" (effects (font (size 1.27 1.27))))
          (number "16" (effects (font (size 1.27 1.27))))
        )
        (pin bidirectional line (at -15.24 -5.08 0) (length 2.54)
          (name "SHD/SD2" (effects (font (size 1.27 1.27))))
          (number "17" (effects (font (size 1.27 1.27))))
        )
        (pin bidirectional line (at -15.24 -7.62 0) (length 2.54)
          (name "SWP/SD3" (effects (font (size 1.27 1.27))))
          (number "18" (effects (font (size 1.27 1.27))))
        )
        (pin bidirectional line (at -15.24 -12.7 0) (length 2.54)
          (name "SCS/CMD" (effects (font (size 1.27 1.27))))
          (number "19" (effects (font (size 1.27 1.27))))
        )
        (pin power_in line (at 0 35.56 270) (length 2.54)
          (name "VDD" (effects (font (size 1.27 1.27))))
          (number "2" (effects (font (size 1.27 1.27))))
        )
        (pin bidirectional line (at -15.24 -10.16 0) (length 2.54)
          (name "SCK/CLK" (effects (font (size 1.27 1.27))))
          (number "20" (effects (font (size 1.27 1.27))))
        )
        (pin bidirectional line (at -15.24 0 0) (length 2.54)
          (name "SDO/SD0" (effects (font (size 1.27 1.27))))
          (number "21" (effects (font (size 1.27 1.27))))
        )
        (pin bidirectional line (at -15.24 -2.54 0) (length 2.54)
          (name "SDI/SD1" (effects (font (size 1.27 1.27))))
          (number "22" (effects (font (size 1.27 1.27))))
        )
        (pin bidirectional line (at 15.24 7.62 180) (length 2.54)
          (name "IO15" (effects (font (size 1.27 1.27))))
          (number "23" (effects (font (size 1.27 1.27))))
        )
        (pin bidirectional line (at 15.24 25.4 180) (length 2.54)
          (name "IO2" (effects (font (size 1.27 1.27))))
          (number "24" (effects (font (size 1.27 1.27))))
        )
        (pin bidirectional line (at 15.24 30.48 180) (length 2.54)
          (name "IO0" (effects (font (size 1.27 1.27))))
          (number "25" (effects (font (size 1.27 1.27))))
        )
        (pin bidirectional line (at 15.24 20.32 180) (length 2.54)
          (name "IO4" (effects (font (size 1.27 1.27))))
          (number "26" (effects (font (size 1.27 1.27))))
        )
        (pin bidirectional line (at 15.24 5.08 180) (length 2.54)
          (name "IO16" (effects (font (size 1.27 1.27))))
          (number "27" (effects (font (size 1.27 1.27))))
        )
        (pin bidirectional line (at 15.24 2.54 180) (length 2.54)
          (name "IO17" (effects (font (size 1.27 1.27))))
          (number "28" (effects (font (size 1.27 1.27))))
        )
        (pin bidirectional line (at 15.24 17.78 180) (length 2.54)
          (name "IO5" (effects (font (size 1.27 1.27))))
          (number "29" (effects (font (size 1.27 1.27))))
        )
        (pin input line (at -15.24 30.48 0) (length 2.54)
          (name "EN" (effects (font (size 1.27 1.27))))
          (number "3" (effects (font (size 1.27 1.27))))
        )
        (pin bidirectional line (at 15.24 0 180) (length 2.54)
          (name "IO18" (effects (font (size 1.27 1.27))))
          (number "30" (effects (font (size 1.27 1.27))))
        )
        (pin bidirectional line (at 15.24 -2.54 180) (length 2.54)
          (name "IO19" (effects (font (size 1.27 1.27))))
          (number "31" (effects (font (size 1.27 1.27))))
        )
        (pin no_connect line (at -12.7 -27.94 0) (length 2.54) hide
          (name "NC" (effects (font (size 1.27 1.27))))
          (number "32" (effects (font (size 1.27 1.27))))
        )
        (pin bidirectional line (at 15.24 -5.08 180) (length 2.54)
          (name "IO21" (effects (font (size 1.27 1.27))))
          (number "33" (effects (font (size 1.27 1.27))))
        )
        (pin bidirectional line (at 15.24 22.86 180) (length 2.54)
          (name "RXD0/IO3" (effects (font (size 1.27 1.27))))
          (number "34" (effects (font (size 1.27 1.27))))
        )
        (pin bidirectional line (at 15.24 27.94 180) (length 2.54)
          (name "TXD0/IO1" (effects (font (size 1.27 1.27))))
          (number "35" (effects (font (size 1.27 1.27))))
        )
        (pin bidirectional line (at 15.24 -7.62 180) (length 2.54)
          (name "IO22" (effects (font (size 1.27 1.27))))
          (number "36" (effects (font (size 1.27 1.27))))
        )
        (pin bidirectional line (at 15.24 -10.16 180) (length 2.54)
          (name "IO23" (effects (font (size 1.27 1.27))))
          (number "37" (effects (font (size 1.27 1.27))))
        )
        (pin passive line (at 0 -35.56 90) (length 2.54) hide
          (name "GND" (effects (font (size 1.27 1.27))))
          (number "38" (effects (font (size 1.27 1.27))))
        )
        (pin passive line (at 0 -35.56 90) (length 2.54) hide
          (name "GND" (effects (font (size 1.27 1.27))))
          (number "39" (effects (font (size 1.27 1.27))))
        )
        (pin input line (at -15.24 25.4 0) (length 2.54)
          (name "SENSOR_VP" (effects (font (size 1.27 1.27))))
          (number "4" (effects (font (size 1.27 1.27))))
        )
        (pin input line (at -15.24 22.86 0) (length 2.54)
          (name "SENSOR_VN" (effects (font (size 1.27 1.27))))
          (number "5" (effects (font (size 1.27 1.27))))
        )
        (pin input line (at 15.24 -25.4 180) (length 2.54)
          (name "IO34" (effects (font (size 1.27 1.27))))
          (number "6" (effects (font (size 1.27 1.27))))
        )
        (pin input line (at 15.24 -27.94 180) (length 2.54)
          (name "IO35" (effects (font (size 1.27 1.27))))
          (number "7" (effects (font (size 1.27 1.27))))
        )
        (pin bidirectional line (at 15.24 -20.32 180) (length 2.54)
          (name "IO32" (effects (font (size 1.27 1.27))))
          (number "8" (effects (font (size 1.27 1.27))))
        )
        (pin bidirectional line (at 15.24 -22.86 180) (length 2.54)
          (name "IO33" (effects (font (size 1.27 1.27))))
          (number "9" (effects (font (size 1.27 1.27))))
        )
      )
    )
    (symbol "digitalboard-rescue:SW_Push-Switch" (pin_numbers hide) (pin_names (offset 1.016) hide) (in_bom yes) (on_board yes)
      (property "Reference" "SW" (at 1.27 2.54 0)
        (effects (font (size 1.27 1.27)) (justify left))
      )
      (property "Value" "Switch_SW_Push" (at 0 -1.524 0)
        (effects (font (size 1.27 1.27)))
      )
      (property "Footprint" "" (at 0 5.08 0)
        (effects (font (size 1.27 1.27)) hide)
      )
      (property "Datasheet" "" (at 0 5.08 0)
        (effects (font (size 1.27 1.27)) hide)
      )
      (symbol "SW_Push-Switch_0_1"
        (circle (center -2.032 0) (radius 0.508)
          (stroke (width 0) (type solid))
          (fill (type none))
        )
        (polyline
          (pts
            (xy 0 1.27)
            (xy 0 3.048)
          )
          (stroke (width 0) (type solid))
          (fill (type none))
        )
        (polyline
          (pts
            (xy 2.54 1.27)
            (xy -2.54 1.27)
          )
          (stroke (width 0) (type solid))
          (fill (type none))
        )
        (circle (center 2.032 0) (radius 0.508)
          (stroke (width 0) (type solid))
          (fill (type none))
        )
        (pin passive line (at -5.08 0 0) (length 2.54)
          (name "1" (effects (font (size 1.27 1.27))))
          (number "1" (effects (font (size 1.27 1.27))))
        )
        (pin passive line (at 5.08 0 180) (length 2.54)
          (name "2" (effects (font (size 1.27 1.27))))
          (number "2" (effects (font (size 1.27 1.27))))
        )
      )
    )
    (symbol "power:GND" (power) (pin_names (offset 0)) (in_bom yes) (on_board yes)
      (property "Reference" "#PWR" (at 0 -6.35 0)
        (effects (font (size 1.27 1.27)) hide)
      )
      (property "Value" "GND" (at 0 -3.81 0)
        (effects (font (size 1.27 1.27)))
      )
      (property "Footprint" "" (at 0 0 0)
        (effects (font (size 1.27 1.27)) hide)
      )
      (property "Datasheet" "" (at 0 0 0)
        (effects (font (size 1.27 1.27)) hide)
      )
      (property "ki_keywords" "power-flag" (at 0 0 0)
        (effects (font (size 1.27 1.27)) hide)
      )
      (property "ki_description" "Power symbol creates a global label with name \"GND\" , ground" (at 0 0 0)
        (effects (font (size 1.27 1.27)) hide)
      )
      (symbol "GND_0_1"
        (polyline
          (pts
            (xy 0 0)
            (xy 0 -1.27)
            (xy 1.27 -1.27)
            (xy 0 -2.54)
            (xy -1.27 -1.27)
            (xy 0 -1.27)
          )
          (stroke (width 0) (type solid))
          (fill (type none))
        )
      )
      (symbol "GND_1_1"
        (pin power_in line (at 0 0 270) (length 0) hide
          (name "GND" (effects (font (size 1.27 1.27))))
          (number "1" (effects (font (size 1.27 1.27))))
        )
      )
    )
  )


  (no_connect (at 152.4 60.96) (uuid 0ad60e03-b277-47b0-9a24-4c3f93ebb7af))
  (no_connect (at 121.92 86.36) (uuid 301e8e0a-407c-4c04-8f4f-830ef760c47e))
  (no_connect (at 121.92 91.44) (uuid 58380be1-52ce-43f5-b30f-579635379e20))
  (no_connect (at 121.92 88.9) (uuid 673ed74d-8490-43be-b7e0-f139f28b6152))
  (no_connect (at 121.92 93.98) (uuid 6ae0c57d-c45b-41f3-a54c-2b1a51528746))
  (no_connect (at 152.4 76.2) (uuid 7616cf0b-b869-456c-86c6-41941dc23e91))
  (no_connect (at 152.4 73.66) (uuid 85f78a72-43b0-4ae7-af95-47d7ee36f11f))
  (no_connect (at 121.92 99.06) (uuid 8cc23006-3fd2-401c-9e3a-e127829d0f53))
  (no_connect (at 152.4 66.04) (uuid a08564a3-3028-4d13-b755-e2bcbafd535c))
  (no_connect (at 121.92 60.96) (uuid a25ff220-ede1-4fea-817a-d6500d6e8913))
  (no_connect (at 121.92 63.5) (uuid c89fa7ff-6304-456d-9067-171c6b25b09f))
  (no_connect (at 152.4 78.74) (uuid cae14125-fd55-4ee6-b0c8-690f56e34472))
  (no_connect (at 152.4 106.68) (uuid d0d4b187-16f9-4e51-8362-ac68bbd5dcc4))
  (no_connect (at 152.4 68.58) (uuid e1082cfc-9518-4364-8a9f-feac68f0c947))
  (no_connect (at 152.4 71.12) (uuid e7ed6f77-3e15-4b71-83a8-c0286a43e598))
  (no_connect (at 152.4 104.14) (uuid f8768f12-1339-49ac-ba44-a7e023e2fcad))
  (no_connect (at 121.92 96.52) (uuid fb2cbabe-f96f-48cc-86e2-d0b81e4c6960))

  (wire (pts (xy 152.4 114.3) (xy 160.02 114.3))
    (stroke (width 0) (type default))
    (uuid 0072fc5c-f3f1-49f7-ba5c-4a0950b1bd94)
  )
  (wire (pts (xy 152.4 99.06) (xy 160.02 99.06))
    (stroke (width 0) (type default))
    (uuid 04308c53-97ac-42d7-9e10-6a17292b02e7)
  )
  (wire (pts (xy 128.27 43.18) (xy 137.16 43.18))
    (stroke (width 0) (type default))
    (uuid 05c7bbd2-e10c-415b-a696-33f0545a29ef)
  )
  (wire (pts (xy 185.42 43.18) (xy 195.58 43.18))
    (stroke (width 0) (type default))
    (uuid 0796cd3d-44a0-4b09-9463-0fc0ca713cdc)
  )
  (wire (pts (xy 209.55 107.95) (xy 218.44 107.95))
    (stroke (width 0) (type default))
    (uuid 0dbca0ba-9442-4230-af73-ee1ec0c65f99)
  )
  (wire (pts (xy 176.53 60.96) (xy 190.5 60.96))
    (stroke (width 0) (type default))
    (uuid 115889ea-3d2b-4078-a06f-1dd70c2240cd)
  )
  (wire (pts (xy 231.14 110.49) (xy 260.35 110.49))
    (stroke (width 0) (type default))
    (uuid 182a0ad1-a180-4c86-96ce-9a6c79d7ef64)
  )
  (wire (pts (xy 162.56 55.88) (xy 162.56 43.18))
    (stroke (width 0) (type default))
    (uuid 1b5a0f9a-18bb-498e-beaf-0e1bea5ff706)
  )
  (wire (pts (xy 217.17 68.58) (xy 226.06 68.58))
    (stroke (width 0) (type default))
    (uuid 1d79f333-36d5-4d7f-8566-67be340c5aac)
  )
  (wire (pts (xy 238.76 68.58) (xy 269.24 68.58))
    (stroke (width 0) (type default))
    (uuid 325499a2-0691-41fd-9091-fe0eba289674)
  )
  (wire (pts (xy 260.35 109.22) (xy 260.35 110.49))
    (stroke (width 0) (type default))
    (uuid 33ff0d1c-db90-4544-806c-c71a6c352495)
  )
  (wire (pts (xy 209.55 100.33) (xy 218.44 100.33))
    (stroke (width 0) (type default))
    (uuid 34426fee-7bbe-40c6-9440-8e10aacf875d)
  )
  (wire (pts (xy 152.4 63.5) (xy 176.53 63.5))
    (stroke (width 0) (type default))
    (uuid 4538401c-ca1a-4573-a4fa-408e28137a53)
  )
  (wire (pts (xy 152.4 96.52) (xy 160.02 96.52))
    (stroke (width 0) (type default))
    (uuid 51aa9d5a-b32b-4ab2-96e4-894cdce09c5e)
  )
  (wire (pts (xy 137.16 121.92) (xy 137.16 125.73))
    (stroke (width 0) (type default))
    (uuid 53cc51c9-1e73-4df0-8ab9-2ff8b93a4f95)
  )
  (wire (pts (xy 137.16 50.8) (xy 137.16 43.18))
    (stroke (width 0) (type default))
    (uuid 6bb002bb-e974-47c7-8231-2a5e846022f0)
  )
  (wire (pts (xy 162.56 43.18) (xy 175.26 43.18))
    (stroke (width 0) (type default))
    (uuid 74cdaeae-9c9c-4fe4-aaa5-f4c3ffbafec3)
  )
  (wire (pts (xy 186.69 63.5) (xy 190.5 63.5))
    (stroke (width 0) (type default))
    (uuid 769f7210-b673-444a-ab15-d6fee82bcc9f)
  )
  (wire (pts (xy 231.14 105.41) (xy 236.22 105.41))
    (stroke (width 0) (type default))
    (uuid 76b2dec6-506a-4417-871f-03c4252064df)
  )
  (wire (pts (xy 231.14 100.33) (xy 236.22 100.33))
    (stroke (width 0) (type default))
    (uuid 7a4a79a9-6a1e-487d-a6e1-8c4ae8dd23e7)
  )
  (wire (pts (xy 231.14 107.95) (xy 236.22 107.95))
    (stroke (width 0) (type default))
    (uuid 7c7c2e56-d73a-4325-83ee-ce2fa26159de)
  )
  (wire (pts (xy 186.69 63.5) (xy 186.69 66.04))
    (stroke (width 0) (type default))
    (uuid 93a1c072-3b23-45a8-8e88-635bb1a6b57b)
  )
  (wire (pts (xy 195.58 43.18) (xy 195.58 45.72))
    (stroke (width 0) (type default))
    (uuid 94db78fb-048a-402d-a8a5-92df63455b93)
  )
  (wire (pts (xy 152.4 86.36) (xy 160.02 86.36))
    (stroke (width 0) (type default))
    (uuid 96050071-ae12-4c2a-bdf7-9a58b6e7088a)
  )
  (wire (pts (xy 209.55 102.87) (xy 218.44 102.87))
    (stroke (width 0) (type default))
    (uuid 982b6d51-7577-4a09-92a8-544966c9d32e)
  )
  (wire (pts (xy 105.41 55.88) (xy 121.92 55.88))
    (stroke (width 0) (type default))
    (uuid 99791910-e890-4c88-b7dd-2ea8216a0b59)
  )
  (wire (pts (xy 238.76 71.12) (xy 269.24 71.12))
    (stroke (width 0) (type default))
    (uuid 99847729-7638-46f9-94ae-ea6656f50481)
  )
  (wire (pts (xy 152.4 93.98) (xy 160.02 93.98))
    (stroke (width 0) (type default))
    (uuid 9b17e00d-67ad-4d08-8fb8-ec3359846147)
  )
  (wire (pts (xy 152.4 55.88) (xy 162.56 55.88))
    (stroke (width 0) (type default))
    (uuid a1693c75-7b2f-4276-8ffc-d4930abb1429)
  )
  (wire (pts (xy 176.53 63.5) (xy 176.53 60.96))
    (stroke (width 0) (type default))
    (uuid afdc0c98-e0f3-4018-993c-b21d5876a255)
  )
  (wire (pts (xy 231.14 102.87) (xy 236.22 102.87))
    (stroke (width 0) (type default))
    (uuid b0e4a6f8-f2ac-49d9-956e-12d12feb6913)
  )
  (wire (pts (xy 260.35 99.06) (xy 260.35 101.6))
    (stroke (width 0) (type default))
    (uuid c3cb1eaf-43fc-4833-b0ec-2f20fcddf747)
  )
  (wire (pts (xy 152.4 111.76) (xy 160.02 111.76))
    (stroke (width 0) (type default))
    (uuid c3de177f-4a1f-4ca8-b77e-c98db9150786)
  )
  (wire (pts (xy 152.4 83.82) (xy 167.64 83.82))
    (stroke (width 0) (type default))
    (uuid c948cc09-c8e8-4938-8bb5-cc88cee28b35)
  )
  (wire (pts (xy 152.4 101.6) (xy 160.02 101.6))
    (stroke (width 0) (type default))
    (uuid cd06e73c-295b-44b7-b427-ffa7aaaa20f1)
  )
  (wire (pts (xy 152.4 88.9) (xy 160.02 88.9))
    (stroke (width 0) (type default))
    (uuid cd0a7432-5908-4986-ad4a-6d853a7d2c72)
  )
  (wire (pts (xy 152.4 58.42) (xy 190.5 58.42))
    (stroke (width 0) (type default))
    (uuid f1b86686-7f09-483c-a2f4-e26517366067)
  )
  (wire (pts (xy 152.4 109.22) (xy 160.02 109.22))
    (stroke (width 0) (type default))
    (uuid f34ade60-20c8-40f8-bae4-177f074d80da)
  )
  (wire (pts (xy 152.4 81.28) (xy 167.64 81.28))
    (stroke (width 0) (type default))
    (uuid f38b9e9b-a39c-440b-95e6-caf95c816726)
  )
  (wire (pts (xy 238.76 73.66) (xy 269.24 73.66))
    (stroke (width 0) (type default))
    (uuid f3cc3083-c169-4363-97a9-15836c33d6de)
  )
  (wire (pts (xy 200.66 110.49) (xy 218.44 110.49))
    (stroke (width 0) (type default))
    (uuid f474f790-a509-4bd7-be22-2ee7544e4c5f)
  )
  (wire (pts (xy 152.4 91.44) (xy 160.02 91.44))
    (stroke (width 0) (type default))
    (uuid f67ce926-09f7-4cfc-b13d-6bef69f0938a)
  )
  (wire (pts (xy 209.55 105.41) (xy 218.44 105.41))
    (stroke (width 0) (type default))
    (uuid fd3ee957-92cb-4252-bbf0-bd74cc39ae4f)
  )

  (text "DISPLAY\n" (at 220.98 114.3 0)
    (effects (font (size 1.27 1.27)) (justify left bottom))
    (uuid 5a976c2d-0e03-4e87-bceb-c16bbd7a948e)
  )
  (text "May be programmed in RUST\n" (at 78.74 96.52 0)
    (effects (font (size 1.27 1.27)) (justify left bottom))
    (uuid 5d81b9b1-d943-4d78-86f9-1d5dee0cb00d)
  )
  (text "E-ink display" (at 217.17 90.17 0)
    (effects (font (size 1.27 1.27)) (justify left bottom))
    (uuid a7e36136-965b-4ea1-a290-2081a9cbe5d3)
  )

  (label "MOSI" (at 209.55 105.41 0) (fields_autoplaced)
    (effects (font (size 1.27 1.27)) (justify left bottom))
    (uuid 023e9354-8ac8-465b-84a0-4b785b92d8e4)
  )
  (label "MISO" (at 160.02 96.52 0) (fields_autoplaced)
    (effects (font (size 1.27 1.27)) (justify left bottom))
    (uuid 0ba3f2b4-8bc6-4126-859f-eba47b8c3aad)
  )
  (label "DISP_RESET" (at 236.22 102.87 0) (fields_autoplaced)
    (effects (font (size 1.27 1.27)) (justify left bottom))
    (uuid 0ddafc6f-c87b-4c27-8619-c9ca40bbbdb4)
  )
  (label "SEL2" (at 269.24 73.66 0) (fields_autoplaced)
    (effects (font (size 1.27 1.27)) (justify left bottom))
    (uuid 0f781b63-5f87-490a-86f9-9c2f81790e69)
  )
  (label "DISPLAY_CS" (at 236.22 100.33 0) (fields_autoplaced)
    (effects (font (size 1.27 1.27)) (justify left bottom))
    (uuid 271dc2d1-29bd-4389-a42f-e8772cf066a5)
  )
  (label "SEL0" (at 160.02 109.22 0) (fields_autoplaced)
    (effects (font (size 1.27 1.27)) (justify left bottom))
    (uuid 2fdc1461-a29a-40f8-a4b5-2c01d65d9423)
  )
  (label "DISP_RESET" (at 160.02 86.36 0) (fields_autoplaced)
    (effects (font (size 1.27 1.27)) (justify left bottom))
    (uuid 37218be4-4780-429f-96eb-c99656074705)
  )
  (label "SEL2" (at 160.02 114.3 0) (fields_autoplaced)
    (effects (font (size 1.27 1.27)) (justify left bottom))
    (uuid 4518b2ca-fff2-4fb1-90e9-ee30ff069a93)
  )
  (label "DISP_GPIO2_BUSY" (at 160.02 101.6 0) (fields_autoplaced)
    (effects (font (size 1.27 1.27)) (justify left bottom))
    (uuid 62a2a012-f774-485f-a77f-2b715b9f5267)
  )
  (label "DISP_GPIO1_BUSY" (at 160.02 99.06 0) (fields_autoplaced)
    (effects (font (size 1.27 1.27)) (justify left bottom))
    (uuid 7804a7c8-8850-408f-a6a6-63cfd52336c9)
  )
  (label "VDD" (at 260.35 99.06 0) (fields_autoplaced)
    (effects (font (size 1.27 1.27)) (justify left bottom))
    (uuid 7f4bec48-86e8-4433-963f-493eef5e32b3)
  )
  (label "DISPLAY_CS" (at 160.02 88.9 0) (fields_autoplaced)
    (effects (font (size 1.27 1.27)) (justify left bottom))
    (uuid 7f59517e-565b-4d5f-9fa6-af0f2ff4d2c6)
  )
  (label "SEL0" (at 269.24 68.58 0) (fields_autoplaced)
    (effects (font (size 1.27 1.27)) (justify left bottom))
    (uuid 8b0a1f23-2b03-4349-bddb-9d81b78ab0b4)
  )
  (label "VDD" (at 133.35 43.18 0) (fields_autoplaced)
    (effects (font (size 1.27 1.27)) (justify left bottom))
    (uuid 99bec442-208b-411b-9073-4075c88d5942)
  )
  (label "MOSI" (at 160.02 93.98 0) (fields_autoplaced)
    (effects (font (size 1.27 1.27)) (justify left bottom))
    (uuid 9b73559a-ac0c-45b9-8e79-350fcc112802)
  )
  (label "SEL1" (at 160.02 111.76 0) (fields_autoplaced)
    (effects (font (size 1.27 1.27)) (justify left bottom))
    (uuid a44d11df-14b7-45b0-9a98-51c99fc1f924)
  )
  (label "GND" (at 236.22 107.95 0) (fields_autoplaced)
    (effects (font (size 1.27 1.27)) (justify left bottom))
    (uuid a69d18dd-5493-4a8a-92ea-ddd56306eafb)
  )
  (label "GND" (at 209.55 100.33 0) (fields_autoplaced)
    (effects (font (size 1.27 1.27)) (justify left bottom))
    (uuid b094dcd6-caa7-4afa-bceb-907ab06ed6f2)
  )
  (label "RXD" (at 176.53 60.96 0) (fields_autoplaced)
    (effects (font (size 1.27 1.27)) (justify left bottom))
    (uuid bea68760-8512-4581-8d12-efa1a8cb5724)
  )
  (label "SCK" (at 209.55 102.87 0) (fields_autoplaced)
    (effects (font (size 1.27 1.27)) (justify left bottom))
    (uuid ce5cbc17-b4ff-4ec8-84c4-e711c35dcba9)
  )
  (label "TXD" (at 176.53 58.42 0) (fields_autoplaced)
    (effects (font (size 1.27 1.27)) (justify left bottom))
    (uuid d16d9b77-ff0d-4d40-abe0-1e26909b5909)
  )
  (label "DISP_GPIO1_BUSY" (at 200.66 110.49 0) (fields_autoplaced)
    (effects (font (size 1.27 1.27)) (justify left bottom))
    (uuid d25efbae-5c0f-40ef-8dd1-94ccb491e865)
  )
  (label "BOOTSEL" (at 162.56 43.18 0) (fields_autoplaced)
    (effects (font (size 1.27 1.27)) (justify left bottom))
    (uuid d28d454c-aa4a-4c4e-94d6-d53d24bab497)
  )
  (label "VDD" (at 236.22 105.41 0) (fields_autoplaced)
    (effects (font (size 1.27 1.27)) (justify left bottom))
    (uuid d381e569-dfe0-4461-a1d5-ff7e1c374bae)
  )
  (label "MISO" (at 209.55 107.95 0) (fields_autoplaced)
    (effects (font (size 1.27 1.27)) (justify left bottom))
    (uuid db0b6393-59c8-4033-917c-6fd36702b57e)
  )
  (label "SCK" (at 160.02 91.44 0) (fields_autoplaced)
    (effects (font (size 1.27 1.27)) (justify left bottom))
    (uuid e47dc9d0-ec9e-46ad-85e6-9697b4aa46df)
  )
  (label "DISP_GPIO2_BUSY" (at 236.22 110.49 0) (fields_autoplaced)
    (effects (font (size 1.27 1.27)) (justify left bottom))
    (uuid e8fc51b4-36e8-4f8f-8c96-2115f5139510)
  )
  (label "VDD" (at 217.17 68.58 0) (fields_autoplaced)
    (effects (font (size 1.27 1.27)) (justify left bottom))
    (uuid f130bfe9-072d-4b9a-8cb3-91122a46d2be)
  )
  (label "RESET" (at 110.49 55.88 0) (fields_autoplaced)
    (effects (font (size 1.27 1.27)) (justify left bottom))
    (uuid f7ee76d4-c6b1-4e9c-8664-fba2461c51e4)
  )
  (label "SEL1" (at 269.24 71.12 0) (fields_autoplaced)
    (effects (font (size 1.27 1.27)) (justify left bottom))
    (uuid fc574553-3e75-48fc-925f-f12b3bc5f58f)
  )

  (hierarchical_label "RX" (shape input) (at 167.64 83.82 0) (fields_autoplaced)
    (effects (font (size 1.27 1.27)) (justify left))
    (uuid 127ee7dc-fcf2-458b-99d8-5ec2f0940a8a)
  )
  (hierarchical_label "VDD" (shape input) (at 128.27 43.18 180) (fields_autoplaced)
    (effects (font (size 1.27 1.27)) (justify right))
    (uuid c0f211dd-46e6-43cc-845c-7d91fb74f7e4)
  )
  (hierarchical_label "RESET" (shape input) (at 105.41 55.88 180) (fields_autoplaced)
    (effects (font (size 1.27 1.27)) (justify right))
    (uuid cffc4636-ef73-42c8-935b-625386221918)
  )
  (hierarchical_label "TX" (shape output) (at 167.64 81.28 0) (fields_autoplaced)
    (effects (font (size 1.27 1.27)) (justify left))
    (uuid ebcb5a80-aedc-4da0-8ce0-d0331c10a5ef)
  )

  (symbol (lib_id "power:GND") (at 186.69 66.04 0) (unit 1)
    (in_bom yes) (on_board yes) (dnp no) (fields_autoplaced)
    (uuid 0ea8f653-89b5-4917-ab3c-9f642cbb7a60)
    (property "Reference" "#PWR010" (at 186.69 72.39 0)
      (effects (font (size 1.27 1.27)) hide)
    )
    (property "Value" "GND" (at 186.69 71.12 0)
      (effects (font (size 1.27 1.27)))
    )
    (property "Footprint" "" (at 186.69 66.04 0)
      (effects (font (size 1.27 1.27)) hide)
    )
    (property "Datasheet" "" (at 186.69 66.04 0)
      (effects (font (size 1.27 1.27)) hide)
    )
    (pin "1" (uuid b4f2b9c2-8bc4-4cb5-aeb8-c45d804e105d))
    (instances
      (project "digitalboard"
        (path "/46b748a9-83d9-4916-a157-656a7a936e7a/00000000-0000-0000-0000-00005e13e7de/9e7ee2cb-bc85-4215-9f39-25fb69755119"
          (reference "#PWR010") (unit 1)
        )
      )
    )
  )

  (symbol (lib_id "Connector_Generic:Conn_02x05_Odd_Even") (at 223.52 105.41 0) (unit 1)
    (in_bom yes) (on_board yes) (dnp no) (fields_autoplaced)
    (uuid 1ba0b690-1d2f-46df-9b9e-c93db2fa3e14)
    (property "Reference" "J16" (at 224.79 93.98 0)
      (effects (font (size 1.27 1.27)))
    )
    (property "Value" "Conn_02x05_Odd_Even" (at 224.79 96.52 0)
      (effects (font (size 1.27 1.27)))
    )
    (property "Footprint" "Connector_PinHeader_2.54mm:PinHeader_2x05_P2.54mm_Vertical" (at 223.52 105.41 0)
      (effects (font (size 1.27 1.27)) hide)
    )
    (property "Datasheet" "~" (at 223.52 105.41 0)
      (effects (font (size 1.27 1.27)) hide)
    )
    (pin "1" (uuid 29a78335-e992-4e64-adcf-d81e789bf2a4))
    (pin "10" (uuid ac0451e7-3bd3-4f09-9e76-aa97c5943a42))
    (pin "2" (uuid fec390ab-0ca5-4cb7-89fe-5f9cd1b85ecc))
    (pin "3" (uuid e65e4676-1ae6-4be5-a77d-ca9328721914))
    (pin "4" (uuid f204a2ea-eeaa-404d-aa6a-e26850fb99cb))
    (pin "5" (uuid 4427107e-6e9f-4dda-b5c4-92d2cef3d245))
    (pin "6" (uuid bc0c4ba3-4019-4821-9297-898ad6ffd88a))
    (pin "7" (uuid 7476a58a-438b-4d54-9e27-fa1913dc4326))
    (pin "8" (uuid 73509477-b6e2-4ea5-9d72-423dc4f35518))
    (pin "9" (uuid efbdaa6d-40a4-4bf5-b6ac-dde6ea1261b6))
    (instances
      (project "digitalboard"
        (path "/46b748a9-83d9-4916-a157-656a7a936e7a/00000000-0000-0000-0000-00005e13e7de"
          (reference "J16") (unit 1)
        )
        (path "/46b748a9-83d9-4916-a157-656a7a936e7a/00000000-0000-0000-0000-00005e13e7de/9e7ee2cb-bc85-4215-9f39-25fb69755119"
          (reference "J15") (unit 1)
        )
      )
    )
  )

  (symbol (lib_id "power:GND") (at 137.16 125.73 0) (unit 1)
    (in_bom yes) (on_board yes) (dnp no) (fields_autoplaced)
    (uuid 1cbed85d-8ce9-4f66-936c-b43e8353213f)
    (property "Reference" "#PWR09" (at 137.16 132.08 0)
      (effects (font (size 1.27 1.27)) hide)
    )
    (property "Value" "GND" (at 137.16 130.81 0)
      (effects (font (size 1.27 1.27)))
    )
    (property "Footprint" "" (at 137.16 125.73 0)
      (effects (font (size 1.27 1.27)) hide)
    )
    (property "Datasheet" "" (at 137.16 125.73 0)
      (effects (font (size 1.27 1.27)) hide)
    )
    (pin "1" (uuid 0f48eee0-6e4a-4dd5-8926-f62b6b5b2653))
    (instances
      (project "digitalboard"
        (path "/46b748a9-83d9-4916-a157-656a7a936e7a/00000000-0000-0000-0000-00005e13e7de/9e7ee2cb-bc85-4215-9f39-25fb69755119"
          (reference "#PWR09") (unit 1)
        )
      )
    )
  )

  (symbol (lib_id "digitalboard-rescue:SW_Push-Switch") (at 180.34 43.18 0) (unit 1)
    (in_bom yes) (on_board yes) (dnp no) (fields_autoplaced)
    (uuid 4fc51cc0-4f0e-47a5-9a13-5f47c11990c1)
    (property "Reference" "SW1" (at 180.34 35.56 0)
      (effects (font (size 1.27 1.27)))
    )
    (property "Value" "Switch_SW_Push" (at 180.34 38.1 0)
      (effects (font (size 1.27 1.27)))
    )
    (property "Footprint" "Button_Switch_SMD:SW_Push_1P1T_NO_CK_KSC6xxJ" (at 180.34 38.1 0)
      (effects (font (size 1.27 1.27)) hide)
    )
    (property "Datasheet" "" (at 180.34 38.1 0)
      (effects (font (size 1.27 1.27)) hide)
    )
    (pin "1" (uuid aaba59e1-52cd-4b82-9c2a-295785fa13ae))
    (pin "2" (uuid 1bf7ab35-dc7e-461f-b5a4-552ae58b872b))
    (instances
      (project "digitalboard"
        (path "/46b748a9-83d9-4916-a157-656a7a936e7a/00000000-0000-0000-0000-00005e13e7de/9e7ee2cb-bc85-4215-9f39-25fb69755119"
          (reference "SW1") (unit 1)
        )
      )
    )
  )

  (symbol (lib_id "Connector_Generic:Conn_01x03") (at 195.58 60.96 0) (mirror x) (unit 1)
    (in_bom yes) (on_board yes) (dnp no)
    (uuid 7c9d80fb-690e-4e1a-aa27-ec267e2e6f40)
    (property "Reference" "J9" (at 198.12 62.23 0)
      (effects (font (size 1.27 1.27)) (justify left))
    )
    (property "Value" "Conn_01x03" (at 198.12 59.69 0)
      (effects (font (size 1.27 1.27)) (justify left))
    )
    (property "Footprint" "Connector_PinHeader_2.54mm:PinHeader_1x03_P2.54mm_Vertical" (at 195.58 60.96 0)
      (effects (font (size 1.27 1.27)) hide)
    )
    (property "Datasheet" "~" (at 195.58 60.96 0)
      (effects (font (size 1.27 1.27)) hide)
    )
    (pin "1" (uuid aa25e8ee-8645-401c-9573-a2482994ae71))
    (pin "2" (uuid 949b0e17-ac82-494c-8e61-e0507689f42c))
    (pin "3" (uuid 43befb61-ea2a-43bd-ae6b-8f47f212131b))
    (instances
      (project "digitalboard"
        (path "/46b748a9-83d9-4916-a157-656a7a936e7a/00000000-0000-0000-0000-00005e13e7de/9e7ee2cb-bc85-4215-9f39-25fb69755119"
          (reference "J9") (unit 1)
        )
      )
    )
  )

  (symbol (lib_id "power:GND") (at 195.58 45.72 0) (unit 1)
    (in_bom yes) (on_board yes) (dnp no) (fields_autoplaced)
    (uuid c5fc1283-dea0-42fa-9e5e-921cdfb284c4)
    (property "Reference" "#PWR011" (at 195.58 52.07 0)
      (effects (font (size 1.27 1.27)) hide)
    )
    (property "Value" "GND" (at 195.58 50.8 0)
      (effects (font (size 1.27 1.27)))
    )
    (property "Footprint" "" (at 195.58 45.72 0)
      (effects (font (size 1.27 1.27)) hide)
    )
    (property "Datasheet" "" (at 195.58 45.72 0)
      (effects (font (size 1.27 1.27)) hide)
    )
    (pin "1" (uuid 85de9a61-f8ee-41bd-b1a1-920cf165c42f))
    (instances
      (project "digitalboard"
        (path "/46b748a9-83d9-4916-a157-656a7a936e7a/00000000-0000-0000-0000-00005e13e7de/9e7ee2cb-bc85-4215-9f39-25fb69755119"
          (reference "#PWR011") (unit 1)
        )
      )
    )
  )

  (symbol (lib_id "Device:R") (at 260.35 105.41 0) (unit 1)
    (in_bom yes) (on_board yes) (dnp no) (fields_autoplaced)
    (uuid e0d6d814-b545-4328-b675-8935049a0360)
    (property "Reference" "R12" (at 262.89 104.14 0)
      (effects (font (size 1.27 1.27)) (justify left))
    )
    (property "Value" "10K" (at 262.89 106.68 0)
      (effects (font (size 1.27 1.27)) (justify left))
    )
    (property "Footprint" "Resistor_SMD:R_0805_2012Metric" (at 258.572 105.41 90)
      (effects (font (size 1.27 1.27)) hide)
    )
    (property "Datasheet" "~" (at 260.35 105.41 0)
      (effects (font (size 1.27 1.27)) hide)
    )
    (pin "1" (uuid 3250c74b-78bc-459d-8256-d4e83d638dcc))
    (pin "2" (uuid b77f7cd4-3651-4fe3-8e86-b9ca7013e456))
    (instances
      (project "digitalboard"
        (path "/46b748a9-83d9-4916-a157-656a7a936e7a/00000000-0000-0000-0000-00005e13e7de"
          (reference "R12") (unit 1)
        )
        (path "/46b748a9-83d9-4916-a157-656a7a936e7a/00000000-0000-0000-0000-00005e13e7de/9e7ee2cb-bc85-4215-9f39-25fb69755119"
          (reference "R12") (unit 1)
        )
      )
    )
  )

  (symbol (lib_id "RF_Module:ESP32-WROOM-32") (at 137.16 86.36 0) (unit 1)
    (in_bom yes) (on_board yes) (dnp no) (fields_autoplaced)
    (uuid e4779424-6607-4b01-a37a-acdb157f25f7)
    (property "Reference" "U7" (at 139.1159 48.26 0)
      (effects (font (size 1.27 1.27)) (justify left))
    )
    (property "Value" "ESP32-WROOM-32" (at 139.1159 50.8 0)
      (effects (font (size 1.27 1.27)) (justify left))
    )
    (property "Footprint" "RF_Module:ESP32-WROOM-32" (at 137.16 124.46 0)
      (effects (font (size 1.27 1.27)) hide)
    )
    (property "Datasheet" "https://www.espressif.com/sites/default/files/documentation/esp32-wroom-32_datasheet_en.pdf" (at 129.54 85.09 0)
      (effects (font (size 1.27 1.27)) hide)
    )
    (pin "1" (uuid 861b64d8-d23b-4a0b-9a74-0b8f1df4c0e4))
    (pin "10" (uuid 9a6329bd-73cc-4449-86be-4ce33b6c4913))
    (pin "11" (uuid 387b944a-6fd7-45d9-9054-1fe6d61984b5))
    (pin "12" (uuid 44e15d80-da7d-4e39-8db1-f57ae6a351d1))
    (pin "13" (uuid 637fa0a0-44de-43bf-9146-1e4d1684f6be))
    (pin "14" (uuid 7226b001-779c-4e62-85de-dd83e10223bf))
    (pin "15" (uuid 6a408332-e6fe-4267-8dbd-a65f5c878629))
    (pin "16" (uuid 9b7441af-d812-46dc-ab0e-85dbe9ab5004))
    (pin "17" (uuid 8a17fc0f-8447-49da-9c14-63ac54d2ac7b))
    (pin "18" (uuid 9e0df550-4139-4810-aa0d-5045a81022e6))
    (pin "19" (uuid b409eb7b-0a5c-4302-8078-33c332687cbe))
    (pin "2" (uuid 27163c07-77a3-488e-ae70-6523f018b819))
    (pin "20" (uuid e2bbb97d-8647-4873-b6c0-6fe81372fdf3))
    (pin "21" (uuid fe031c4f-ef5e-4dcd-98d9-ffbc3fade87b))
    (pin "22" (uuid 3b3d76aa-4aef-4560-8a26-003775bd393e))
    (pin "23" (uuid 8d9db896-4eec-481e-9f45-538cbeebebb2))
    (pin "24" (uuid e98c2e2a-291d-4682-9853-67e3f9b86d6e))
    (pin "25" (uuid ab1000c7-7673-4de9-b809-ccbd8ae81c00))
    (pin "26" (uuid 0ce625be-3b95-412b-9d26-4f4fc907eb12))
    (pin "27" (uuid f0110ecd-366b-40f8-aed0-a9dbcd6c8c0f))
    (pin "28" (uuid 19aad177-870e-4c9e-ac14-56eaa90b46e0))
    (pin "29" (uuid ef80ce93-0b70-49a0-ab01-0c6219f826f3))
    (pin "3" (uuid 6bce8d23-7387-4e68-93b9-8f4bcf11f7f7))
    (pin "30" (uuid c5d017ef-a765-49ad-994d-97f9f7a0ec85))
    (pin "31" (uuid bc512537-ed62-4328-a9df-a449bdd01cea))
    (pin "32" (uuid 70a07834-762f-4b7e-be56-33daaafb64c8))
    (pin "33" (uuid 39799c60-2efe-47fe-ab05-ca191053345a))
    (pin "34" (uuid 2530bf43-12e5-4c1f-a243-1a19d6308ea7))
    (pin "35" (uuid ae8e7141-09ce-450b-a123-ed678bcf0d1b))
    (pin "36" (uuid 0eb3a953-06ef-4cc9-b4f5-a07e9d6ee254))
    (pin "37" (uuid 4354da34-21fd-473c-be38-5223991ed9db))
    (pin "38" (uuid 33d252c7-7b4b-4db0-95cd-43a3b13e6341))
    (pin "39" (uuid a26bc702-dac4-4548-bb7c-2f4c6c1cbd87))
    (pin "4" (uuid 09859c64-f21d-4fd2-b035-a810d10ea0af))
    (pin "5" (uuid fa184dea-a922-49dc-8dec-a186814d83ca))
    (pin "6" (uuid 4c507ea8-f715-43e5-bfd1-e7e39ecf13cd))
    (pin "7" (uuid 5bb65655-fbe5-41c2-9814-0a138265e7fb))
    (pin "8" (uuid 62889302-6a9a-4f93-a9fd-f350f0c693d8))
    (pin "9" (uuid 465c976e-a92c-432b-a24b-a5d639de5043))
    (instances
      (project "digitalboard"
        (path "/46b748a9-83d9-4916-a157-656a7a936e7a/00000000-0000-0000-0000-00005e13e7de/9e7ee2cb-bc85-4215-9f39-25fb69755119"
          (reference "U7") (unit 1)
        )
      )
    )
  )

  (sheet (at 226.06 64.77) (size 12.7 11.43) (fields_autoplaced)
    (stroke (width 0.1524) (type solid))
    (fill (color 0 0 0 0.0000))
    (uuid 19e691e6-8ad9-409d-92e5-fe4d6c2bc65e)
    (property "Sheetname" "selector_con" (at 226.06 64.0584 0)
      (effects (font (size 1.27 1.27)) (justify left bottom))
    )
    (property "Sheetfile" "selector_con.kicad_sch" (at 226.06 76.7846 0)
      (effects (font (size 1.27 1.27)) (justify left top))
    )
    (pin "SEL0" input (at 238.76 68.58 0)
      (effects (font (size 1.27 1.27)) (justify right))
      (uuid a3fc1eda-cf71-4a3a-91a1-56d07f3d9b5b)
    )
    (pin "SEL1" input (at 238.76 71.12 0)
      (effects (font (size 1.27 1.27)) (justify right))
      (uuid fa4d6d3f-54b2-41d9-9afe-253c8064c5f1)
    )
    (pin "SEL2" input (at 238.76 73.66 0)
      (effects (font (size 1.27 1.27)) (justify right))
      (uuid a04f7ab2-cbb2-48bf-b15b-6fbde9469cc7)
    )
    (pin "3V3" input (at 226.06 68.58 180)
      (effects (font (size 1.27 1.27)) (justify left))
      (uuid 151a32f8-314a-4044-a72b-c4243e1f4c2a)
    )
    (instances
      (project "digitalboard"
        (path "/46b748a9-83d9-4916-a157-656a7a936e7a" (page "12"))
        (path "/46b748a9-83d9-4916-a157-656a7a936e7a/00000000-0000-0000-0000-00005e13e7de/9e7ee2cb-bc85-4215-9f39-25fb69755119" (page "12"))
      )
    )
  )
)
