EESchema Schematic File Version 4
EELAYER 30 0
EELAYER END
$Descr A4 11693 8268
encoding utf-8
Sheet 3 3
Title ""
Date ""
Rev ""
Comp ""
Comment1 ""
Comment2 ""
Comment3 ""
Comment4 ""
$EndDescr
Wire Wire Line
	9500 2500 9800 2500
Wire Wire Line
	9500 1400 9800 1400
Wire Wire Line
	9500 2100 9800 2100
Text Label 10850 1500 0    50   ~ 0
MCLK1
Text Label 9800 2100 0    50   ~ 0
D1RST
Text Label 9800 1700 0    50   ~ 0
SCLK1
Text Label 9800 1800 0    50   ~ 0
SDATA1
Text Label 9800 1900 0    50   ~ 0
LRCK1
Text Label 9800 1600 0    50   ~ 0
GND
Text Label 9800 2400 0    50   ~ 0
CDTI
Text Label 9800 1400 0    50   ~ 0
3.3V
Wire Wire Line
	9500 6100 9800 6100
Wire Wire Line
	9500 5000 9800 5000
Wire Wire Line
	9500 5600 9800 5600
Wire Wire Line
	9800 5900 9500 5900
Wire Wire Line
	9500 5700 9800 5700
Text Label 10850 5100 0    50   ~ 0
MCLK3
Text Label 9800 5700 0    50   ~ 0
D3RST
Text Label 9800 5300 0    50   ~ 0
SCLK3
Text Label 9800 5400 0    50   ~ 0
SDATA3
Text Label 9800 5500 0    50   ~ 0
LRCK3
Text Label 9800 5200 0    50   ~ 0
GND
Text Label 9800 5600 0    50   ~ 0
CSDAC3
Text Label 9800 5900 0    50   ~ 0
CCLK
Text Label 9800 6000 0    50   ~ 0
CDTI
Text Label 9800 5000 0    50   ~ 0
3.3V
Wire Wire Line
	9500 4300 9800 4300
Wire Wire Line
	9500 3200 9800 3200
Wire Wire Line
	9800 4100 9500 4100
Wire Wire Line
	9500 3900 9800 3900
Text Label 10850 3300 0    50   ~ 0
MCLK2
Text Label 9800 3900 0    50   ~ 0
D2RST
Text Label 9800 3500 0    50   ~ 0
SCLK2
Text Label 9800 3600 0    50   ~ 0
SDATA2
Text Label 9800 3400 0    50   ~ 0
GND
Text Label 9800 4100 0    50   ~ 0
CCLK
Text Label 9800 4200 0    50   ~ 0
CDTI
Text Label 9800 3200 0    50   ~ 0
3.3V
$Comp
L Connector:Conn_01x05_Female J?
U 1 1 5E1BDA27
P 900 1050
AR Path="/5E17263F/5E1BDA27" Ref="J?"  Part="1" 
AR Path="/5E1BDA27" Ref="J?"  Part="1" 
AR Path="/5E13E7DE/5E1BDA27" Ref="J10"  Part="1" 
F 0 "J10" H 794 1435 50  0000 C CNN
F 1 "Conn_01x05_Female" H 794 1344 50  0000 C CNN
F 2 "Connector_PinHeader_2.54mm:PinHeader_1x05_P2.54mm_Vertical" H 900 1050 50  0001 C CNN
F 3 "~" H 900 1050 50  0001 C CNN
	1    900  1050
	-1   0    0    -1  
$EndComp
Text Label 1250 1050 0    50   ~ 0
PROG_RESET
Text Label 1250 1250 0    50   ~ 0
PROG_SWDIO
Text Label 1250 1150 0    50   ~ 0
PROG_SWDCLK
Text Label 1250 950  0    50   ~ 0
GND
NoConn ~ 1100 850 
Wire Wire Line
	1250 950  1100 950 
Wire Wire Line
	1100 1050 1250 1050
Wire Wire Line
	1250 1150 1100 1150
Wire Wire Line
	1100 1250 1250 1250
$Comp
L Device:Crystal Y?
U 1 1 5E1D3C5B
P 3400 5300
AR Path="/5E1D3C5B" Ref="Y?"  Part="1" 
AR Path="/5E13E7DE/5E1D3C5B" Ref="Y1"  Part="1" 
F 0 "Y1" V 3400 5450 50  0000 L CNN
F 1 "17.2032Mhz" V 3600 5250 50  0000 L CNN
F 2 "Crystal:Crystal_SMD_HC49-SD" H 3400 5300 50  0001 C CNN
F 3 "~" H 3400 5300 50  0001 C CNN
F 4 "449-LFXTAL063050BULK" V 3400 5300 50  0001 C CNN "#Mouser"
	1    3400 5300
	0    1    1    0   
$EndComp
Wire Wire Line
	4450 5250 4050 5250
Wire Wire Line
	4050 5250 4050 5150
Connection ~ 3400 5150
Wire Wire Line
	3400 5150 3300 5150
Wire Wire Line
	4450 5350 4050 5350
Wire Wire Line
	4050 5350 4050 5450
Connection ~ 3400 5450
Wire Wire Line
	3400 5450 3300 5450
$Comp
L Device:C C39
U 1 1 5E269528
P 3150 5150
F 0 "C39" V 2898 5150 50  0000 C CNN
F 1 "20pF" V 2989 5150 50  0000 C CNN
F 2 "Capacitor_SMD:C_0805_2012Metric" H 3188 5000 50  0001 C CNN
F 3 "~" H 3150 5150 50  0001 C CNN
	1    3150 5150
	0    1    1    0   
$EndComp
$Comp
L Device:C C40
U 1 1 5E26958E
P 3150 5450
F 0 "C40" V 3300 5450 50  0000 C CNN
F 1 "20pF" V 3400 5450 50  0000 C CNN
F 2 "Capacitor_SMD:C_0805_2012Metric" H 3188 5300 50  0001 C CNN
F 3 "~" H 3150 5450 50  0001 C CNN
	1    3150 5450
	0    1    1    0   
$EndComp
Wire Wire Line
	3000 5450 2950 5450
Wire Wire Line
	2950 5450 2950 5150
Wire Wire Line
	2950 5150 3000 5150
Wire Wire Line
	2950 5150 2800 5150
Connection ~ 2950 5150
Text Label 2800 5150 0    50   ~ 0
GND
Text Label 3850 3050 0    50   ~ 0
PROG_SWDIO
Text Label 3850 3150 0    50   ~ 0
PROG_SWDCLK
Text Label 3850 2550 0    50   ~ 0
PROG_RESET
Wire Wire Line
	4450 3050 3850 3050
Wire Wire Line
	3850 3150 4450 3150
Wire Wire Line
	4450 2550 3850 2550
$Comp
L Switch:SW_Push SW1
U 1 1 5E2DF96F
P 3650 2550
F 0 "SW1" H 3650 2835 50  0000 C CNN
F 1 "SW_Push" H 3650 2744 50  0000 C CNN
F 2 "Button_Switch_SMD:SW_SPST_EVQQ2" H 3650 2750 50  0001 C CNN
F 3 "" H 3650 2750 50  0001 C CNN
	1    3650 2550
	1    0    0    -1  
$EndComp
Text Label 2950 2550 0    50   ~ 0
GND
Text Label 1200 7450 0    50   ~ 0
GND
Text Label 4100 4550 0    50   ~ 0
USBD+
Text Label 4100 4650 0    50   ~ 0
USBD-
Wire Wire Line
	4450 4550 4100 4550
Wire Wire Line
	4100 4650 4450 4650
Text Label 4250 4750 0    50   ~ 0
VDD
Text Label 4250 6050 0    50   ~ 0
VDD
Text Label 4250 3650 0    50   ~ 0
VDD
Wire Wire Line
	8150 6050 8100 6050
Text Label 8150 6050 0    50   ~ 0
VDD
Wire Wire Line
	4450 2450 4250 2450
Text Label 4150 1450 0    50   ~ 0
SCL
Text Label 4150 1550 0    50   ~ 0
SDA
Text HLabel 2300 600  0    50   Input ~ 0
3.3V
Text HLabel 2300 700  0    50   Input ~ 0
VSS
Text HLabel 8550 5750 2    50   Input ~ 0
SEL0
Text HLabel 8550 5850 2    50   Input ~ 0
SEL1
Text HLabel 8550 5950 2    50   Input ~ 0
SEL2
Wire Wire Line
	2300 600  2500 600 
Wire Wire Line
	2300 700  2400 700 
Text Label 2500 700  0    50   ~ 0
GND
Text Label 2500 800  0    50   ~ 0
VSS
Wire Wire Line
	2400 700  2400 800 
Wire Wire Line
	2400 800  2500 800 
Connection ~ 2400 700 
Wire Wire Line
	2400 700  2500 700 
Text Label 2500 600  0    50   ~ 0
VDD
Text HLabel 3500 2750 0    50   Input ~ 0
RX
Text HLabel 3500 2850 0    50   Output ~ 0
TX
Text Label 3650 2750 0    50   ~ 0
RX
Text Label 3650 2850 0    50   ~ 0
TX
Wire Wire Line
	9500 2200 9800 2200
Text Label 9800 2200 0    50   ~ 0
CSIDENT1
Wire Wire Line
	9500 5800 9800 5800
Text Label 9800 5800 0    50   ~ 0
CSIDENT3
$Comp
L digitalboard-rescue:USB_B_Mini-Connector J11
U 1 1 5E5B5EFD
P 1100 6950
AR Path="/5E5B5EFD" Ref="J11"  Part="1" 
AR Path="/5E13E7DE/5E5B5EFD" Ref="J11"  Part="1" 
F 0 "J11" H 1157 7417 50  0000 C CNN
F 1 "USB_B_Mini" H 1157 7326 50  0000 C CNN
F 2 "Connector_USB:USB_Micro-B_Wuerth_629105150521" H 1250 6900 50  0001 C CNN
F 3 "~" H 1250 6900 50  0001 C CNN
F 4 "2470822" H 1100 6950 50  0001 C CNN "Ref Farnell"
F 5 "0.483" H 1100 6950 50  0001 C CNN "Price"
	1    1100 6950
	1    0    0    -1  
$EndComp
Text Label 2550 7500 0    50   ~ 0
USBD+
Text Label 2550 6600 0    50   ~ 0
USBD-
Wire Wire Line
	1100 7450 1100 7350
Wire Wire Line
	1100 7450 1000 7450
Wire Wire Line
	1000 7450 1000 7350
NoConn ~ 1400 7150
Wire Wire Line
	7950 5350 8250 5350
Wire Wire Line
	8250 5450 7950 5450
Wire Wire Line
	7950 5550 8250 5550
Wire Wire Line
	8250 5650 7950 5650
Text Label 8250 5650 0    50   ~ 0
MCLK3
Text Label 8250 5550 0    50   ~ 0
SCLK3
Text Label 8250 5450 0    50   ~ 0
SDATA3
Text Label 8250 5350 0    50   ~ 0
LRCK3
Wire Wire Line
	7950 4050 8250 4050
Wire Wire Line
	7950 4150 8250 4150
Wire Wire Line
	8250 4250 7950 4250
Wire Wire Line
	7950 4350 8250 4350
Wire Wire Line
	8250 4450 7950 4450
Wire Wire Line
	7950 3950 8250 3950
Text Label 8250 4450 0    50   ~ 0
MCLK2
Text Label 8250 3950 0    50   ~ 0
D2RST
Text Label 8250 4350 0    50   ~ 0
SCLK2
Text Label 8250 4250 0    50   ~ 0
SDATA2
Text Label 8250 4150 0    50   ~ 0
LRCK2
Text Label 8250 4050 0    50   ~ 0
CSDAC2
Wire Wire Line
	7950 3850 8250 3850
Text Label 8250 3850 0    50   ~ 0
CSIDENT2
Wire Wire Line
	7950 2950 8250 2950
Wire Wire Line
	8250 1350 7950 1350
Wire Wire Line
	7950 3050 8250 3050
Wire Wire Line
	8250 3150 7950 3150
Wire Wire Line
	7950 1150 8250 1150
Wire Wire Line
	7950 3250 8250 3250
Wire Wire Line
	8250 3350 7950 3350
Wire Wire Line
	7950 2850 8250 2850
Text Label 8250 3250 0    50   ~ 0
SCLK1
Text Label 8250 3150 0    50   ~ 0
SDATA1
Text Label 8250 3050 0    50   ~ 0
LRCK1
Text Label 8250 2950 0    50   ~ 0
CSDAC1
Text Label 8250 1350 0    50   ~ 0
CCLK
Text Label 8250 1150 0    50   ~ 0
CDTI
Wire Wire Line
	7950 2750 8250 2750
Text Label 8250 2750 0    50   ~ 0
CSIDENT1
Wire Wire Line
	3800 2950 4450 2950
Wire Wire Line
	3800 1150 4450 1150
Wire Wire Line
	3800 1950 4450 1950
Wire Wire Line
	3800 1250 4450 1250
Wire Wire Line
	3800 1850 4450 1850
Wire Wire Line
	3800 1750 4450 1750
Wire Wire Line
	3800 1650 4450 1650
Text Label 8400 5750 2    50   ~ 0
SEL0
Text Label 8400 5850 2    50   ~ 0
SEL1
Text Label 8400 5950 2    50   ~ 0
SEL2
Wire Wire Line
	4000 3950 4450 3950
NoConn ~ 7950 1750
NoConn ~ 7950 1850
NoConn ~ 7950 1950
NoConn ~ 7950 2050
NoConn ~ 7950 2150
NoConn ~ 7950 2250
NoConn ~ 4450 5050
NoConn ~ 4450 5150
Text Label 8400 3650 2    50   ~ 0
VOLUME
Text Label 9800 4000 0    50   ~ 0
CSIDENT2
Wire Wire Line
	9500 4000 9800 4000
$Comp
L Device:R R5
U 1 1 5E9EBE0C
P 10550 5100
F 0 "R5" V 10757 5100 50  0000 C CNN
F 1 "200R" V 10666 5100 50  0000 C CNN
F 2 "Resistor_SMD:R_0805_2012Metric" V 10480 5100 50  0001 C CNN
F 3 "~" H 10550 5100 50  0001 C CNN
F 4 "2447602" H 10550 5100 50  0001 C CNN "Ref Farnell"
	1    10550 5100
	0    -1   -1   0   
$EndComp
$Comp
L Device:C C10
U 1 1 5E9EC218
P 10350 5300
F 0 "C10" H 10465 5346 50  0000 L CNN
F 1 "20n" H 10465 5255 50  0000 L CNN
F 2 "Capacitor_SMD:C_0805_2012Metric" H 10388 5150 50  0001 C CNN
F 3 "~" H 10350 5300 50  0001 C CNN
F 4 "1414682" H 10350 5300 50  0001 C CNN "Ref Farnell"
	1    10350 5300
	1    0    0    -1  
$EndComp
Wire Wire Line
	10400 5100 10350 5100
Wire Wire Line
	10350 5100 10350 5150
$Comp
L Device:R R4
U 1 1 5EA81C01
P 10550 3300
F 0 "R4" V 10757 3300 50  0000 C CNN
F 1 "200R" V 10666 3300 50  0000 C CNN
F 2 "Resistor_SMD:R_0805_2012Metric" V 10480 3300 50  0001 C CNN
F 3 "~" H 10550 3300 50  0001 C CNN
F 4 "2447602" H 10550 3300 50  0001 C CNN "Ref Farnell"
	1    10550 3300
	0    -1   -1   0   
$EndComp
$Comp
L Device:C C9
U 1 1 5EA81C0B
P 10350 3500
F 0 "C9" H 10465 3546 50  0000 L CNN
F 1 "20n" H 10465 3455 50  0000 L CNN
F 2 "Capacitor_SMD:C_0805_2012Metric" H 10388 3350 50  0001 C CNN
F 3 "~" H 10350 3500 50  0001 C CNN
F 4 "1414682" H 10350 3500 50  0001 C CNN "Ref Farnell"
	1    10350 3500
	1    0    0    -1  
$EndComp
Wire Wire Line
	10400 3300 10350 3300
Wire Wire Line
	10350 3300 10350 3350
$Comp
L Device:R R3
U 1 1 5EAB295F
P 10550 1500
F 0 "R3" V 10757 1500 50  0000 C CNN
F 1 "200R" V 10666 1500 50  0000 C CNN
F 2 "Resistor_SMD:R_0805_2012Metric" V 10480 1500 50  0001 C CNN
F 3 "~" H 10550 1500 50  0001 C CNN
F 4 "2447602" H 10550 1500 50  0001 C CNN "Ref Farnell"
	1    10550 1500
	0    -1   -1   0   
$EndComp
$Comp
L Device:C C8
U 1 1 5EAB2969
P 10350 1700
F 0 "C8" H 10465 1746 50  0000 L CNN
F 1 "20n" H 10465 1655 50  0000 L CNN
F 2 "Capacitor_SMD:C_0805_2012Metric" H 10388 1550 50  0001 C CNN
F 3 "~" H 10350 1700 50  0001 C CNN
F 4 "1414682" H 10350 1700 50  0001 C CNN "Ref Farnell"
	1    10350 1700
	1    0    0    -1  
$EndComp
Wire Wire Line
	10400 1500 10350 1500
Wire Wire Line
	10350 1500 10350 1550
Connection ~ 10350 1500
Connection ~ 10350 3300
Connection ~ 10350 5100
Wire Wire Line
	10700 5100 10850 5100
Wire Wire Line
	10700 3300 10850 3300
Wire Wire Line
	10700 1500 10850 1500
Wire Wire Line
	1400 6950 1550 6950
Wire Wire Line
	1400 7050 1550 7050
Wire Wire Line
	1550 6750 1400 6750
Text Notes 1100 3400 0    50   ~ 0
ADC connector
Text Label 4000 4350 0    50   ~ 0
MCLK4
Wire Wire Line
	9500 6000 9800 6000
Text Label 9800 6100 0    50   ~ 0
CDTO
Wire Wire Line
	10350 5700 10350 5450
Text Label 9800 4300 0    50   ~ 0
CDTO
Text Label 9800 2500 0    50   ~ 0
CDTO
Wire Wire Line
	9500 2400 9800 2400
Wire Wire Line
	10350 2100 10350 1850
Wire Wire Line
	9500 4200 9800 4200
Wire Wire Line
	10350 3900 10350 3650
Wire Wire Line
	1000 5000 1300 5000
Wire Wire Line
	1000 3900 1300 3900
Wire Wire Line
	1000 4500 1300 4500
Wire Wire Line
	1300 4800 1000 4800
Wire Wire Line
	1000 4600 1300 4600
Text Label 2500 4000 0    50   ~ 0
MCLK4
Text Label 1300 4300 0    50   ~ 0
SDATA4
Text Label 1300 4500 0    50   ~ 0
CSADC4
Text Label 1300 4800 0    50   ~ 0
CCLK
Text Label 1300 3900 0    50   ~ 0
3.3V
Text Label 1300 4100 0    50   ~ 0
GND
Wire Wire Line
	1000 4700 1300 4700
Text Label 1300 4700 0    50   ~ 0
CSIDENT4
$Comp
L Device:R R2
U 1 1 5F38E89D
P 2200 4000
AR Path="/5E13E7DE/5F38E89D" Ref="R2"  Part="1" 
AR Path="/5F38E89D" Ref="R?"  Part="1" 
AR Path="/5E13E7DE/5EFA53E6/5F38E89D" Ref="R?"  Part="1" 
F 0 "R2" V 2407 4000 50  0000 C CNN
F 1 "200R" V 2316 4000 50  0000 C CNN
F 2 "Resistor_SMD:R_0805_2012Metric" V 2130 4000 50  0001 C CNN
F 3 "~" H 2200 4000 50  0001 C CNN
F 4 "2447602" H 2200 4000 50  0001 C CNN "Ref Farnell"
	1    2200 4000
	0    -1   -1   0   
$EndComp
$Comp
L Device:C C5
U 1 1 5F38E8A3
P 2000 4200
AR Path="/5E13E7DE/5F38E8A3" Ref="C5"  Part="1" 
AR Path="/5F38E8A3" Ref="C?"  Part="1" 
AR Path="/5E13E7DE/5EFA53E6/5F38E8A3" Ref="C?"  Part="1" 
F 0 "C5" H 2115 4246 50  0000 L CNN
F 1 "20n" H 2115 4155 50  0000 L CNN
F 2 "Capacitor_SMD:C_0805_2012Metric" H 2038 4050 50  0001 C CNN
F 3 "~" H 2000 4200 50  0001 C CNN
F 4 "1414682" H 2000 4200 50  0001 C CNN "Ref Farnell"
	1    2000 4200
	1    0    0    -1  
$EndComp
Wire Wire Line
	2050 4000 2000 4000
Wire Wire Line
	2000 4000 2000 4050
Connection ~ 2000 4000
Wire Wire Line
	2350 4000 2500 4000
Text Label 1300 4400 0    50   ~ 0
LRCK4
Text Label 1300 4200 0    50   ~ 0
SCLK4
Text Label 1300 4600 0    50   ~ 0
RST4
Text Label 1300 4900 0    50   ~ 0
CDTI
Wire Wire Line
	1000 4900 1300 4900
Text Label 1300 5000 0    50   ~ 0
CDTO
Wire Wire Line
	2000 4600 2000 4350
Text Label 1300 3000 0    50   ~ 0
CDTI
Text Label 1300 3100 0    50   ~ 0
CDTO
Text Label 1300 2900 0    50   ~ 0
CCLK
Text Label 4000 3950 0    50   ~ 0
CSADC4
Text Label 3800 2950 0    50   ~ 0
SPDIFOUT
Text Label 3800 1150 0    50   ~ 0
CSIDENTOS
Text Label 3800 1950 0    50   ~ 0
MCLK5
Text Label 3800 1850 0    50   ~ 0
SCLKPSC
Text Label 3800 1750 0    50   ~ 0
SDATAPSC
Text Label 3800 1650 0    50   ~ 0
LRCKPSC
NoConn ~ 4450 2150
NoConn ~ 4450 3250
NoConn ~ 4450 3350
NoConn ~ 4450 3450
NoConn ~ 7950 4950
NoConn ~ 7950 1450
Text Label 8250 1250 0    50   ~ 0
CDTO
Wire Wire Line
	7950 1250 8250 1250
Text Label 8250 3350 0    50   ~ 0
MCLK1
Text Label 8250 2850 0    50   ~ 0
D1RST
Wire Wire Line
	1000 3100 1300 3100
Wire Wire Line
	1000 2000 1300 2000
Wire Wire Line
	1000 2600 1300 2600
Wire Wire Line
	1300 2900 1000 2900
Text Label 2600 2100 0    50   ~ 0
MCLK5
Text Label 1300 2000 0    50   ~ 0
3.3V
Wire Wire Line
	1000 2800 1300 2800
$Comp
L Device:R R1
U 1 1 5F2C19DF
P 2300 2100
AR Path="/5E13E7DE/5F2C19DF" Ref="R1"  Part="1" 
AR Path="/5F2C19DF" Ref="R?"  Part="1" 
AR Path="/5E13E7DE/5EFA53E6/5F2C19DF" Ref="R?"  Part="1" 
F 0 "R1" V 2507 2100 50  0000 C CNN
F 1 "200R" V 2416 2100 50  0000 C CNN
F 2 "Resistor_SMD:R_0805_2012Metric" V 2230 2100 50  0001 C CNN
F 3 "~" H 2300 2100 50  0001 C CNN
F 4 "2447602" H 2300 2100 50  0001 C CNN "Ref Farnell"
	1    2300 2100
	0    -1   -1   0   
$EndComp
$Comp
L Device:C C4
U 1 1 5F2C19E5
P 2100 2300
AR Path="/5E13E7DE/5F2C19E5" Ref="C4"  Part="1" 
AR Path="/5F2C19E5" Ref="C?"  Part="1" 
AR Path="/5E13E7DE/5EFA53E6/5F2C19E5" Ref="C?"  Part="1" 
F 0 "C4" H 2215 2346 50  0000 L CNN
F 1 "20n" H 2215 2255 50  0000 L CNN
F 2 "Capacitor_SMD:C_0805_2012Metric" H 2138 2150 50  0001 C CNN
F 3 "~" H 2100 2300 50  0001 C CNN
F 4 "1414682" H 2100 2300 50  0001 C CNN "Ref Farnell"
	1    2100 2300
	1    0    0    -1  
$EndComp
Wire Wire Line
	2150 2100 2100 2100
Wire Wire Line
	2100 2100 2100 2150
Connection ~ 2100 2100
Wire Wire Line
	2450 2100 2600 2100
Text Label 1300 2500 0    50   ~ 0
LRCKPSC
Text Label 1300 2600 0    50   ~ 0
CSTOSLNK
Text Label 1300 2300 0    50   ~ 0
SCLKPSC
Text Label 1300 2400 0    50   ~ 0
SDATAPSC
Wire Wire Line
	1000 3000 1300 3000
Wire Wire Line
	2100 2700 2100 2450
Wire Wire Line
	9500 3300 10350 3300
Wire Wire Line
	9500 1500 10350 1500
Wire Wire Line
	9500 5100 10350 5100
Wire Wire Line
	1000 4000 2000 4000
Wire Wire Line
	1000 2100 2100 2100
Wire Wire Line
	9500 1700 9800 1700
Wire Wire Line
	9500 1800 9800 1800
Wire Wire Line
	9500 1900 9800 1900
Wire Wire Line
	9500 3500 9800 3500
Wire Wire Line
	9500 3600 9800 3600
Wire Wire Line
	9500 5300 9800 5300
Wire Wire Line
	9500 5400 9800 5400
Wire Wire Line
	9500 5500 9800 5500
Wire Wire Line
	1000 4200 1300 4200
Wire Wire Line
	1000 4300 1300 4300
Wire Wire Line
	1000 4400 1300 4400
Wire Wire Line
	1000 2300 1300 2300
Wire Wire Line
	1000 2400 1300 2400
Wire Wire Line
	1000 2500 1300 2500
NoConn ~ 7950 3750
NoConn ~ 7950 3450
NoConn ~ 7950 1550
NoConn ~ 7950 1650
$Comp
L Device:C C?
U 1 1 5FDD38CC
P 8700 4750
AR Path="/5FDD38CC" Ref="C?"  Part="1" 
AR Path="/5E13E7DE/5FDD38CC" Ref="C15"  Part="1" 
F 0 "C15" H 8815 4796 50  0000 L CNN
F 1 "0.1uF" H 8815 4705 50  0000 L CNN
F 2 "Capacitor_SMD:C_0805_2012Metric" H 8738 4600 50  0001 C CNN
F 3 "~" H 8700 4750 50  0001 C CNN
	1    8700 4750
	0    1    1    0   
$EndComp
$Comp
L Device:C C?
U 1 1 5FDD38D2
P 8100 6250
AR Path="/5FDD38D2" Ref="C?"  Part="1" 
AR Path="/5E13E7DE/5FDD38D2" Ref="C12"  Part="1" 
F 0 "C12" H 8215 6296 50  0000 L CNN
F 1 "0.1uF" H 8215 6205 50  0000 L CNN
F 2 "Capacitor_SMD:C_0805_2012Metric" H 8138 6100 50  0001 C CNN
F 3 "~" H 8100 6250 50  0001 C CNN
	1    8100 6250
	1    0    0    -1  
$EndComp
Wire Wire Line
	8100 6100 8100 6050
Connection ~ 8100 6050
Wire Wire Line
	8100 6050 7950 6050
Wire Wire Line
	4250 2450 4250 2350
Wire Wire Line
	4250 2250 4450 2250
Wire Wire Line
	4450 2350 4250 2350
Connection ~ 4250 2350
Wire Wire Line
	4250 2350 4250 2250
Wire Wire Line
	4250 2250 4050 2250
Connection ~ 4250 2250
Text Label 4050 2250 0    50   ~ 0
GND
$Comp
L Device:C C?
U 1 1 5FEF9AC0
P 3450 3800
AR Path="/5FEF9AC0" Ref="C?"  Part="1" 
AR Path="/5E13E7DE/5FEF9AC0" Ref="C2"  Part="1" 
F 0 "C2" H 3565 3846 50  0000 L CNN
F 1 "0.1uF" H 3565 3755 50  0000 L CNN
F 2 "Capacitor_SMD:C_0805_2012Metric" H 3488 3650 50  0001 C CNN
F 3 "~" H 3450 3800 50  0001 C CNN
	1    3450 3800
	1    0    0    -1  
$EndComp
Text Label 3250 4050 0    50   ~ 0
GND
Wire Wire Line
	3450 3650 4450 3650
Wire Wire Line
	3250 4050 3450 4050
Wire Wire Line
	3450 4050 3450 3950
$Comp
L Device:C C?
U 1 1 5FF40780
P 3450 4750
AR Path="/5FF40780" Ref="C?"  Part="1" 
AR Path="/5E13E7DE/5FF40780" Ref="C7"  Part="1" 
F 0 "C7" H 3565 4796 50  0000 L CNN
F 1 "0.1uF" H 3565 4705 50  0000 L CNN
F 2 "Capacitor_SMD:C_0805_2012Metric" H 3488 4600 50  0001 C CNN
F 3 "~" H 3450 4750 50  0001 C CNN
	1    3450 4750
	-1   0    0    1   
$EndComp
$Comp
L Device:C C?
U 1 1 5FF5F3BE
P 3450 4400
AR Path="/5FF5F3BE" Ref="C?"  Part="1" 
AR Path="/5E13E7DE/5FF5F3BE" Ref="C6"  Part="1" 
F 0 "C6" H 3565 4446 50  0000 L CNN
F 1 "0.1uF" H 3565 4355 50  0000 L CNN
F 2 "Capacitor_SMD:C_0805_2012Metric" H 3488 4250 50  0001 C CNN
F 3 "~" H 3450 4400 50  0001 C CNN
	1    3450 4400
	-1   0    0    1   
$EndComp
Wire Wire Line
	3900 4750 3900 4250
Wire Wire Line
	3900 4750 4450 4750
Wire Wire Line
	3450 4550 3450 4600
Wire Wire Line
	3800 4550 3800 4850
Wire Wire Line
	3800 4850 4450 4850
Text Label 3600 4550 0    50   ~ 0
GND
Wire Wire Line
	3450 4550 3800 4550
Connection ~ 3450 4550
Wire Wire Line
	3450 4250 3900 4250
Wire Wire Line
	3450 4950 3450 4900
Wire Wire Line
	3450 4950 4450 4950
Wire Wire Line
	3400 5150 4050 5150
Wire Wire Line
	3400 5450 4050 5450
$Comp
L Device:C C?
U 1 1 600BBBAF
P 4150 6200
AR Path="/600BBBAF" Ref="C?"  Part="1" 
AR Path="/5E13E7DE/600BBBAF" Ref="C11"  Part="1" 
F 0 "C11" H 4265 6246 50  0000 L CNN
F 1 "0.1uF" H 4265 6155 50  0000 L CNN
F 2 "Capacitor_SMD:C_0805_2012Metric" H 4188 6050 50  0001 C CNN
F 3 "~" H 4150 6200 50  0001 C CNN
	1    4150 6200
	1    0    0    -1  
$EndComp
Text Label 3950 6400 0    50   ~ 0
GND
Wire Wire Line
	3950 6400 4150 6400
Wire Wire Line
	4150 6050 4450 6050
Wire Wire Line
	4150 6400 4150 6350
Wire Wire Line
	8100 6400 8100 6450
Wire Wire Line
	8100 6450 8250 6450
Text Label 8250 6450 0    50   ~ 0
GND
$Comp
L Device:C C?
U 1 1 60146B4F
P 8600 2350
AR Path="/60146B4F" Ref="C?"  Part="1" 
AR Path="/5E13E7DE/60146B4F" Ref="C13"  Part="1" 
F 0 "C13" H 8715 2396 50  0000 L CNN
F 1 "0.1uF" H 8715 2305 50  0000 L CNN
F 2 "Capacitor_SMD:C_0805_2012Metric" H 8638 2200 50  0001 C CNN
F 3 "~" H 8600 2350 50  0001 C CNN
	1    8600 2350
	0    -1   -1   0   
$EndComp
Text Label 8850 2350 0    50   ~ 0
GND
Wire Wire Line
	7950 2350 8450 2350
Wire Wire Line
	7950 2550 8450 2550
Wire Wire Line
	7950 2450 8850 2450
Wire Wire Line
	8750 2550 8850 2550
Wire Wire Line
	8850 2550 8850 2450
Wire Wire Line
	8750 2350 8850 2350
Wire Wire Line
	8850 2350 8850 2450
Connection ~ 8850 2450
$Comp
L Device:C C?
U 1 1 60146B45
P 8600 2550
AR Path="/60146B45" Ref="C?"  Part="1" 
AR Path="/5E13E7DE/60146B45" Ref="C14"  Part="1" 
F 0 "C14" H 8715 2596 50  0000 L CNN
F 1 "0.1uF" H 8715 2505 50  0000 L CNN
F 2 "Capacitor_SMD:C_0805_2012Metric" H 8638 2400 50  0001 C CNN
F 3 "~" H 8600 2550 50  0001 C CNN
	1    8600 2550
	0    -1   -1   0   
$EndComp
Wire Wire Line
	7950 2650 8150 2650
Text Label 8150 2650 0    50   ~ 0
GND
Text Label 8150 2350 0    50   ~ 0
VCCA
Text Label 8150 2550 0    50   ~ 0
VDD
Wire Wire Line
	7950 4650 8150 4650
Wire Wire Line
	7950 4750 8550 4750
Wire Wire Line
	8850 4850 8850 4750
Wire Wire Line
	7950 4850 8850 4850
Text Label 3800 4950 0    50   ~ 0
VCCD
Text Label 8150 4750 0    50   ~ 0
GND
Text Label 8150 4850 0    50   ~ 0
VDD
Wire Wire Line
	2950 2550 3450 2550
Wire Wire Line
	4450 2050 4250 2050
Wire Wire Line
	4250 2050 4250 2250
$Comp
L Device:C C?
U 1 1 604159F4
P 8750 3550
AR Path="/604159F4" Ref="C?"  Part="1" 
AR Path="/5E13E7DE/604159F4" Ref="C16"  Part="1" 
F 0 "C16" H 8865 3596 50  0000 L CNN
F 1 "0.1uF" H 8865 3505 50  0000 L CNN
F 2 "Capacitor_SMD:C_0805_2012Metric" H 8788 3400 50  0001 C CNN
F 3 "~" H 8750 3550 50  0001 C CNN
	1    8750 3550
	0    1    1    0   
$EndComp
Wire Wire Line
	7950 3550 8600 3550
Wire Wire Line
	8900 3550 9000 3550
Text Label 9000 3550 0    50   ~ 0
GND
Wire Wire Line
	3500 2750 4450 2750
Wire Wire Line
	3500 2850 4450 2850
Text Label 8150 3550 0    50   ~ 0
VDD
Text Label 4000 4050 0    50   ~ 0
LRCK4
Text Label 4000 4150 0    50   ~ 0
SDATA4
Text Label 4000 4250 0    50   ~ 0
SCLK4
Text Label 4000 3850 0    50   ~ 0
RST4
Wire Wire Line
	4450 3850 4000 3850
Wire Wire Line
	4450 4250 4000 4250
Wire Wire Line
	4450 4150 4000 4150
Wire Wire Line
	4000 4050 4450 4050
Wire Wire Line
	4450 4350 4000 4350
Text Label 4000 3750 0    50   ~ 0
CSIDENT4
Wire Wire Line
	4450 3750 4000 3750
Wire Wire Line
	3800 1350 4450 1350
NoConn ~ 4450 2650
Text HLabel 8550 3650 2    50   Input ~ 0
VOLUME
Wire Wire Line
	3100 1350 3150 1350
Text Label 3150 1350 0    50   ~ 0
GND
Text Label 3000 2100 0    50   ~ 0
VDD
Wire Wire Line
	3100 1650 3150 1650
NoConn ~ 4450 3550
NoConn ~ 4450 5550
$Comp
L Device:LED D2
U 1 1 6064CF22
P 2000 5650
F 0 "D2" V 2039 5532 50  0000 R CNN
F 1 "LED" V 1948 5532 50  0000 R CNN
F 2 "LED_SMD:LED_0805_2012Metric" H 2000 5650 50  0001 C CNN
F 3 "~" H 2000 5650 50  0001 C CNN
	1    2000 5650
	0    -1   -1   0   
$EndComp
$Comp
L Device:R R10
U 1 1 6064DA86
P 2000 5300
F 0 "R10" H 2070 5346 50  0000 L CNN
F 1 "3K" H 2070 5255 50  0000 L CNN
F 2 "Resistor_SMD:R_0805_2012Metric" V 1930 5300 50  0001 C CNN
F 3 "~" H 2000 5300 50  0001 C CNN
	1    2000 5300
	1    0    0    -1  
$EndComp
Wire Wire Line
	2000 5450 2000 5500
Wire Wire Line
	2000 5150 2000 5050
Text Label 2000 5050 0    50   ~ 0
VDD
Wire Wire Line
	8550 3650 7950 3650
Wire Wire Line
	8550 5750 7950 5750
Wire Wire Line
	8550 5850 7950 5850
Wire Wire Line
	8550 5950 7950 5950
Wire Wire Line
	4450 5450 4150 5450
Text Label 4150 5450 0    50   ~ 0
LED
Text Label 2000 5950 0    50   ~ 0
LED
Wire Wire Line
	2000 5800 2000 5950
Wire Wire Line
	3100 1550 3250 1550
Wire Wire Line
	3100 1450 3550 1450
$Comp
L Device:R R11
U 1 1 60410FCB
P 3250 1900
F 0 "R11" H 3320 1946 50  0000 L CNN
F 1 "10K" H 3320 1855 50  0000 L CNN
F 2 "Resistor_SMD:R_0805_2012Metric" V 3180 1900 50  0001 C CNN
F 3 "~" H 3250 1900 50  0001 C CNN
	1    3250 1900
	1    0    0    -1  
$EndComp
$Comp
L Device:R R12
U 1 1 6041008A
P 3550 1900
F 0 "R12" H 3620 1946 50  0000 L CNN
F 1 "10K" H 3620 1855 50  0000 L CNN
F 2 "Resistor_SMD:R_0805_2012Metric" V 3480 1900 50  0001 C CNN
F 3 "~" H 3550 1900 50  0001 C CNN
	1    3550 1900
	1    0    0    -1  
$EndComp
$Comp
L Connector:Conn_01x04_Male J9
U 1 1 60492F88
P 2900 1450
F 0 "J9" H 3008 1731 50  0000 C CNN
F 1 "Conn_01x04_Male" H 3008 1640 50  0000 C CNN
F 2 "Connector_PinHeader_2.54mm:PinHeader_1x04_P2.54mm_Vertical" H 2900 1450 50  0001 C CNN
F 3 "~" H 2900 1450 50  0001 C CNN
	1    2900 1450
	1    0    0    -1  
$EndComp
Wire Wire Line
	3550 2050 3550 2100
Wire Wire Line
	3550 2100 3250 2100
Wire Wire Line
	3250 2100 3250 2050
Connection ~ 3250 2100
Wire Wire Line
	3250 2100 3150 2100
Wire Wire Line
	3150 1650 3150 2100
Connection ~ 3150 2100
Wire Wire Line
	3150 2100 3000 2100
Wire Wire Line
	3550 1750 3550 1450
Connection ~ 3550 1450
Wire Wire Line
	3550 1450 4450 1450
Wire Wire Line
	3250 1750 3250 1550
Connection ~ 3250 1550
Wire Wire Line
	3250 1550 4450 1550
$Comp
L Connector:Conn_01x12_Female J14
U 1 1 60AB4860
P 9300 2000
F 0 "J14" H 9192 1175 50  0000 C CNN
F 1 "Conn_01x12_Female" H 9192 1266 50  0000 C CNN
F 2 "lib:ConnectorMicromatch-12" H 9300 2000 50  0001 C CNN
F 3 "~" H 9300 2000 50  0001 C CNN
	1    9300 2000
	-1   0    0    1   
$EndComp
$Comp
L Connector:Conn_01x12_Female J15
U 1 1 60AB643C
P 9300 3800
F 0 "J15" H 9192 2975 50  0000 C CNN
F 1 "Conn_01x12_Female" H 9192 3066 50  0000 C CNN
F 2 "lib:ConnectorMicromatch-12" H 9300 3800 50  0001 C CNN
F 3 "~" H 9300 3800 50  0001 C CNN
	1    9300 3800
	-1   0    0    1   
$EndComp
$Comp
L Connector:Conn_01x12_Female J16
U 1 1 60AB8449
P 9300 5600
F 0 "J16" H 9192 4775 50  0000 C CNN
F 1 "Conn_01x12_Female" H 9192 4866 50  0000 C CNN
F 2 "lib:ConnectorMicromatch-12" H 9300 5600 50  0001 C CNN
F 3 "~" H 9300 5600 50  0001 C CNN
	1    9300 5600
	-1   0    0    1   
$EndComp
$Comp
L Connector:Conn_01x12_Female J2
U 1 1 60ABB27A
P 800 4500
F 0 "J2" H 692 3675 50  0000 C CNN
F 1 "Conn_01x12_Female" H 692 3766 50  0000 C CNN
F 2 "lib:ConnectorMicromatch-12" H 800 4500 50  0001 C CNN
F 3 "~" H 800 4500 50  0001 C CNN
	1    800  4500
	-1   0    0    1   
$EndComp
$Comp
L Connector:Conn_01x12_Female J1
U 1 1 60ABF27B
P 800 2600
F 0 "J1" H 692 1775 50  0000 C CNN
F 1 "Conn_01x12_Female" H 692 1866 50  0000 C CNN
F 2 "lib:ConnectorMicromatch-12" H 800 2600 50  0001 C CNN
F 3 "~" H 800 2600 50  0001 C CNN
	1    800  2600
	-1   0    0    1   
$EndComp
Text Label 4150 7000 0    50   ~ 0
SPDIFOUT
Text Label 4150 7100 0    50   ~ 0
VDD
Wire Wire Line
	3950 7000 4150 7000
Text Label 4150 7200 0    50   ~ 0
GND
Wire Wire Line
	3950 7200 4150 7200
Wire Wire Line
	3950 7100 4150 7100
$Comp
L tosLinkIO:ToslinkOut U3
U 1 1 60C2B0DE
P 3850 6950
F 0 "U3" H 3919 6785 50  0000 C CNN
F 1 "ToslinkOut" H 3919 6876 50  0000 C CNN
F 2 "lib:FCR684205R" H 3850 6950 50  0001 C CNN
F 3 "" H 3850 6950 50  0001 C CNN
	1    3850 6950
	-1   0    0    1   
$EndComp
Text Label 3800 1350 0    50   ~ 0
CSTOSLNK
$Comp
L CY8C5888AXI-LP096:CY8C5888AXI-LP096 IC1
U 1 1 60552B75
P 4450 1150
F 0 "IC1" H 6200 1415 50  0000 C CNN
F 1 "CY8C5888AXI-LP096" H 6200 1324 50  0000 C CNN
F 2 "lib:TQFP50P1600X1600X160-100N" H 8550 1250 50  0001 L CNN
F 3 "http://uk.rs-online.com/web/p/products/1885380" H 8550 1150 50  0001 L CNN
F 4 "CY8C58LP Family" H 8550 1000 50  0001 L CNN "Description"
F 5 "1885380" H 8550 850 50  0001 L CNN "RS Part Number"
F 6 "http://uk.rs-online.com/web/p/products/1885380" H 8550 750 50  0001 L CNN "RS Price/Stock"
F 7 "Cypress Semiconductor" H 8550 650 50  0001 L CNN "Manufacturer_Name"
F 8 "CY8C5888AXI-LP096" H 8550 550 50  0001 L CNN "Manufacturer_Part_Number"
F 9 "2630758" H 4450 1150 50  0001 C CNN "Ref Farnell"
F 10 "15,25" H 4450 1150 50  0001 C CNN "Price"
	1    4450 1150
	1    0    0    -1  
$EndComp
Text Label 8150 4650 0    50   ~ 0
VCCD
NoConn ~ 4450 5750
NoConn ~ 4450 5850
NoConn ~ 4450 5950
NoConn ~ 4450 5650
Wire Wire Line
	9500 1600 9800 1600
Text Label 10350 2100 0    50   ~ 0
GND
Text Label 10350 3900 0    50   ~ 0
GND
Wire Wire Line
	9500 3400 9800 3400
Text Label 9800 2000 0    50   ~ 0
CSDAC1
Wire Wire Line
	9500 2000 9800 2000
Text Label 10350 5700 0    50   ~ 0
GND
Wire Wire Line
	9500 5200 9800 5200
Text Label 2000 4600 0    50   ~ 0
GND
Wire Wire Line
	1000 4100 1300 4100
Text Label 2100 2700 0    50   ~ 0
GND
Text Label 1300 2200 0    50   ~ 0
GND
Wire Wire Line
	1000 2200 1300 2200
Text Notes 2750 1100 0    50   ~ 0
OLED display
Text Notes 750  1700 0    50   ~ 0
Toslink in connector
Text Notes 750  1400 0    50   ~ 0
SWD programming\n
Wire Wire Line
	9500 3700 9800 3700
Text Label 9800 3700 0    50   ~ 0
LRCK2
Text Label 9800 3800 0    50   ~ 0
CSDAC2
Wire Wire Line
	9500 3800 9800 3800
Text Label 1550 6950 0    50   ~ 0
D+
Text Label 1550 7050 0    50   ~ 0
D-
$Comp
L Power_Protection:USBLC6-2SC6 U1
U 1 1 5ED57A3F
P 2350 7050
F 0 "U1" H 2350 7631 50  0000 C CNN
F 1 "USBLC6-2SC6" H 2350 7540 50  0000 C CNN
F 2 "Package_TO_SOT_SMD:SOT-23-6" H 2350 6550 50  0001 C CNN
F 3 "https://www.st.com/resource/en/datasheet/usblc6-2.pdf" H 2550 7400 50  0001 C CNN
F 4 "1269406" H 2350 7050 50  0001 C CNN "Ref Farnell"
F 5 "0,432" H 2350 7050 50  0001 C CNN "Price"
	1    2350 7050
	0    1    1    0   
$EndComp
Text Label 1550 6750 0    50   ~ 0
USBVBUS
Wire Wire Line
	1100 7450 1200 7450
Connection ~ 1100 7450
Text Label 1750 7050 0    50   ~ 0
GND
Wire Wire Line
	1750 7050 1950 7050
Text Label 3000 7050 0    50   ~ 0
USBVBUS
Wire Wire Line
	2750 7050 3000 7050
Text Label 2100 6600 0    50   ~ 0
D-
Text Label 2100 7500 0    50   ~ 0
D+
Wire Wire Line
	2250 6600 2250 6650
Wire Wire Line
	2100 6600 2250 6600
Wire Wire Line
	2450 6650 2450 6600
Wire Wire Line
	2450 6600 2550 6600
Wire Wire Line
	2450 7450 2450 7500
Wire Wire Line
	2450 7500 2550 7500
Wire Wire Line
	2100 7500 2250 7500
Wire Wire Line
	2250 7500 2250 7450
Text Label 9800 2300 0    50   ~ 0
CCLK
Wire Wire Line
	9800 2300 9500 2300
Text Label 1300 2700 0    50   ~ 0
TOSLRESET
Wire Wire Line
	1000 2700 1300 2700
Text Label 3800 1250 0    50   ~ 0
TOSLRESET
Text Label 1300 2800 0    50   ~ 0
CSIDENTOS
Text Label 8250 5050 0    50   ~ 0
CSIDENT3
Wire Wire Line
	7950 5050 8250 5050
Text Label 8250 5250 0    50   ~ 0
CSDAC3
Text Label 8250 5150 0    50   ~ 0
D3RST
Wire Wire Line
	7950 5150 8250 5150
Wire Wire Line
	7950 5250 8250 5250
NoConn ~ 4450 4450
Text Label 3750 5150 0    50   ~ 0
CLK+
Text Label 3750 5450 0    50   ~ 0
CLK-
$EndSCHEMATC
