EESchema Schematic File Version 4
EELAYER 30 0
EELAYER END
$Descr A4 11693 8268
encoding utf-8
Sheet 2 6
Title ""
Date ""
Rev ""
Comp ""
Comment1 ""
Comment2 ""
Comment3 ""
Comment4 ""
$EndDescr
$Comp
L Device:C C6
U 1 1 5ECF066A
P 4050 1900
F 0 "C6" H 4165 1946 50  0000 L CNN
F 1 "0.1uF" H 4165 1855 50  0000 L CNN
F 2 "Capacitor_SMD:C_0805_2012Metric_Pad1.15x1.40mm_HandSolder" H 4088 1750 50  0001 C CNN
F 3 "~" H 4050 1900 50  0001 C CNN
	1    4050 1900
	1    0    0    -1  
$EndComp
$Comp
L Device:C C10
U 1 1 5ECF0671
P 4400 2300
F 0 "C10" H 4515 2346 50  0000 L CNN
F 1 "0.1uF" H 4515 2255 50  0000 L CNN
F 2 "Capacitor_SMD:C_0805_2012Metric_Pad1.15x1.40mm_HandSolder" H 4438 2150 50  0001 C CNN
F 3 "~" H 4400 2300 50  0001 C CNN
	1    4400 2300
	0    1    1    0   
$EndComp
Wire Wire Line
	3700 2000 3900 2000
Wire Wire Line
	3700 2100 4050 2100
Wire Wire Line
	4050 2100 4050 2050
Wire Wire Line
	3900 2000 3900 1600
Wire Wire Line
	3900 1600 4050 1600
Wire Wire Line
	4050 1750 4050 1600
Connection ~ 4050 1600
Wire Wire Line
	4550 2300 4600 2300
Wire Wire Line
	4050 1600 4300 1600
Wire Wire Line
	4050 2100 4300 2100
Connection ~ 4050 2100
Text Label 9650 4800 0    50   ~ 0
3.3V
Text Label 4300 2100 0    50   ~ 0
GND
Text Label 4650 2300 0    50   ~ 0
TOSLINK1
$Comp
L Device:C C15
U 1 1 5ECF0686
P 5150 2200
F 0 "C15" H 5265 2246 50  0000 L CNN
F 1 "0.1uF" H 5265 2155 50  0000 L CNN
F 2 "Capacitor_SMD:C_0805_2012Metric_Pad1.15x1.40mm_HandSolder" H 5188 2050 50  0001 C CNN
F 3 "~" H 5150 2200 50  0001 C CNN
	1    5150 2200
	0    1    1    0   
$EndComp
Wire Wire Line
	5300 2200 5350 2200
Text Label 5400 2200 0    50   ~ 0
TOSLINK2
Wire Wire Line
	5300 3450 4900 3450
Wire Wire Line
	5300 3350 4900 3350
Text Label 4900 3350 0    50   ~ 0
TOSLINK2
Text Label 4900 3450 0    50   ~ 0
TOSLINK1
Wire Wire Line
	5300 3250 4900 3250
Wire Wire Line
	4900 3250 4900 3150
Wire Wire Line
	4900 3150 5300 3150
Wire Wire Line
	4900 3150 4700 3150
Connection ~ 4900 3150
Text Label 4700 3150 0    50   ~ 0
AGND
$Comp
L Device:C C11
U 1 1 5ECF0699
P 4550 3200
F 0 "C11" H 4665 3246 50  0000 L CNN
F 1 "0.1uF" H 4665 3155 50  0000 L CNN
F 2 "Capacitor_SMD:C_0805_2012Metric_Pad1.15x1.40mm_HandSolder" H 4588 3050 50  0001 C CNN
F 3 "~" H 4550 3200 50  0001 C CNN
	1    4550 3200
	-1   0    0    1   
$EndComp
$Comp
L Device:C C4
U 1 1 5ECF06A0
P 3800 3900
F 0 "C4" H 3915 3946 50  0000 L CNN
F 1 "0.1uF" H 3915 3855 50  0000 L CNN
F 2 "Capacitor_SMD:C_0805_2012Metric_Pad1.15x1.40mm_HandSolder" H 3838 3750 50  0001 C CNN
F 3 "~" H 3800 3900 50  0001 C CNN
	1    3800 3900
	-1   0    0    1   
$EndComp
$Comp
L Device:C C2
U 1 1 5ECF06A7
P 3550 3900
F 0 "C2" H 3665 3946 50  0000 L CNN
F 1 "0.1uF" H 3665 3855 50  0000 L CNN
F 2 "Capacitor_SMD:C_0805_2012Metric_Pad1.15x1.40mm_HandSolder" H 3588 3750 50  0001 C CNN
F 3 "~" H 3550 3900 50  0001 C CNN
	1    3550 3900
	-1   0    0    1   
$EndComp
$Comp
L Device:CP1 C9
U 1 1 5ECF06AE
P 4300 3900
F 0 "C9" H 4415 3946 50  0000 L CNN
F 1 "10uF15V" H 4415 3855 50  0000 L CNN
F 2 "Capacitor_SMD:CP_Elec_4x5.7" H 4300 3900 50  0001 C CNN
F 3 "~" H 4300 3900 50  0001 C CNN
	1    4300 3900
	1    0    0    -1  
$EndComp
$Comp
L Device:CP1 C7
U 1 1 5ECF06B5
P 4050 3900
F 0 "C7" H 4165 3946 50  0000 L CNN
F 1 "10uF15V" H 4165 3855 50  0000 L CNN
F 2 "Capacitor_SMD:CP_Elec_4x5.7" H 4050 3900 50  0001 C CNN
F 3 "~" H 4050 3900 50  0001 C CNN
	1    4050 3900
	1    0    0    -1  
$EndComp
$Comp
L Device:CP1 C22
U 1 1 5ECF06BC
P 8250 4350
F 0 "C22" H 8365 4396 50  0000 L CNN
F 1 "0.1uF" H 8365 4305 50  0000 L CNN
F 2 "Capacitor_SMD:C_0805_2012Metric_Pad1.15x1.40mm_HandSolder" H 8250 4350 50  0001 C CNN
F 3 "~" H 8250 4350 50  0001 C CNN
	1    8250 4350
	1    0    0    -1  
$EndComp
$Comp
L Device:CP1 C16
U 1 1 5ECF06C3
P 7800 4350
F 0 "C16" H 7915 4396 50  0000 L CNN
F 1 "0.1uF" H 7915 4305 50  0000 L CNN
F 2 "Capacitor_SMD:C_0805_2012Metric_Pad1.15x1.40mm_HandSolder" H 7800 4350 50  0001 C CNN
F 3 "~" H 7800 4350 50  0001 C CNN
	1    7800 4350
	1    0    0    -1  
$EndComp
$Comp
L Device:R R21
U 1 1 5ECF06D1
P 8500 3650
F 0 "R21" H 8570 3696 50  0000 L CNN
F 1 "47K" H 8570 3605 50  0000 L CNN
F 2 "Resistor_SMD:R_0805_2012Metric_Pad1.15x1.40mm_HandSolder" V 8430 3650 50  0001 C CNN
F 3 "~" H 8500 3650 50  0001 C CNN
	1    8500 3650
	1    0    0    -1  
$EndComp
$Comp
L Device:R R1
U 1 1 5ECF06D8
P 4550 4600
F 0 "R1" H 4620 4646 50  0000 L CNN
F 1 "3K" H 4620 4555 50  0000 L CNN
F 2 "Resistor_SMD:R_0805_2012Metric_Pad1.15x1.40mm_HandSolder" V 4480 4600 50  0001 C CNN
F 3 "~" H 4550 4600 50  0001 C CNN
	1    4550 4600
	1    0    0    -1  
$EndComp
$Comp
L Device:R R?
U 1 1 5ECF06DF
P 7450 4400
AR Path="/5CB11927" Ref="R?"  Part="1" 
AR Path="/5ECF06DF" Ref="R?"  Part="1" 
AR Path="/5ECEFDC1/5ECF06DF" Ref="R12"  Part="1" 
F 0 "R12" H 7520 4446 50  0000 L CNN
F 1 "47K" H 7520 4355 50  0000 L CNN
F 2 "Resistor_SMD:R_0805_2012Metric_Pad1.15x1.40mm_HandSolder" V 7380 4400 50  0001 C CNN
F 3 "~" H 7450 4400 50  0001 C CNN
	1    7450 4400
	1    0    0    -1  
$EndComp
Wire Wire Line
	5300 3550 4550 3550
Wire Wire Line
	4550 3550 4550 3350
Wire Wire Line
	4550 3050 4550 2950
Wire Wire Line
	4550 2950 4650 2950
Text Label 4650 2950 0    50   ~ 0
GND
Wire Wire Line
	5300 3650 4300 3650
Wire Wire Line
	3550 3650 3550 3750
Wire Wire Line
	3800 3750 3800 3650
Connection ~ 3800 3650
Wire Wire Line
	3800 3650 3550 3650
Wire Wire Line
	4050 3750 4050 3650
Connection ~ 4050 3650
Wire Wire Line
	4050 3650 3800 3650
Wire Wire Line
	4300 3750 4300 3650
Connection ~ 4300 3650
Wire Wire Line
	4300 3650 4050 3650
Text Label 3300 3650 0    50   ~ 0
3.3V
Wire Wire Line
	3300 3650 3550 3650
Wire Wire Line
	5300 3750 4450 3750
Wire Wire Line
	4450 3750 4450 4150
Wire Wire Line
	4450 4150 4300 4150
Wire Wire Line
	3550 4150 3550 4050
Wire Wire Line
	3800 4050 3800 4150
Connection ~ 3800 4150
Wire Wire Line
	3800 4150 3550 4150
Wire Wire Line
	4050 4050 4050 4150
Connection ~ 4050 4150
Wire Wire Line
	4050 4150 3800 4150
Wire Wire Line
	4300 4050 4300 4150
Connection ~ 4300 4150
Wire Wire Line
	4300 4150 4050 4150
Wire Wire Line
	5300 4050 5100 4050
Wire Wire Line
	5100 4050 5100 4150
Wire Wire Line
	5100 4350 5300 4350
Wire Wire Line
	5300 4250 5100 4250
Connection ~ 5100 4250
Wire Wire Line
	5100 4250 5100 4350
Wire Wire Line
	5100 4150 5300 4150
Connection ~ 5100 4150
Wire Wire Line
	5100 4150 5100 4250
Text Label 5100 4050 0    50   ~ 0
AGND
Wire Wire Line
	5300 3950 4850 3950
Wire Wire Line
	5300 3850 4550 3850
Wire Wire Line
	4550 3850 4550 4400
Text Label 4850 3950 0    50   ~ 0
RST
Text Label 5200 4950 0    50   ~ 0
GND
Text Label 7150 4250 0    50   ~ 0
SDA
Text Label 7150 4350 0    50   ~ 0
SCL
Wire Wire Line
	6800 4150 7450 4150
Wire Wire Line
	7450 4150 7450 4250
Wire Wire Line
	7450 4600 7450 4550
Text Label 8400 4600 0    50   ~ 0
GND
Wire Wire Line
	7800 4600 7800 4500
Wire Wire Line
	7450 4600 7800 4600
Connection ~ 7800 4600
Wire Wire Line
	6800 3850 7800 3850
Wire Wire Line
	7800 3850 7800 4200
Wire Wire Line
	7800 4600 8250 4600
Wire Wire Line
	8250 4500 8250 4600
Connection ~ 8250 4600
Wire Wire Line
	8250 4600 8400 4600
Wire Wire Line
	6800 3650 8250 3650
Wire Wire Line
	8250 3650 8250 3850
Wire Wire Line
	6800 3750 7150 3750
Text Label 7150 3750 0    50   ~ 0
GND
Wire Wire Line
	6800 3950 7150 3950
NoConn ~ 6800 4050
Text Label 7150 3950 0    50   ~ 0
INT0
Wire Wire Line
	6800 3450 7300 3450
Wire Wire Line
	6800 3550 7300 3550
Text Label 8100 3650 0    50   ~ 0
3.3V
Wire Wire Line
	7800 3850 8250 3850
Wire Wire Line
	8500 3850 8500 3800
Connection ~ 7800 3850
Wire Wire Line
	8500 3350 8500 3500
$Comp
L Device:C C8
U 1 1 5ECF0735
P 4100 4850
F 0 "C8" H 4215 4896 50  0000 L CNN
F 1 "1nF" H 4215 4805 50  0000 L CNN
F 2 "Capacitor_SMD:C_0805_2012Metric_Pad1.15x1.40mm_HandSolder" H 4138 4700 50  0001 C CNN
F 3 "~" H 4100 4850 50  0001 C CNN
	1    4100 4850
	-1   0    0    1   
$EndComp
$Comp
L Device:C C12
U 1 1 5ECF073C
P 4550 5000
F 0 "C12" H 4665 5046 50  0000 L CNN
F 1 "22nF" H 4665 4955 50  0000 L CNN
F 2 "Capacitor_SMD:C_0805_2012Metric_Pad1.15x1.40mm_HandSolder" H 4588 4850 50  0001 C CNN
F 3 "~" H 4550 5000 50  0001 C CNN
	1    4550 5000
	-1   0    0    1   
$EndComp
Connection ~ 8250 3850
Wire Wire Line
	8250 3850 8250 4200
Wire Wire Line
	8250 3850 8500 3850
$Comp
L Device:R R?
U 1 1 5ECF0746
P 5100 4650
AR Path="/5CB11927" Ref="R?"  Part="1" 
AR Path="/5ECF0746" Ref="R?"  Part="1" 
AR Path="/5ECEFDC1/5ECF0746" Ref="R2"  Part="1" 
F 0 "R2" H 5170 4696 50  0000 L CNN
F 1 "47K" H 5170 4605 50  0000 L CNN
F 2 "Resistor_SMD:R_0805_2012Metric_Pad1.15x1.40mm_HandSolder" V 5030 4650 50  0001 C CNN
F 3 "~" H 5100 4650 50  0001 C CNN
	1    5100 4650
	1    0    0    -1  
$EndComp
Wire Wire Line
	5100 4800 5100 4950
Wire Wire Line
	5100 4950 5200 4950
Wire Wire Line
	5100 4450 5100 4500
Wire Wire Line
	5100 4450 5300 4450
Wire Wire Line
	4550 4750 4550 4850
Wire Wire Line
	4550 4400 4100 4400
Wire Wire Line
	4100 4400 4100 4700
Connection ~ 4550 4400
Wire Wire Line
	4550 4400 4550 4450
Wire Wire Line
	4550 5150 4100 5150
Wire Wire Line
	3550 5150 3550 4150
Connection ~ 3550 4150
Wire Wire Line
	4100 5000 4100 5150
Connection ~ 4100 5150
Wire Wire Line
	4100 5150 3550 5150
Text Label 3700 5150 0    50   ~ 0
AGND
Text Label 7050 3150 0    50   ~ 0
LRCK
Text Label 7050 3250 0    50   ~ 0
SCLK
Text Label 7050 3350 0    50   ~ 0
SDATA
Text Label 7300 3450 0    50   ~ 0
EXT_OMCK
Text Label 7300 3550 0    50   ~ 0
MCLK
Wire Wire Line
	6800 3350 8500 3350
$Comp
L Connector:TestPoint TP2
U 1 1 5ECF0763
P 5350 2300
F 0 "TP2" H 5292 2327 50  0000 R CNN
F 1 "TOSLNK2" H 5292 2418 50  0000 R CNN
F 2 "TestPoint:TestPoint_Pad_D2.0mm" H 5550 2300 50  0001 C CNN
F 3 "~" H 5550 2300 50  0001 C CNN
	1    5350 2300
	-1   0    0    1   
$EndComp
$Comp
L Connector:TestPoint TP1
U 1 1 5ECF076A
P 4600 2400
F 0 "TP1" H 4542 2427 50  0000 R CNN
F 1 "TOSLNK1" H 4542 2518 50  0000 R CNN
F 2 "TestPoint:TestPoint_Pad_D2.0mm" H 4800 2400 50  0001 C CNN
F 3 "~" H 4800 2400 50  0001 C CNN
	1    4600 2400
	-1   0    0    1   
$EndComp
Wire Wire Line
	5350 2200 5350 2300
Connection ~ 5350 2200
Wire Wire Line
	5350 2200 5400 2200
Wire Wire Line
	4600 2400 4600 2300
Connection ~ 4600 2300
Wire Wire Line
	4600 2300 4650 2300
Text Label 3900 2500 0    50   ~ 0
SPDIFOUT
$Comp
L digitalboard-rescue:CS8416uC-cs8416 U2
U 1 1 5ECF0778
P 5850 4600
F 0 "U2" H 6050 6297 60  0000 C CNN
F 1 "CS8416uC" H 6050 6191 60  0000 C CNN
F 2 "Package_SO:SOIC-28W_7.5x17.9mm_P1.27mm" H 5850 4600 50  0001 C CNN
F 3 "" H 5850 4600 50  0001 C CNN
	1    5850 4600
	1    0    0    -1  
$EndComp
$Comp
L Device:R R16
U 1 1 5ECF077F
P 7750 2950
F 0 "R16" V 7543 2950 50  0000 C CNN
F 1 "33R" V 7634 2950 50  0000 C CNN
F 2 "" V 7680 2950 50  0001 C CNN
F 3 "~" H 7750 2950 50  0001 C CNN
	1    7750 2950
	0    1    1    0   
$EndComp
$Comp
L Device:R R17
U 1 1 5ECF0786
P 7750 3250
F 0 "R17" V 7543 3250 50  0000 C CNN
F 1 "33R" V 7634 3250 50  0000 C CNN
F 2 "" V 7680 3250 50  0001 C CNN
F 3 "~" H 7750 3250 50  0001 C CNN
	1    7750 3250
	0    1    1    0   
$EndComp
$Comp
L Device:R R22
U 1 1 5ECF078D
P 8750 3350
F 0 "R22" V 8543 3350 50  0000 C CNN
F 1 "33R" V 8634 3350 50  0000 C CNN
F 2 "" V 8680 3350 50  0001 C CNN
F 3 "~" H 8750 3350 50  0001 C CNN
	1    8750 3350
	0    1    1    0   
$EndComp
Wire Wire Line
	6800 3250 7600 3250
Wire Wire Line
	6800 3150 7450 3150
Wire Wire Line
	7450 3150 7450 2950
Wire Wire Line
	7450 2950 7600 2950
Wire Wire Line
	7900 2950 8050 2950
Wire Wire Line
	7900 3250 8050 3250
Wire Wire Line
	8500 3350 8600 3350
Connection ~ 8500 3350
Wire Wire Line
	8900 3350 9000 3350
Text Label 8050 2950 0    50   ~ 0
LRCKPSC
Text Label 8050 3250 0    50   ~ 0
SCLKPSC
Text Label 9000 3350 0    50   ~ 0
SDATAPSC
$Comp
L Device:R R8
U 1 1 5ECF07A0
P 7150 4600
F 0 "R8" H 7220 4646 50  0000 L CNN
F 1 "47K" H 7220 4555 50  0000 L CNN
F 2 "Resistor_SMD:R_0805_2012Metric_Pad1.15x1.40mm_HandSolder" V 7080 4600 50  0001 C CNN
F 3 "~" H 7150 4600 50  0001 C CNN
	1    7150 4600
	0    -1   -1   0   
$EndComp
Wire Wire Line
	6800 4350 7150 4350
Wire Wire Line
	6800 4250 7150 4250
Wire Wire Line
	7300 4600 7450 4600
Connection ~ 7450 4600
Wire Wire Line
	7000 4600 6900 4600
Wire Wire Line
	6900 4600 6900 4450
Wire Wire Line
	6900 4450 6800 4450
$Comp
L Connector:Conn_01x06_Female J8
U 1 1 5ECF07AE
P 3500 2300
F 0 "J8" H 3394 1775 50  0000 C CNN
F 1 "Conn_01x06_Female" H 3394 1866 50  0000 C CNN
F 2 "" H 3500 2300 50  0001 C CNN
F 3 "~" H 3500 2300 50  0001 C CNN
	1    3500 2300
	-1   0    0    1   
$EndComp
Wire Wire Line
	3700 2400 4050 2400
Wire Wire Line
	4050 2400 4050 2100
Wire Wire Line
	3700 2500 3900 2500
Wire Wire Line
	3700 2200 5000 2200
Wire Wire Line
	3700 2300 4250 2300
Text HLabel 10000 3400 2    50   Input ~ 0
SDATA
Text HLabel 10000 3250 2    50   Input ~ 0
LRCK
Text HLabel 10000 3100 2    50   Input ~ 0
SCLK
Text HLabel 10000 3550 2    50   Input ~ 0
EXT_OMCK
Text HLabel 10000 3700 2    50   Input ~ 0
MCLK
Text HLabel 10000 4250 2    50   Input ~ 0
SDA
Text HLabel 10000 4400 2    50   Input ~ 0
SCL
Text Label 9600 3250 0    50   ~ 0
LRCKPSC
Text Label 9600 3100 0    50   ~ 0
SCLKPSC
Text Label 9600 3400 0    50   ~ 0
SDATAPSC
Text Label 9600 3550 0    50   ~ 0
EXT_OMCK
Text Label 7300 3450 0    50   ~ 0
EXT_OMCK
Text Label 7300 3550 0    50   ~ 0
MCLK
Text Label 9600 3700 0    50   ~ 0
MCLK
Text Label 9600 4250 0    50   ~ 0
SDA
Text Label 9600 4400 0    50   ~ 0
SCL
Wire Wire Line
	9600 3100 10000 3100
Wire Wire Line
	9600 3250 10000 3250
Wire Wire Line
	9600 3400 10000 3400
Wire Wire Line
	9600 3550 10000 3550
Wire Wire Line
	9600 3700 10000 3700
Wire Wire Line
	9600 4250 10000 4250
Wire Wire Line
	9600 4400 10000 4400
Text HLabel 10050 4950 2    50   Input ~ 0
GND
Text HLabel 10050 4800 2    50   Input ~ 0
3.3V
Wire Wire Line
	9650 4800 10050 4800
Wire Wire Line
	9650 4950 10050 4950
Text Label 9650 4950 0    50   ~ 0
GND
Text HLabel 10000 3850 2    50   Input ~ 0
INT0
Wire Wire Line
	10000 3850 9600 3850
Text Label 9600 3850 0    50   ~ 0
INT0
Text HLabel 10000 4000 2    50   Input ~ 0
RESET
Wire Wire Line
	10000 4000 9600 4000
Text Label 9600 4000 0    50   ~ 0
RST
Text Label 4300 1600 0    50   ~ 0
3.3V
Text Label 9600 2750 0    50   ~ 0
SPDIFOUT
Text HLabel 10000 2750 2    50   Input ~ 0
SPDIFOUT
Wire Wire Line
	9600 2750 10000 2750
Connection ~ 3550 3650
$EndSCHEMATC
