EESchema Schematic File Version 4
EELAYER 30 0
EELAYER END
$Descr A4 11693 8268
encoding utf-8
Sheet 2 3
Title ""
Date ""
Rev ""
Comp ""
Comment1 ""
Comment2 ""
Comment3 ""
Comment4 ""
$EndDescr
$Comp
L Connector:Conn_01x02_Female J18
U 1 1 5E1F4948
P 3150 3700
F 0 "J18" H 3044 3375 50  0000 C CNN
F 1 "PWRIN GND 12V" H 3044 3466 50  0000 C CNN
F 2 "Connector_Phoenix_MC:PhoenixContact_MCV_1,5_2-GF-3.81_1x02_P3.81mm_Vertical_ThreadedFlange" H 3150 3700 50  0001 C CNN
F 3 "~" H 3150 3700 50  0001 C CNN
	1    3150 3700
	-1   0    0    1   
$EndComp
Text Label 4150 4150 0    50   ~ 0
GND
Text Label 4050 3600 0    50   ~ 0
12V
$Comp
L power:PWR_FLAG #FLG0103
U 1 1 5E1F499C
P 4400 3450
F 0 "#FLG0103" H 4400 3525 50  0001 C CNN
F 1 "PWR_FLAG" H 4400 3624 50  0000 C CNN
F 2 "" H 4400 3450 50  0001 C CNN
F 3 "~" H 4400 3450 50  0001 C CNN
	1    4400 3450
	1    0    0    -1  
$EndComp
Text HLabel 10150 4150 2    50   Input ~ 0
GND
Text Notes 6150 3250 0    50   ~ 0
Step Down DC DC Converter
$Comp
L Device:Polyfuse F1
U 1 1 5FA74DE4
P 3800 3600
F 0 "F1" V 3575 3600 50  0000 C CNN
F 1 "Polyfuse" V 3666 3600 50  0000 C CNN
F 2 "Fuse:Fuse_1206_3216Metric" H 3850 3400 50  0001 L CNN
F 3 "~" H 3800 3600 50  0001 C CNN
	1    3800 3600
	0    1    1    0   
$EndComp
Wire Wire Line
	3350 3600 3650 3600
$Comp
L Device:C C3
U 1 1 603DF12E
P 4400 3900
F 0 "C3" H 4515 3946 50  0000 L CNN
F 1 "10µF" H 4515 3855 50  0000 L CNN
F 2 "Capacitor_SMD:C_1206_3216Metric_Pad1.33x1.80mm_HandSolder" H 4438 3750 50  0001 C CNN
F 3 "~" H 4400 3900 50  0001 C CNN
F 4 "1867958" H 4400 3900 50  0001 C CNN "Ref Farnell"
	1    4400 3900
	1    0    0    -1  
$EndComp
Wire Wire Line
	4400 4150 4400 4050
Wire Wire Line
	4400 3600 4400 3750
Wire Wire Line
	3350 3700 3550 3700
Wire Wire Line
	3550 3700 3550 4150
Wire Wire Line
	3550 4150 4400 4150
Connection ~ 4400 3600
Wire Wire Line
	3950 3600 4400 3600
Wire Wire Line
	4400 3600 4400 3450
Text HLabel 10150 3600 2    50   Input ~ 0
3.3V
Wire Wire Line
	9100 3500 9100 3600
$Comp
L Connector:TestPoint TP4
U 1 1 5E1F49A9
P 9100 3500
F 0 "TP4" H 9158 3620 50  0000 L CNN
F 1 "3V3" H 9158 3529 50  0000 L CNN
F 2 "TestPoint:TestPoint_Pad_D2.0mm" H 9300 3500 50  0001 C CNN
F 3 "~" H 9300 3500 50  0001 C CNN
	1    9100 3500
	1    0    0    -1  
$EndComp
Text Label 9900 3600 0    50   ~ 0
3.3V
$Comp
L Device:C C18
U 1 1 604814C1
P 9750 3900
F 0 "C18" H 9865 3946 50  0000 L CNN
F 1 "0.1µF" H 9865 3855 50  0000 L CNN
F 2 "Capacitor_SMD:C_0805_2012Metric" H 9788 3750 50  0001 C CNN
F 3 "~" H 9750 3900 50  0001 C CNN
	1    9750 3900
	1    0    0    -1  
$EndComp
Wire Wire Line
	9750 3750 9750 3600
Connection ~ 9750 3600
Wire Wire Line
	9750 3600 10150 3600
Wire Wire Line
	9750 4050 9750 4150
Connection ~ 9750 4150
Wire Wire Line
	9750 4150 10150 4150
$Comp
L power:PWR_FLAG #FLG0101
U 1 1 604C4BBD
P 9750 3450
F 0 "#FLG0101" H 9750 3525 50  0001 C CNN
F 1 "PWR_FLAG" H 9750 3624 50  0000 C CNN
F 2 "" H 9750 3450 50  0001 C CNN
F 3 "~" H 9750 3450 50  0001 C CNN
	1    9750 3450
	1    0    0    -1  
$EndComp
Wire Wire Line
	9750 3600 9750 3450
$Comp
L Regulator_Switching:TPS560200 U2
U 1 1 6050F705
P 5700 3700
F 0 "U2" H 5700 4025 50  0000 C CNN
F 1 "TPS560200" H 5700 3934 50  0000 C CNN
F 2 "Package_TO_SOT_SMD:SOT-23-5" H 5750 3450 50  0001 L CNN
F 3 "http://www.ti.com/lit/ds/symlink/tps560200.pdf" H 5450 3350 50  0001 C CNN
F 4 "3121812" H 5700 3700 50  0001 C CNN "Ref Farnell"
	1    5700 3700
	1    0    0    -1  
$EndComp
Connection ~ 9100 3600
Wire Wire Line
	6000 3600 6450 3600
Wire Wire Line
	5400 3600 4900 3600
Wire Wire Line
	5700 4000 5700 4150
Wire Wire Line
	5700 4150 4900 4150
Connection ~ 4400 4150
$Comp
L Device:R R7
U 1 1 6051CD96
P 7000 3800
F 0 "R7" H 7070 3846 50  0000 L CNN
F 1 "61.9K 1%" H 7070 3755 50  0000 L CNN
F 2 "Resistor_SMD:R_0805_2012Metric" V 6930 3800 50  0001 C CNN
F 3 "~" H 7000 3800 50  0001 C CNN
F 4 "2303732" H 7000 3800 50  0001 C CNN "Ref Farnell"
	1    7000 3800
	1    0    0    -1  
$EndComp
Text Label 7000 4550 0    50   ~ 0
GND
Wire Wire Line
	7000 4350 7000 4550
$Comp
L Device:C C20
U 1 1 60523EEE
P 8350 3850
F 0 "C20" H 8465 3896 50  0000 L CNN
F 1 "10µF low ESR" H 8465 3805 50  0000 L CNN
F 2 "Capacitor_SMD:C_1206_3216Metric_Pad1.33x1.80mm_HandSolder" H 8388 3700 50  0001 C CNN
F 3 "~" H 8350 3850 50  0001 C CNN
F 4 "2528784" H 8350 3850 50  0001 C CNN "Ref Farnell"
	1    8350 3850
	1    0    0    -1  
$EndComp
Wire Wire Line
	7900 3600 7900 3700
Wire Wire Line
	7900 3600 8350 3600
Wire Wire Line
	7900 4000 7900 4150
Wire Wire Line
	8350 3600 8350 3700
Connection ~ 8350 3600
Wire Wire Line
	8350 3600 9100 3600
Wire Wire Line
	8350 4000 8350 4150
Wire Wire Line
	7900 4150 8350 4150
Wire Wire Line
	7000 3950 7000 4000
Wire Wire Line
	6200 4000 6200 3800
Wire Wire Line
	6000 3800 6200 3800
Connection ~ 7000 4000
Wire Wire Line
	7000 4000 7000 4050
Wire Wire Line
	6200 4000 7000 4000
Wire Wire Line
	6750 3600 7000 3600
Wire Wire Line
	7000 3650 7000 3600
$Comp
L Device:L_Core_Iron L1
U 1 1 6052EE3A
P 6600 3600
F 0 "L1" V 6825 3600 50  0000 C CNN
F 1 "10µH" V 6734 3600 50  0000 C CNN
F 2 "Inductor_SMD:L_Wuerth_WE-PD-Typ-7345" H 6600 3600 50  0001 C CNN
F 3 "~" H 6600 3600 50  0001 C CNN
F 4 "1635988" H 6600 3600 50  0001 C CNN "Ref Farnell"
	1    6600 3600
	0    -1   -1   0   
$EndComp
$Comp
L Device:C C19
U 1 1 60532CFF
P 4900 3900
F 0 "C19" H 5015 3946 50  0000 L CNN
F 1 "0.1µF" H 5015 3855 50  0000 L CNN
F 2 "Capacitor_SMD:C_0805_2012Metric" H 4938 3750 50  0001 C CNN
F 3 "~" H 4900 3900 50  0001 C CNN
	1    4900 3900
	1    0    0    -1  
$EndComp
Wire Wire Line
	4900 3750 4900 3600
Connection ~ 4900 3600
Wire Wire Line
	4900 3600 4400 3600
Wire Wire Line
	4900 4050 4900 4150
Connection ~ 4900 4150
Wire Wire Line
	4900 4150 4400 4150
Connection ~ 8350 4150
Wire Wire Line
	8350 4150 9750 4150
Wire Wire Line
	9100 3600 9750 3600
Wire Wire Line
	7000 3600 7900 3600
Connection ~ 7000 3600
Connection ~ 7900 3600
NoConn ~ 5400 3800
$Comp
L Device:R R8
U 1 1 6051D365
P 7000 4200
F 0 "R8" H 7070 4246 50  0000 L CNN
F 1 "20K 1%" H 7070 4155 50  0000 L CNN
F 2 "Resistor_SMD:R_0805_2012Metric" V 6930 4200 50  0001 C CNN
F 3 "~" H 7000 4200 50  0001 C CNN
F 4 "2057640" H 7000 4200 50  0001 C CNN "Ref Farnell"
	1    7000 4200
	1    0    0    -1  
$EndComp
$Comp
L Device:C C17
U 1 1 603E072A
P 7900 3850
F 0 "C17" H 8015 3896 50  0000 L CNN
F 1 "10µF" H 8015 3805 50  0000 L CNN
F 2 "Capacitor_SMD:C_1206_3216Metric_Pad1.33x1.80mm_HandSolder" H 7938 3700 50  0001 C CNN
F 3 "~" H 7900 3850 50  0001 C CNN
F 4 "2528784" H 7900 3850 50  0001 C CNN "Ref Farnell"
	1    7900 3850
	1    0    0    -1  
$EndComp
$Comp
L Device:LED D?
U 1 1 606A1715
P 9700 5300
AR Path="/5E13E7DE/606A1715" Ref="D?"  Part="1" 
AR Path="/5E1D512D/606A1715" Ref="D1"  Part="1" 
F 0 "D1" V 9739 5182 50  0000 R CNN
F 1 "LED" V 9648 5182 50  0000 R CNN
F 2 "LED_SMD:LED_0805_2012Metric" H 9700 5300 50  0001 C CNN
F 3 "~" H 9700 5300 50  0001 C CNN
	1    9700 5300
	0    -1   -1   0   
$EndComp
$Comp
L Device:R R?
U 1 1 606A171B
P 9700 4950
AR Path="/5E13E7DE/606A171B" Ref="R?"  Part="1" 
AR Path="/5E1D512D/606A171B" Ref="R9"  Part="1" 
F 0 "R9" H 9770 4996 50  0000 L CNN
F 1 "3K" H 9770 4905 50  0000 L CNN
F 2 "Resistor_SMD:R_0805_2012Metric" V 9630 4950 50  0001 C CNN
F 3 "~" H 9700 4950 50  0001 C CNN
	1    9700 4950
	1    0    0    -1  
$EndComp
Wire Wire Line
	9700 5100 9700 5150
Wire Wire Line
	9700 5450 9700 5550
Wire Wire Line
	9700 4800 9700 4700
Text Label 9700 4700 0    50   ~ 0
3.3V
Text Label 9700 5550 0    50   ~ 0
GND
$EndSCHEMATC
