EESchema Schematic File Version 4
EELAYER 30 0
EELAYER END
$Descr A4 11693 8268
encoding utf-8
Sheet 1 1
Title ""
Date ""
Rev ""
Comp ""
Comment1 ""
Comment2 ""
Comment3 ""
Comment4 ""
$EndDescr
Text Label 1800 3850 0    50   ~ 0
AUDR
Text Label 1800 3700 0    50   ~ 0
AUDL
Text Label 1850 1350 2    50   ~ 0
V+
Text Label 1850 1550 2    50   ~ 0
V-
Text Label 1850 1450 2    50   ~ 0
GNDA
Text Label 9400 3900 0    50   ~ 0
GNDA
Text Label 5700 2350 0    50   ~ 0
V+
$Comp
L Device:CP1 C3
U 1 1 5BE6BEB2
P 3400 1150
F 0 "C3" H 3515 1196 50  0000 L CNN
F 1 "2200µF50V" H 3515 1105 50  0000 L CNN
F 2 "Capacitor_THT:CP_Radial_D16.0mm_P7.50mm" H 3400 1150 50  0001 C CNN
F 3 "~" H 3400 1150 50  0001 C CNN
F 4 "2782188" H 3400 1150 50  0001 C CNN "Ref Farnell"
	1    3400 1150
	-1   0    0    -1  
$EndComp
$Comp
L Device:CP1 C4
U 1 1 5BE6BF64
P 3400 1750
F 0 "C4" H 3515 1796 50  0000 L CNN
F 1 "2200µF50V" H 3515 1705 50  0000 L CNN
F 2 "Capacitor_THT:CP_Radial_D16.0mm_P7.50mm" H 3400 1750 50  0001 C CNN
F 3 "~" H 3400 1750 50  0001 C CNN
F 4 "2782188" H 3400 1750 50  0001 C CNN "Ref Farnell"
	1    3400 1750
	-1   0    0    -1  
$EndComp
Wire Wire Line
	3400 1450 3400 1600
Wire Wire Line
	3400 1450 3400 1300
Connection ~ 3400 1450
Connection ~ 2500 1450
Wire Wire Line
	2500 1450 1600 1450
Wire Wire Line
	3400 1000 3400 800 
Wire Wire Line
	2050 800  2050 1350
Wire Wire Line
	2050 1350 1600 1350
Wire Wire Line
	2500 800  2050 800 
Wire Wire Line
	2050 2100 2050 1550
Wire Wire Line
	2050 1550 1600 1550
Wire Wire Line
	2500 2100 2050 2100
$Comp
L Mechanical:MountingHole_Pad H1
U 1 1 5BEA0EC3
P 1400 5350
F 0 "H1" H 1500 5401 50  0000 L CNN
F 1 "MountingHole_Pad" H 1500 5310 50  0000 L CNN
F 2 "MountingHole:MountingHole_3.2mm_M3_Pad" H 1400 5350 50  0001 C CNN
F 3 "~" H 1400 5350 50  0001 C CNN
	1    1400 5350
	1    0    0    -1  
$EndComp
$Comp
L Mechanical:MountingHole_Pad H2
U 1 1 5BEA0F8A
P 1400 5700
F 0 "H2" H 1500 5751 50  0000 L CNN
F 1 "MountingHole_Pad" H 1500 5660 50  0000 L CNN
F 2 "MountingHole:MountingHole_3.2mm_M3_Pad" H 1400 5700 50  0001 C CNN
F 3 "~" H 1400 5700 50  0001 C CNN
	1    1400 5700
	1    0    0    -1  
$EndComp
$Comp
L Mechanical:MountingHole_Pad H3
U 1 1 5BEA0FF4
P 1400 6050
F 0 "H3" H 1500 6101 50  0000 L CNN
F 1 "MountingHole_Pad" H 1500 6010 50  0000 L CNN
F 2 "MountingHole:MountingHole_3.2mm_M3_Pad" H 1400 6050 50  0001 C CNN
F 3 "~" H 1400 6050 50  0001 C CNN
	1    1400 6050
	1    0    0    -1  
$EndComp
$Comp
L Mechanical:MountingHole_Pad H4
U 1 1 5BEA1065
P 1400 6400
F 0 "H4" H 1500 6451 50  0000 L CNN
F 1 "MountingHole_Pad" H 1500 6360 50  0000 L CNN
F 2 "MountingHole:MountingHole_3.2mm_M3_Pad" H 1400 6400 50  0001 C CNN
F 3 "~" H 1400 6400 50  0001 C CNN
	1    1400 6400
	1    0    0    -1  
$EndComp
Text Notes 10950 4750 2    50   ~ 0
Put a UPC1237 speaker protection board after this.\nIt is not here because of the needed connexion to an AC transformer.
Wire Wire Line
	1400 5450 1150 5450
Wire Wire Line
	1150 5450 1150 5800
Wire Wire Line
	1150 5800 1400 5800
Wire Wire Line
	1150 5800 1150 6150
Wire Wire Line
	1150 6150 1400 6150
Connection ~ 1150 5800
Wire Wire Line
	1150 6150 1150 6500
Wire Wire Line
	1150 6500 1400 6500
Connection ~ 1150 6150
Text Label 950  5450 0    50   ~ 0
GNDA
Wire Wire Line
	1150 5450 950  5450
Connection ~ 1150 5450
$Comp
L power:PWR_FLAG #FLG0101
U 1 1 5BF08F6D
P 1900 800
F 0 "#FLG0101" H 1900 875 50  0001 C CNN
F 1 "PWR_FLAG" V 1900 928 50  0000 L CNN
F 2 "" H 1900 800 50  0001 C CNN
F 3 "~" H 1900 800 50  0001 C CNN
	1    1900 800 
	0    -1   1    0   
$EndComp
$Comp
L power:PWR_FLAG #FLG0102
U 1 1 5BF0901F
P 1900 2100
F 0 "#FLG0102" H 1900 2175 50  0001 C CNN
F 1 "PWR_FLAG" V 1900 2228 50  0000 L CNN
F 2 "" H 1900 2100 50  0001 C CNN
F 3 "~" H 1900 2100 50  0001 C CNN
	1    1900 2100
	0    -1   1    0   
$EndComp
Wire Wire Line
	2050 800  1900 800 
Connection ~ 2050 800 
Wire Wire Line
	1900 2100 2050 2100
Connection ~ 2050 2100
$Comp
L Connector:Conn_01x04_Female J2
U 1 1 5CEF59E8
P 10400 3950
F 0 "J2" H 10427 3926 50  0000 L CNN
F 1 "R GND GND L" H 10427 3835 50  0000 L CNN
F 2 "lib:PhxContactSPTAF_4P" H 10400 3950 50  0001 C CNN
F 3 "~" H 10400 3950 50  0001 C CNN
F 4 "2580667" H 10400 3950 50  0001 C CNN "Ref Farnell"
	1    10400 3950
	1    0    0    1   
$EndComp
Wire Wire Line
	10200 3850 10200 3900
Wire Wire Line
	9400 3900 10200 3900
Connection ~ 10200 3900
Wire Wire Line
	10200 3900 10200 3950
Connection ~ 2500 2100
Wire Wire Line
	2500 2100 3400 2100
Connection ~ 2500 800 
Wire Wire Line
	2500 800  3400 800 
$Comp
L Connector:TestPoint TP2
U 1 1 5DCFE58A
P 2050 3950
F 0 "TP2" H 1992 3977 50  0000 R CNN
F 1 "AUDL" H 1992 4068 50  0000 R CNN
F 2 "TestPoint:TestPoint_Pad_D1.5mm" H 2250 3950 50  0001 C CNN
F 3 "~" H 2250 3950 50  0001 C CNN
	1    2050 3950
	-1   0    0    1   
$EndComp
$Comp
L Connector:TestPoint TP1
U 1 1 5DCFE786
P 2050 3550
F 0 "TP1" H 2108 3670 50  0000 L CNN
F 1 "AUDR" H 2108 3579 50  0000 L CNN
F 2 "TestPoint:TestPoint_Pad_D1.5mm" H 2250 3550 50  0001 C CNN
F 3 "~" H 2250 3550 50  0001 C CNN
	1    2050 3550
	1    0    0    -1  
$EndComp
Text Label 1350 3800 0    50   ~ 0
GNDA
$Comp
L Connector:Conn_01x04_Female J1
U 1 1 5E2594E6
P 950 3750
F 0 "J1" H 844 4035 50  0000 C CNN
F 1 "AUDL GNDA AUDR" H 844 3944 50  0000 C CNN
F 2 "lib:ConnectorMicromatch-4" H 950 3750 50  0001 C CNN
F 3 "~" H 950 3750 50  0001 C CNN
F 4 "3784710" H 950 3750 50  0001 C CNN "Ref Farnell"
	1    950  3750
	-1   0    0    -1  
$EndComp
Wire Wire Line
	1150 3850 1250 3850
Wire Wire Line
	1250 3850 1250 3800
Wire Wire Line
	1250 3750 1150 3750
Wire Wire Line
	1250 3800 1350 3800
Connection ~ 1250 3800
Wire Wire Line
	1250 3800 1250 3750
Wire Wire Line
	2050 3950 2050 3850
Wire Wire Line
	2050 3700 2050 3550
Wire Wire Line
	1650 3700 1650 3650
Wire Wire Line
	1650 3650 1150 3650
Wire Wire Line
	1650 3700 2050 3700
Wire Wire Line
	1150 3950 1650 3950
Wire Wire Line
	1650 3950 1650 3850
Wire Wire Line
	1650 3850 2050 3850
Text Notes 900  4150 0    50   ~ 0
Micromatch Analog audio in
Wire Wire Line
	10100 3750 10200 3750
Wire Wire Line
	10100 3550 10100 3750
Wire Wire Line
	10200 4050 10100 4050
Wire Wire Line
	10100 4050 10100 4250
$Comp
L Connector:Conn_01x03_Female J4
U 1 1 5F2FF94C
P 1400 1450
F 0 "J4" H 1292 1125 50  0000 C CNN
F 1 "V+ GNA V-" H 1292 1216 50  0000 C CNN
F 2 "Connector_Phoenix_MC:PhoenixContact_MCV_1,5_3-GF-3.81_1x03_P3.81mm_Vertical_ThreadedFlange_MountHole" H 1400 1450 50  0001 C CNN
F 3 "~" H 1400 1450 50  0001 C CNN
F 4 "1793057" H 1400 1450 50  0001 C CNN "Ref Farnell"
	1    1400 1450
	-1   0    0    -1  
$EndComp
$Comp
L Device:C C1
U 1 1 5F301A21
P 2500 1100
F 0 "C1" H 2615 1146 50  0000 L CNN
F 1 "0.1" H 2615 1055 50  0000 L CNN
F 2 "Capacitor_THT:C_Rect_L7.2mm_W5.5mm_P5.00mm_FKS2_FKP2_MKS2_MKP2" H 2538 950 50  0001 C CNN
F 3 "~" H 2500 1100 50  0001 C CNN
F 4 "1890265" H 2500 1100 50  0001 C CNN "Ref Farnell"
	1    2500 1100
	1    0    0    -1  
$EndComp
$Comp
L Device:C C2
U 1 1 5F301E5B
P 2500 1800
F 0 "C2" H 2615 1846 50  0000 L CNN
F 1 "0.1" H 2615 1755 50  0000 L CNN
F 2 "Capacitor_THT:C_Rect_L7.2mm_W5.5mm_P5.00mm_FKS2_FKP2_MKS2_MKP2" H 2538 1650 50  0001 C CNN
F 3 "~" H 2500 1800 50  0001 C CNN
F 4 "1890265" H 2500 1800 50  0001 C CNN "Ref Farnell"
	1    2500 1800
	1    0    0    -1  
$EndComp
Wire Wire Line
	2500 800  2500 950 
Wire Wire Line
	2500 1250 2500 1450
Wire Wire Line
	2500 1450 2500 1650
Wire Wire Line
	2500 1950 2500 2100
Wire Wire Line
	3400 1900 3400 2100
$Comp
L Amplifier_Audio:TDA7294 U1
U 1 1 5F31CC97
P 5800 3000
F 0 "U1" H 6244 3046 50  0000 L CNN
F 1 "TDA7294" H 6244 2955 50  0000 L CNN
F 2 "Package_TO_SOT_THT:TO-220-15_P2.54x2.54mm_StaggerOdd_Lead4.58mm_Vertical" H 5800 3000 50  0001 C CIN
F 3 "http://www.st.com/resource/en/datasheet/tda7294.pdf" H 5800 3000 50  0001 C CNN
F 4 "1842502 " H 5800 3000 50  0001 C CNN "Ref Farnell"
	1    5800 3000
	1    0    0    -1  
$EndComp
Wire Wire Line
	5700 2600 5700 2550
Wire Wire Line
	5700 2550 5600 2550
Wire Wire Line
	5600 2550 5600 2600
Connection ~ 5700 2550
Wire Wire Line
	5700 2550 5700 2350
Text Label 5700 3750 0    50   ~ 0
V-
Wire Wire Line
	5700 3400 5700 3450
Wire Wire Line
	5700 3450 5600 3450
Wire Wire Line
	5600 3450 5600 3400
Connection ~ 5700 3450
Wire Wire Line
	5700 3450 5700 3750
Wire Wire Line
	5400 3100 5250 3100
Wire Wire Line
	5250 3100 5250 3850
Wire Wire Line
	6800 3850 6800 3000
Wire Wire Line
	6800 3000 6200 3000
Wire Wire Line
	6800 3000 7450 3000
Connection ~ 6800 3000
Wire Wire Line
	6800 3000 6800 2450
Wire Wire Line
	6800 2450 6550 2450
Wire Wire Line
	6250 2450 6000 2450
Wire Wire Line
	6000 2450 6000 2800
Wire Wire Line
	5900 3200 5900 3300
Wire Wire Line
	5900 3300 6300 3300
Text Label 6300 3300 2    50   ~ 0
GNDA
Text Label 5300 2100 0    50   ~ 0
V-
Text Label 5350 800  0    50   ~ 0
V+
$Comp
L power:PWR_FLAG #FLG0103
U 1 1 5F35AEB0
P 5800 1450
F 0 "#FLG0103" H 5800 1525 50  0001 C CNN
F 1 "PWR_FLAG" V 5800 1578 50  0000 L CNN
F 2 "" H 5800 1450 50  0001 C CNN
F 3 "~" H 5800 1450 50  0001 C CNN
	1    5800 1450
	-1   0    0    -1  
$EndComp
Wire Wire Line
	2500 1450 3400 1450
$Comp
L Device:R R3
U 1 1 5F3698A6
P 4850 3150
F 0 "R3" H 4780 3104 50  0000 R CNN
F 1 "22k" H 4780 3195 50  0000 R CNN
F 2 "Resistor_SMD:R_0805_2012Metric_Pad1.15x1.40mm_HandSolder" V 4780 3150 50  0001 C CNN
F 3 "~" H 4850 3150 50  0001 C CNN
F 4 "2303686" H 4850 3150 50  0001 C CNN "Ref Farnell"
	1    4850 3150
	-1   0    0    1   
$EndComp
$Comp
L Device:C C9
U 1 1 5F369F74
P 4500 2900
F 0 "C9" V 4248 2900 50  0000 C CNN
F 1 "0.68µf" V 4339 2900 50  0000 C CNN
F 2 "Capacitor_THT:C_Disc_D7.5mm_W4.4mm_P5.00mm" H 4538 2750 50  0001 C CNN
F 3 "~" H 4500 2900 50  0001 C CNN
F 4 "1006039" H 4500 2900 50  0001 C CNN "Ref Farnell"
	1    4500 2900
	0    1    1    0   
$EndComp
Wire Wire Line
	4650 2900 4850 2900
Wire Wire Line
	4850 3000 4850 2900
Connection ~ 4850 2900
Wire Wire Line
	4850 2900 5400 2900
Wire Wire Line
	4850 3300 4850 3500
Wire Wire Line
	4850 3500 4650 3500
Text Label 4650 3500 2    50   ~ 0
GNDA
Wire Wire Line
	4350 2900 3900 2900
Text Label 10100 3550 2    50   ~ 0
OUTL
Text Label 10100 4250 2    50   ~ 0
OUTR
Wire Wire Line
	5800 3300 5900 3300
Connection ~ 5900 3300
$Comp
L Connector:Conn_01x02_Female J5
U 1 1 5F37E0BB
P 5750 6850
F 0 "J5" H 5778 6826 50  0000 L CNN
F 1 "1 Mute, 2 Standby" H 5778 6735 50  0000 L CNN
F 2 "Connector_PinHeader_2.54mm:PinHeader_1x02_P2.54mm_Vertical" H 5750 6850 50  0001 C CNN
F 3 "~" H 5750 6850 50  0001 C CNN
	1    5750 6850
	1    0    0    -1  
$EndComp
Wire Wire Line
	5550 6850 5200 6850
Wire Wire Line
	5550 6950 5200 6950
Text Label 5200 6850 2    50   ~ 0
MUTE
Text Label 5200 6950 2    50   ~ 0
STDBY
$Comp
L Device:R R1
U 1 1 5F38817A
P 3600 6100
F 0 "R1" V 3393 6100 50  0000 C CNN
F 1 "22K" V 3484 6100 50  0000 C CNN
F 2 "Resistor_SMD:R_0805_2012Metric_Pad1.15x1.40mm_HandSolder" V 3530 6100 50  0001 C CNN
F 3 "~" H 3600 6100 50  0001 C CNN
F 4 "2303686" H 3600 6100 50  0001 C CNN "Ref Farnell"
	1    3600 6100
	0    1    1    0   
$EndComp
$Comp
L Device:CP1 C5
U 1 1 5F38956B
P 3850 6300
F 0 "C5" H 3965 6346 50  0000 L CNN
F 1 "10µF50V" H 3965 6255 50  0000 L CNN
F 2 "Capacitor_THT:CP_Radial_D5.0mm_P2.00mm" H 3850 6300 50  0001 C CNN
F 3 "~" H 3850 6300 50  0001 C CNN
F 4 "2841905" H 3850 6300 50  0001 C CNN "Ref Farnell"
	1    3850 6300
	-1   0    0    -1  
$EndComp
$Comp
L Device:CP1 C6
U 1 1 5F389DC8
P 3850 7250
F 0 "C6" H 3965 7296 50  0000 L CNN
F 1 "10µF50V" H 3965 7205 50  0000 L CNN
F 2 "Capacitor_THT:CP_Radial_D5.0mm_P2.00mm" H 3850 7250 50  0001 C CNN
F 3 "~" H 3850 7250 50  0001 C CNN
F 4 "2841905" H 3850 7250 50  0001 C CNN "Ref Farnell"
	1    3850 7250
	-1   0    0    -1  
$EndComp
Wire Wire Line
	3850 6100 3850 6150
Wire Wire Line
	3850 7100 3850 7050
Connection ~ 3850 7050
$Comp
L Device:R R2
U 1 1 5F3A5548
P 3600 7050
F 0 "R2" V 3393 7050 50  0000 C CNN
F 1 "22K" V 3484 7050 50  0000 C CNN
F 2 "Resistor_SMD:R_0805_2012Metric_Pad1.15x1.40mm_HandSolder" V 3530 7050 50  0001 C CNN
F 3 "~" H 3600 7050 50  0001 C CNN
F 4 "2303686" H 3600 7050 50  0001 C CNN "Ref Farnell"
	1    3600 7050
	0    1    1    0   
$EndComp
Wire Wire Line
	3750 7050 3850 7050
Wire Wire Line
	3450 7050 3300 7050
Text Label 3300 6100 2    50   ~ 0
MUTE
Text Label 3300 7050 2    50   ~ 0
STDBY
Wire Wire Line
	3850 6450 3850 6600
Wire Wire Line
	3850 6600 3650 6600
Wire Wire Line
	3850 7400 3850 7500
Wire Wire Line
	3850 7500 3600 7500
Text Label 3650 6600 2    50   ~ 0
GNDA
Text Label 3600 7500 2    50   ~ 0
GNDA
Text Label 4300 6100 2    50   ~ 0
MT
Text Label 4300 7050 2    50   ~ 0
STB
Wire Wire Line
	5800 2700 5800 2600
Text Label 5800 2600 2    50   ~ 0
MT
Text Label 5900 2500 2    50   ~ 0
STB
Wire Wire Line
	5900 2500 5900 2800
Text Label 5700 4150 0    50   ~ 0
V+
$Comp
L Amplifier_Audio:TDA7294 U2
U 1 1 5F3FFE1D
P 5800 4800
F 0 "U2" H 6244 4846 50  0000 L CNN
F 1 "TDA7294" H 6244 4755 50  0000 L CNN
F 2 "Package_TO_SOT_THT:TO-220-15_P2.54x2.54mm_StaggerOdd_Lead4.58mm_Vertical" H 5800 4800 50  0001 C CIN
F 3 "http://www.st.com/resource/en/datasheet/tda7294.pdf" H 5800 4800 50  0001 C CNN
F 4 "1842502 " H 5800 4800 50  0001 C CNN "Ref Farnell"
	1    5800 4800
	1    0    0    -1  
$EndComp
Wire Wire Line
	5700 4400 5700 4350
Wire Wire Line
	5700 4350 5600 4350
Wire Wire Line
	5600 4350 5600 4400
Connection ~ 5700 4350
Wire Wire Line
	5700 4350 5700 4150
Text Label 5700 5550 0    50   ~ 0
V-
Wire Wire Line
	5700 5200 5700 5250
Wire Wire Line
	5700 5250 5600 5250
Wire Wire Line
	5600 5250 5600 5200
Connection ~ 5700 5250
Wire Wire Line
	5700 5250 5700 5550
Wire Wire Line
	5400 4900 5250 4900
Wire Wire Line
	5250 4900 5250 5650
Wire Wire Line
	6800 5650 6800 4800
Wire Wire Line
	6800 4800 6200 4800
Wire Wire Line
	6800 4800 7450 4800
Connection ~ 6800 4800
Wire Wire Line
	6800 4800 6800 4250
Wire Wire Line
	6800 4250 6550 4250
Wire Wire Line
	6250 4250 6000 4250
Wire Wire Line
	6000 4250 6000 4600
Wire Wire Line
	5900 5000 5900 5100
Wire Wire Line
	5900 5100 6300 5100
Text Label 6300 5100 2    50   ~ 0
GNDA
$Comp
L Device:R R4
U 1 1 5F3FFE4A
P 4850 4950
F 0 "R4" H 4780 4904 50  0000 R CNN
F 1 "22k" H 4780 4995 50  0000 R CNN
F 2 "Resistor_SMD:R_0805_2012Metric_Pad1.15x1.40mm_HandSolder" V 4780 4950 50  0001 C CNN
F 3 "~" H 4850 4950 50  0001 C CNN
F 4 "2303686" H 4850 4950 50  0001 C CNN "Ref Farnell"
	1    4850 4950
	-1   0    0    1   
$EndComp
Wire Wire Line
	4650 4700 4850 4700
Wire Wire Line
	4850 4800 4850 4700
Connection ~ 4850 4700
Wire Wire Line
	4850 4700 5400 4700
Wire Wire Line
	4850 5100 4850 5300
Wire Wire Line
	4850 5300 4650 5300
Text Label 4650 5300 2    50   ~ 0
GNDA
Wire Wire Line
	4350 4700 3900 4700
Wire Wire Line
	5800 5100 5900 5100
Connection ~ 5900 5100
Wire Wire Line
	5800 4500 5800 4400
Text Label 5800 4400 2    50   ~ 0
MT
Text Label 5900 4300 2    50   ~ 0
STB
Wire Wire Line
	5900 4300 5900 4600
Text Label 3900 2900 0    50   ~ 0
AUDL
Text Label 3900 4700 0    50   ~ 0
AUDR
Text Label 7450 3000 2    50   ~ 0
OUTL
Text Label 7450 4800 2    50   ~ 0
OUTR
Wire Wire Line
	3850 6100 4300 6100
Wire Wire Line
	3850 7050 4300 7050
Wire Wire Line
	3750 6100 3850 6100
Connection ~ 3850 6100
Wire Wire Line
	3300 6100 3450 6100
$Comp
L Device:R R7
U 1 1 5F44878E
P 6150 3850
F 0 "R7" V 6357 3850 50  0000 C CNN
F 1 "22k" V 6266 3850 50  0000 C CNN
F 2 "Resistor_SMD:R_0805_2012Metric_Pad1.15x1.40mm_HandSolder" V 6080 3850 50  0001 C CNN
F 3 "~" H 6150 3850 50  0001 C CNN
F 4 "2303686" H 6150 3850 50  0001 C CNN "Ref Farnell"
	1    6150 3850
	0    -1   -1   0   
$EndComp
Wire Wire Line
	5250 3850 6000 3850
Wire Wire Line
	6300 3850 6800 3850
$Comp
L Device:R R8
U 1 1 5F4538CC
P 6150 5650
F 0 "R8" V 6357 5650 50  0000 C CNN
F 1 "22k" V 6266 5650 50  0000 C CNN
F 2 "Resistor_SMD:R_0805_2012Metric_Pad1.15x1.40mm_HandSolder" V 6080 5650 50  0001 C CNN
F 3 "~" H 6150 5650 50  0001 C CNN
F 4 "2303686" H 6150 5650 50  0001 C CNN "Ref Farnell"
	1    6150 5650
	0    -1   -1   0   
$EndComp
Wire Wire Line
	5250 5650 6000 5650
Wire Wire Line
	6300 5650 6800 5650
$Comp
L Device:R R5
U 1 1 5F45A5ED
P 4950 3850
F 0 "R5" V 5157 3850 50  0000 C CNN
F 1 "680R" V 5066 3850 50  0000 C CNN
F 2 "Resistor_SMD:R_2010_5025Metric" V 4880 3850 50  0001 C CNN
F 3 "~" H 4950 3850 50  0001 C CNN
F 4 "3230342" H 4950 3850 50  0001 C CNN "Ref Farnell"
	1    4950 3850
	0    -1   -1   0   
$EndComp
$Comp
L Device:CP1 C7
U 1 1 5F45C1D4
P 4450 3850
F 0 "C7" H 4565 3896 50  0000 L CNN
F 1 "22uF50V" H 4565 3805 50  0000 L CNN
F 2 "Capacitor_THT:CP_Radial_D5.0mm_P2.00mm" H 4450 3850 50  0001 C CNN
F 3 "~" H 4450 3850 50  0001 C CNN
	1    4450 3850
	0    1    -1   0   
$EndComp
Wire Wire Line
	5250 3850 5100 3850
Connection ~ 5250 3850
Wire Wire Line
	4800 3850 4600 3850
Wire Wire Line
	4300 3850 4150 3850
Text Label 4150 3850 2    50   ~ 0
GNDA
$Comp
L Device:R R6
U 1 1 5F46D4EF
P 4950 5650
F 0 "R6" V 5157 5650 50  0000 C CNN
F 1 "680R" V 5066 5650 50  0000 C CNN
F 2 "Resistor_SMD:R_2010_5025Metric" V 4880 5650 50  0001 C CNN
F 3 "~" H 4950 5650 50  0001 C CNN
F 4 "3230342" H 4950 5650 50  0001 C CNN "Ref Farnell"
	1    4950 5650
	0    -1   -1   0   
$EndComp
$Comp
L Device:CP1 C8
U 1 1 5F46D4F9
P 4450 5650
F 0 "C8" H 4565 5696 50  0000 L CNN
F 1 "22uF50V" H 4565 5605 50  0000 L CNN
F 2 "Capacitor_THT:CP_Radial_D5.0mm_P2.00mm" H 4450 5650 50  0001 C CNN
F 3 "~" H 4450 5650 50  0001 C CNN
	1    4450 5650
	0    1    -1   0   
$EndComp
Wire Wire Line
	5250 5650 5100 5650
Wire Wire Line
	4800 5650 4600 5650
Wire Wire Line
	4300 5650 4150 5650
Text Label 4150 5650 2    50   ~ 0
GNDA
Connection ~ 5250 5650
Connection ~ 3400 2100
Wire Wire Line
	3400 2100 5300 2100
Connection ~ 3400 800 
Wire Wire Line
	3400 800  5350 800 
Wire Wire Line
	3400 1450 5800 1450
$Comp
L Connector:Conn_01x03_Female J3
U 1 1 5EC21BF8
P 950 4600
F 0 "J3" H 842 4885 50  0000 C CNN
F 1 "AUDL GNDA AUDR" H 842 4794 50  0000 C CNN
F 2 "Connector_PinHeader_2.54mm:PinHeader_1x03_P2.54mm_Vertical" H 950 4600 50  0001 C CNN
F 3 "~" H 950 4600 50  0001 C CNN
	1    950  4600
	-1   0    0    -1  
$EndComp
Wire Wire Line
	1150 4600 1400 4600
Wire Wire Line
	1150 4500 1400 4500
Wire Wire Line
	1150 4700 1400 4700
Text Label 1400 4600 0    50   ~ 0
GNDA
Text Label 1400 4500 0    50   ~ 0
AUDL
Text Label 1400 4700 0    50   ~ 0
AUDR
Text Notes 900  4850 0    50   ~ 0
Alternative input
$Comp
L Device:C C10
U 1 1 5EC487F3
P 4500 4700
F 0 "C10" V 4248 4700 50  0000 C CNN
F 1 "0.68µf" V 4339 4700 50  0000 C CNN
F 2 "Capacitor_THT:C_Disc_D7.5mm_W4.4mm_P5.00mm" H 4538 4550 50  0001 C CNN
F 3 "~" H 4500 4700 50  0001 C CNN
F 4 "1006039" H 4500 4700 50  0001 C CNN "Ref Farnell"
	1    4500 4700
	0    1    1    0   
$EndComp
$Comp
L Device:CP1 C11
U 1 1 5EC516DD
P 6400 2450
F 0 "C11" H 6515 2496 50  0000 L CNN
F 1 "22uF50V" H 6515 2405 50  0000 L CNN
F 2 "Capacitor_THT:CP_Radial_D5.0mm_P2.00mm" H 6400 2450 50  0001 C CNN
F 3 "~" H 6400 2450 50  0001 C CNN
F 4 "2094142" H 6400 2450 50  0001 C CNN "Ref Farnell"
	1    6400 2450
	0    1    -1   0   
$EndComp
$Comp
L Device:CP1 C12
U 1 1 5EC51E0E
P 6400 4250
F 0 "C12" H 6515 4296 50  0000 L CNN
F 1 "22uF50V" H 6515 4205 50  0000 L CNN
F 2 "Capacitor_THT:CP_Radial_D5.0mm_P2.00mm" H 6400 4250 50  0001 C CNN
F 3 "~" H 6400 4250 50  0001 C CNN
F 4 "2094142" H 6400 4250 50  0001 C CNN "Ref Farnell"
	1    6400 4250
	0    1    -1   0   
$EndComp
$EndSCHEMATC
