EESchema Schematic File Version 4
EELAYER 30 0
EELAYER END
$Descr A4 11693 8268
encoding utf-8
Sheet 1 1
Title ""
Date ""
Rev ""
Comp ""
Comment1 ""
Comment2 ""
Comment3 ""
Comment4 ""
$EndDescr
$Comp
L Connector:Conn_01x03_Female J?
U 1 1 5E80C92A
P 3300 1700
F 0 "J?" H 3192 1375 50  0000 C CNN
F 1 "Conn_01x03_Female" H 3192 1466 50  0000 C CNN
F 2 "" H 3300 1700 50  0001 C CNN
F 3 "~" H 3300 1700 50  0001 C CNN
	1    3300 1700
	-1   0    0    1   
$EndComp
$Comp
L Connector:Conn_01x04_Female J?
U 1 1 5E80D1D4
P 3350 2600
F 0 "J?" H 3242 2175 50  0000 C CNN
F 1 "Conn_01x04_Female" H 3242 2266 50  0000 C CNN
F 2 "" H 3350 2600 50  0001 C CNN
F 3 "~" H 3350 2600 50  0001 C CNN
	1    3350 2600
	-1   0    0    1   
$EndComp
Wire Wire Line
	3550 2500 3650 2500
Wire Wire Line
	3650 2500 3650 2550
Wire Wire Line
	3650 2600 3550 2600
Wire Wire Line
	3650 2550 3900 2550
Connection ~ 3650 2550
Wire Wire Line
	3650 2550 3650 2600
Wire Wire Line
	3550 2400 3900 2400
Wire Wire Line
	3550 2700 3900 2700
Text Label 3900 2550 0    50   ~ 0
GND
Wire Wire Line
	3500 1600 3900 1600
Wire Wire Line
	3500 1700 3900 1700
Wire Wire Line
	3500 1800 3900 1800
Text Label 3900 1700 0    50   ~ 0
GND
Text Label 3900 1800 0    50   ~ 0
+15V
Text Label 3900 1600 0    50   ~ 0
-15V
Text Label 3900 2400 0    50   ~ 0
AudR
Text Label 3900 2700 0    50   ~ 0
AudL
$Comp
L Amplifier_Operational:OPA1602 U?
U 1 1 5E80EFDB
P 7500 3200
F 0 "U?" H 7500 3567 50  0000 C CNN
F 1 "OPA1602" H 7500 3476 50  0000 C CNN
F 2 "" H 7500 3200 50  0001 C CNN
F 3 "http://www.ti.com/lit/ds/symlink/opa1604.pdf" H 7500 3200 50  0001 C CNN
	1    7500 3200
	1    0    0    -1  
$EndComp
$Comp
L Amplifier_Operational:OPA1602 U?
U 2 1 5E81015E
P 8600 4750
F 0 "U?" H 8600 5117 50  0000 C CNN
F 1 "OPA1602" H 8600 5026 50  0000 C CNN
F 2 "" H 8600 4750 50  0001 C CNN
F 3 "http://www.ti.com/lit/ds/symlink/opa1604.pdf" H 8600 4750 50  0001 C CNN
	2    8600 4750
	1    0    0    -1  
$EndComp
$Comp
L Amplifier_Operational:OPA1602 U?
U 3 1 5E8112F5
P 4800 3700
F 0 "U?" H 4758 3746 50  0000 L CNN
F 1 "OPA1602" H 4758 3655 50  0000 L CNN
F 2 "" H 4800 3700 50  0001 C CNN
F 3 "http://www.ti.com/lit/ds/symlink/opa1604.pdf" H 4800 3700 50  0001 C CNN
	3    4800 3700
	1    0    0    -1  
$EndComp
Wire Wire Line
	4700 3400 4950 3400
Wire Wire Line
	4700 4000 4950 4000
Text Label 4950 3400 0    50   ~ 0
+15V
Text Label 4950 4000 0    50   ~ 0
-15V
$Comp
L Device:R_POT_TRIM RV?
U 1 1 5E82985F
P 6900 3950
F 0 "RV?" H 6831 3996 50  0000 R CNN
F 1 "50K" H 6831 3905 50  0000 R CNN
F 2 "" H 6900 3950 50  0001 C CNN
F 3 "~" H 6900 3950 50  0001 C CNN
	1    6900 3950
	1    0    0    -1  
$EndComp
$Comp
L Device:R R?
U 1 1 5E829FC5
P 7450 2650
F 0 "R?" V 7243 2650 50  0000 C CNN
F 1 "39K" V 7334 2650 50  0000 C CNN
F 2 "" V 7380 2650 50  0001 C CNN
F 3 "~" H 7450 2650 50  0001 C CNN
	1    7450 2650
	0    1    1    0   
$EndComp
$Comp
L Connector:XLR3 J?
U 1 1 5E82AEF3
P 5250 1450
F 0 "J?" H 5250 1815 50  0000 C CNN
F 1 "XLR3" H 5250 1724 50  0000 C CNN
F 2 "" H 5250 1450 50  0001 C CNN
F 3 " ~" H 5250 1450 50  0001 C CNN
	1    5250 1450
	1    0    0    -1  
$EndComp
$Comp
L Device:CP1 C?
U 1 1 5E82C06F
P 7450 2250
F 0 "C?" V 7702 2250 50  0000 C CNN
F 1 "10µF" V 7611 2250 50  0000 C CNN
F 2 "" H 7450 2250 50  0001 C CNN
F 3 "~" H 7450 2250 50  0001 C CNN
	1    7450 2250
	0    -1   -1   0   
$EndComp
$Comp
L Device:CP1 C?
U 1 1 5E832303
P 8850 3200
F 0 "C?" V 8598 3200 50  0000 C CNN
F 1 "10µF" V 8689 3200 50  0000 C CNN
F 2 "" H 8850 3200 50  0001 C CNN
F 3 "~" H 8850 3200 50  0001 C CNN
	1    8850 3200
	0    1    1    0   
$EndComp
$Comp
L Device:CP1 C?
U 1 1 5E8328ED
P 6200 3550
F 0 "C?" V 5948 3550 50  0000 C CNN
F 1 "10µF" V 6039 3550 50  0000 C CNN
F 2 "" H 6200 3550 50  0001 C CNN
F 3 "~" H 6200 3550 50  0001 C CNN
	1    6200 3550
	0    1    1    0   
$EndComp
$Comp
L Device:R R?
U 1 1 5E832D30
P 9400 1750
F 0 "R?" H 9470 1796 50  0000 L CNN
F 1 "470" H 9470 1705 50  0000 L CNN
F 2 "" V 9330 1750 50  0001 C CNN
F 3 "~" H 9400 1750 50  0001 C CNN
	1    9400 1750
	1    0    0    -1  
$EndComp
$Comp
L Device:R R?
U 1 1 5E8330F7
P 5800 3550
F 0 "R?" V 5593 3550 50  0000 C CNN
F 1 "1k2" V 5684 3550 50  0000 C CNN
F 2 "" V 5730 3550 50  0001 C CNN
F 3 "~" H 5800 3550 50  0001 C CNN
	1    5800 3550
	0    1    1    0   
$EndComp
$Comp
L Device:R R?
U 1 1 5E83A913
P 8950 1800
F 0 "R?" H 9020 1846 50  0000 L CNN
F 1 "39K" H 9020 1755 50  0000 L CNN
F 2 "" V 8880 1800 50  0001 C CNN
F 3 "~" H 8950 1800 50  0001 C CNN
	1    8950 1800
	1    0    0    -1  
$EndComp
$Comp
L Device:R R?
U 1 1 5E83A91D
P 8450 3200
F 0 "R?" V 8243 3200 50  0000 C CNN
F 1 "10k" V 8334 3200 50  0000 C CNN
F 2 "" V 8380 3200 50  0001 C CNN
F 3 "~" H 8450 3200 50  0001 C CNN
	1    8450 3200
	0    1    1    0   
$EndComp
$Comp
L Device:R R?
U 1 1 5E83A927
P 9150 3450
F 0 "R?" H 9080 3404 50  0000 R CNN
F 1 "100k" H 9080 3495 50  0000 R CNN
F 2 "" V 9080 3450 50  0001 C CNN
F 3 "~" H 9150 3450 50  0001 C CNN
	1    9150 3450
	-1   0    0    1   
$EndComp
Text Notes 3200 800  0    50   ~ 0
Taken blindly from https://sound-au.com/project13.htm
$EndSCHEMATC
