%TF.GenerationSoftware,KiCad,Pcbnew,5.1.9-73d0e3b20d~88~ubuntu20.04.1*%
%TF.CreationDate,2021-02-05T22:52:16+01:00*%
%TF.ProjectId,micromatchTestAdapter,6d696372-6f6d-4617-9463-685465737441,rev?*%
%TF.SameCoordinates,Original*%
%TF.FileFunction,Soldermask,Top*%
%TF.FilePolarity,Negative*%
%FSLAX46Y46*%
G04 Gerber Fmt 4.6, Leading zero omitted, Abs format (unit mm)*
G04 Created by KiCad (PCBNEW 5.1.9-73d0e3b20d~88~ubuntu20.04.1) date 2021-02-05 22:52:16*
%MOMM*%
%LPD*%
G01*
G04 APERTURE LIST*
%ADD10C,5.700000*%
%ADD11O,1.800000X1.800000*%
G04 APERTURE END LIST*
D10*
%TO.C,H1*%
X143000000Y-69000000D03*
%TD*%
%TO.C,H2*%
X167000000Y-69000000D03*
%TD*%
%TO.C,H3*%
X143000000Y-104000000D03*
%TD*%
%TO.C,H4*%
X167000000Y-104140000D03*
%TD*%
%TO.C,J1*%
G36*
G01*
X140300000Y-97720000D02*
X143300000Y-97720000D01*
G75*
G02*
X143350000Y-97770000I0J-50000D01*
G01*
X143350000Y-99270000D01*
G75*
G02*
X143300000Y-99320000I-50000J0D01*
G01*
X140300000Y-99320000D01*
G75*
G02*
X140250000Y-99270000I0J50000D01*
G01*
X140250000Y-97770000D01*
G75*
G02*
X140300000Y-97720000I50000J0D01*
G01*
G37*
G36*
G01*
X145500000Y-96450000D02*
X148500000Y-96450000D01*
G75*
G02*
X148550000Y-96500000I0J-50000D01*
G01*
X148550000Y-98000000D01*
G75*
G02*
X148500000Y-98050000I-50000J0D01*
G01*
X145500000Y-98050000D01*
G75*
G02*
X145450000Y-98000000I0J50000D01*
G01*
X145450000Y-96500000D01*
G75*
G02*
X145500000Y-96450000I50000J0D01*
G01*
G37*
G36*
G01*
X140300000Y-95180000D02*
X143300000Y-95180000D01*
G75*
G02*
X143350000Y-95230000I0J-50000D01*
G01*
X143350000Y-96730000D01*
G75*
G02*
X143300000Y-96780000I-50000J0D01*
G01*
X140300000Y-96780000D01*
G75*
G02*
X140250000Y-96730000I0J50000D01*
G01*
X140250000Y-95230000D01*
G75*
G02*
X140300000Y-95180000I50000J0D01*
G01*
G37*
G36*
G01*
X145500000Y-93910000D02*
X148500000Y-93910000D01*
G75*
G02*
X148550000Y-93960000I0J-50000D01*
G01*
X148550000Y-95460000D01*
G75*
G02*
X148500000Y-95510000I-50000J0D01*
G01*
X145500000Y-95510000D01*
G75*
G02*
X145450000Y-95460000I0J50000D01*
G01*
X145450000Y-93960000D01*
G75*
G02*
X145500000Y-93910000I50000J0D01*
G01*
G37*
G36*
G01*
X140300000Y-92640000D02*
X143300000Y-92640000D01*
G75*
G02*
X143350000Y-92690000I0J-50000D01*
G01*
X143350000Y-94190000D01*
G75*
G02*
X143300000Y-94240000I-50000J0D01*
G01*
X140300000Y-94240000D01*
G75*
G02*
X140250000Y-94190000I0J50000D01*
G01*
X140250000Y-92690000D01*
G75*
G02*
X140300000Y-92640000I50000J0D01*
G01*
G37*
G36*
G01*
X145500000Y-91370000D02*
X148500000Y-91370000D01*
G75*
G02*
X148550000Y-91420000I0J-50000D01*
G01*
X148550000Y-92920000D01*
G75*
G02*
X148500000Y-92970000I-50000J0D01*
G01*
X145500000Y-92970000D01*
G75*
G02*
X145450000Y-92920000I0J50000D01*
G01*
X145450000Y-91420000D01*
G75*
G02*
X145500000Y-91370000I50000J0D01*
G01*
G37*
G36*
G01*
X140300000Y-90100000D02*
X143300000Y-90100000D01*
G75*
G02*
X143350000Y-90150000I0J-50000D01*
G01*
X143350000Y-91650000D01*
G75*
G02*
X143300000Y-91700000I-50000J0D01*
G01*
X140300000Y-91700000D01*
G75*
G02*
X140250000Y-91650000I0J50000D01*
G01*
X140250000Y-90150000D01*
G75*
G02*
X140300000Y-90100000I50000J0D01*
G01*
G37*
G36*
G01*
X145500000Y-88830000D02*
X148500000Y-88830000D01*
G75*
G02*
X148550000Y-88880000I0J-50000D01*
G01*
X148550000Y-90380000D01*
G75*
G02*
X148500000Y-90430000I-50000J0D01*
G01*
X145500000Y-90430000D01*
G75*
G02*
X145450000Y-90380000I0J50000D01*
G01*
X145450000Y-88880000D01*
G75*
G02*
X145500000Y-88830000I50000J0D01*
G01*
G37*
G36*
G01*
X140300000Y-87560000D02*
X143300000Y-87560000D01*
G75*
G02*
X143350000Y-87610000I0J-50000D01*
G01*
X143350000Y-89110000D01*
G75*
G02*
X143300000Y-89160000I-50000J0D01*
G01*
X140300000Y-89160000D01*
G75*
G02*
X140250000Y-89110000I0J50000D01*
G01*
X140250000Y-87610000D01*
G75*
G02*
X140300000Y-87560000I50000J0D01*
G01*
G37*
G36*
G01*
X145500000Y-86290000D02*
X148500000Y-86290000D01*
G75*
G02*
X148550000Y-86340000I0J-50000D01*
G01*
X148550000Y-87840000D01*
G75*
G02*
X148500000Y-87890000I-50000J0D01*
G01*
X145500000Y-87890000D01*
G75*
G02*
X145450000Y-87840000I0J50000D01*
G01*
X145450000Y-86340000D01*
G75*
G02*
X145500000Y-86290000I50000J0D01*
G01*
G37*
G36*
G01*
X140300000Y-85020000D02*
X143300000Y-85020000D01*
G75*
G02*
X143350000Y-85070000I0J-50000D01*
G01*
X143350000Y-86570000D01*
G75*
G02*
X143300000Y-86620000I-50000J0D01*
G01*
X140300000Y-86620000D01*
G75*
G02*
X140250000Y-86570000I0J50000D01*
G01*
X140250000Y-85070000D01*
G75*
G02*
X140300000Y-85020000I50000J0D01*
G01*
G37*
G36*
G01*
X145500000Y-83750000D02*
X148500000Y-83750000D01*
G75*
G02*
X148550000Y-83800000I0J-50000D01*
G01*
X148550000Y-85300000D01*
G75*
G02*
X148500000Y-85350000I-50000J0D01*
G01*
X145500000Y-85350000D01*
G75*
G02*
X145450000Y-85300000I0J50000D01*
G01*
X145450000Y-83800000D01*
G75*
G02*
X145500000Y-83750000I50000J0D01*
G01*
G37*
G36*
G01*
X140300000Y-82480000D02*
X143300000Y-82480000D01*
G75*
G02*
X143350000Y-82530000I0J-50000D01*
G01*
X143350000Y-84030000D01*
G75*
G02*
X143300000Y-84080000I-50000J0D01*
G01*
X140300000Y-84080000D01*
G75*
G02*
X140250000Y-84030000I0J50000D01*
G01*
X140250000Y-82530000D01*
G75*
G02*
X140300000Y-82480000I50000J0D01*
G01*
G37*
G36*
G01*
X145500000Y-81210000D02*
X148500000Y-81210000D01*
G75*
G02*
X148550000Y-81260000I0J-50000D01*
G01*
X148550000Y-82760000D01*
G75*
G02*
X148500000Y-82810000I-50000J0D01*
G01*
X145500000Y-82810000D01*
G75*
G02*
X145450000Y-82760000I0J50000D01*
G01*
X145450000Y-81260000D01*
G75*
G02*
X145500000Y-81210000I50000J0D01*
G01*
G37*
G36*
G01*
X140300000Y-79940000D02*
X143300000Y-79940000D01*
G75*
G02*
X143350000Y-79990000I0J-50000D01*
G01*
X143350000Y-81490000D01*
G75*
G02*
X143300000Y-81540000I-50000J0D01*
G01*
X140300000Y-81540000D01*
G75*
G02*
X140250000Y-81490000I0J50000D01*
G01*
X140250000Y-79990000D01*
G75*
G02*
X140300000Y-79940000I50000J0D01*
G01*
G37*
G36*
G01*
X145500000Y-78670000D02*
X148500000Y-78670000D01*
G75*
G02*
X148550000Y-78720000I0J-50000D01*
G01*
X148550000Y-80220000D01*
G75*
G02*
X148500000Y-80270000I-50000J0D01*
G01*
X145500000Y-80270000D01*
G75*
G02*
X145450000Y-80220000I0J50000D01*
G01*
X145450000Y-78720000D01*
G75*
G02*
X145500000Y-78670000I50000J0D01*
G01*
G37*
G36*
G01*
X140300000Y-77400000D02*
X143300000Y-77400000D01*
G75*
G02*
X143350000Y-77450000I0J-50000D01*
G01*
X143350000Y-78950000D01*
G75*
G02*
X143300000Y-79000000I-50000J0D01*
G01*
X140300000Y-79000000D01*
G75*
G02*
X140250000Y-78950000I0J50000D01*
G01*
X140250000Y-77450000D01*
G75*
G02*
X140300000Y-77400000I50000J0D01*
G01*
G37*
G36*
G01*
X145500000Y-76130000D02*
X148500000Y-76130000D01*
G75*
G02*
X148550000Y-76180000I0J-50000D01*
G01*
X148550000Y-77680000D01*
G75*
G02*
X148500000Y-77730000I-50000J0D01*
G01*
X145500000Y-77730000D01*
G75*
G02*
X145450000Y-77680000I0J50000D01*
G01*
X145450000Y-76180000D01*
G75*
G02*
X145500000Y-76130000I50000J0D01*
G01*
G37*
G36*
G01*
X140300000Y-74860000D02*
X143300000Y-74860000D01*
G75*
G02*
X143350000Y-74910000I0J-50000D01*
G01*
X143350000Y-76410000D01*
G75*
G02*
X143300000Y-76460000I-50000J0D01*
G01*
X140300000Y-76460000D01*
G75*
G02*
X140250000Y-76410000I0J50000D01*
G01*
X140250000Y-74910000D01*
G75*
G02*
X140300000Y-74860000I50000J0D01*
G01*
G37*
G36*
G01*
X145500000Y-73590000D02*
X148500000Y-73590000D01*
G75*
G02*
X148550000Y-73640000I0J-50000D01*
G01*
X148550000Y-75140000D01*
G75*
G02*
X148500000Y-75190000I-50000J0D01*
G01*
X145500000Y-75190000D01*
G75*
G02*
X145450000Y-75140000I0J50000D01*
G01*
X145450000Y-73640000D01*
G75*
G02*
X145500000Y-73590000I50000J0D01*
G01*
G37*
%TD*%
%TO.C,J2*%
G36*
G01*
X155400000Y-76490000D02*
X155400000Y-74790000D01*
G75*
G02*
X155450000Y-74740000I50000J0D01*
G01*
X157150000Y-74740000D01*
G75*
G02*
X157200000Y-74790000I0J-50000D01*
G01*
X157200000Y-76490000D01*
G75*
G02*
X157150000Y-76540000I-50000J0D01*
G01*
X155450000Y-76540000D01*
G75*
G02*
X155400000Y-76490000I0J50000D01*
G01*
G37*
D11*
X153760000Y-75640000D03*
X156300000Y-78180000D03*
X153760000Y-78180000D03*
X156300000Y-80720000D03*
X153760000Y-80720000D03*
X156300000Y-83260000D03*
X153760000Y-83260000D03*
X156300000Y-85800000D03*
X153760000Y-85800000D03*
X156300000Y-88340000D03*
X153760000Y-88340000D03*
X156300000Y-90880000D03*
X153760000Y-90880000D03*
X156300000Y-93420000D03*
X153760000Y-93420000D03*
X156300000Y-95960000D03*
X153760000Y-95960000D03*
X156300000Y-98500000D03*
X153760000Y-98500000D03*
%TD*%
%TO.C,J3*%
G36*
G01*
X167000000Y-73635000D02*
X170000000Y-73635000D01*
G75*
G02*
X170050000Y-73685000I0J-50000D01*
G01*
X170050000Y-75185000D01*
G75*
G02*
X170000000Y-75235000I-50000J0D01*
G01*
X167000000Y-75235000D01*
G75*
G02*
X166950000Y-75185000I0J50000D01*
G01*
X166950000Y-73685000D01*
G75*
G02*
X167000000Y-73635000I50000J0D01*
G01*
G37*
G36*
G01*
X161800000Y-74905000D02*
X164800000Y-74905000D01*
G75*
G02*
X164850000Y-74955000I0J-50000D01*
G01*
X164850000Y-76455000D01*
G75*
G02*
X164800000Y-76505000I-50000J0D01*
G01*
X161800000Y-76505000D01*
G75*
G02*
X161750000Y-76455000I0J50000D01*
G01*
X161750000Y-74955000D01*
G75*
G02*
X161800000Y-74905000I50000J0D01*
G01*
G37*
G36*
G01*
X167000000Y-76175000D02*
X170000000Y-76175000D01*
G75*
G02*
X170050000Y-76225000I0J-50000D01*
G01*
X170050000Y-77725000D01*
G75*
G02*
X170000000Y-77775000I-50000J0D01*
G01*
X167000000Y-77775000D01*
G75*
G02*
X166950000Y-77725000I0J50000D01*
G01*
X166950000Y-76225000D01*
G75*
G02*
X167000000Y-76175000I50000J0D01*
G01*
G37*
G36*
G01*
X161800000Y-77445000D02*
X164800000Y-77445000D01*
G75*
G02*
X164850000Y-77495000I0J-50000D01*
G01*
X164850000Y-78995000D01*
G75*
G02*
X164800000Y-79045000I-50000J0D01*
G01*
X161800000Y-79045000D01*
G75*
G02*
X161750000Y-78995000I0J50000D01*
G01*
X161750000Y-77495000D01*
G75*
G02*
X161800000Y-77445000I50000J0D01*
G01*
G37*
G36*
G01*
X167000000Y-78715000D02*
X170000000Y-78715000D01*
G75*
G02*
X170050000Y-78765000I0J-50000D01*
G01*
X170050000Y-80265000D01*
G75*
G02*
X170000000Y-80315000I-50000J0D01*
G01*
X167000000Y-80315000D01*
G75*
G02*
X166950000Y-80265000I0J50000D01*
G01*
X166950000Y-78765000D01*
G75*
G02*
X167000000Y-78715000I50000J0D01*
G01*
G37*
G36*
G01*
X161800000Y-79985000D02*
X164800000Y-79985000D01*
G75*
G02*
X164850000Y-80035000I0J-50000D01*
G01*
X164850000Y-81535000D01*
G75*
G02*
X164800000Y-81585000I-50000J0D01*
G01*
X161800000Y-81585000D01*
G75*
G02*
X161750000Y-81535000I0J50000D01*
G01*
X161750000Y-80035000D01*
G75*
G02*
X161800000Y-79985000I50000J0D01*
G01*
G37*
G36*
G01*
X167000000Y-81255000D02*
X170000000Y-81255000D01*
G75*
G02*
X170050000Y-81305000I0J-50000D01*
G01*
X170050000Y-82805000D01*
G75*
G02*
X170000000Y-82855000I-50000J0D01*
G01*
X167000000Y-82855000D01*
G75*
G02*
X166950000Y-82805000I0J50000D01*
G01*
X166950000Y-81305000D01*
G75*
G02*
X167000000Y-81255000I50000J0D01*
G01*
G37*
G36*
G01*
X161800000Y-82525000D02*
X164800000Y-82525000D01*
G75*
G02*
X164850000Y-82575000I0J-50000D01*
G01*
X164850000Y-84075000D01*
G75*
G02*
X164800000Y-84125000I-50000J0D01*
G01*
X161800000Y-84125000D01*
G75*
G02*
X161750000Y-84075000I0J50000D01*
G01*
X161750000Y-82575000D01*
G75*
G02*
X161800000Y-82525000I50000J0D01*
G01*
G37*
G36*
G01*
X167000000Y-83795000D02*
X170000000Y-83795000D01*
G75*
G02*
X170050000Y-83845000I0J-50000D01*
G01*
X170050000Y-85345000D01*
G75*
G02*
X170000000Y-85395000I-50000J0D01*
G01*
X167000000Y-85395000D01*
G75*
G02*
X166950000Y-85345000I0J50000D01*
G01*
X166950000Y-83845000D01*
G75*
G02*
X167000000Y-83795000I50000J0D01*
G01*
G37*
G36*
G01*
X161800000Y-85065000D02*
X164800000Y-85065000D01*
G75*
G02*
X164850000Y-85115000I0J-50000D01*
G01*
X164850000Y-86615000D01*
G75*
G02*
X164800000Y-86665000I-50000J0D01*
G01*
X161800000Y-86665000D01*
G75*
G02*
X161750000Y-86615000I0J50000D01*
G01*
X161750000Y-85115000D01*
G75*
G02*
X161800000Y-85065000I50000J0D01*
G01*
G37*
G36*
G01*
X167000000Y-86335000D02*
X170000000Y-86335000D01*
G75*
G02*
X170050000Y-86385000I0J-50000D01*
G01*
X170050000Y-87885000D01*
G75*
G02*
X170000000Y-87935000I-50000J0D01*
G01*
X167000000Y-87935000D01*
G75*
G02*
X166950000Y-87885000I0J50000D01*
G01*
X166950000Y-86385000D01*
G75*
G02*
X167000000Y-86335000I50000J0D01*
G01*
G37*
G36*
G01*
X161800000Y-87605000D02*
X164800000Y-87605000D01*
G75*
G02*
X164850000Y-87655000I0J-50000D01*
G01*
X164850000Y-89155000D01*
G75*
G02*
X164800000Y-89205000I-50000J0D01*
G01*
X161800000Y-89205000D01*
G75*
G02*
X161750000Y-89155000I0J50000D01*
G01*
X161750000Y-87655000D01*
G75*
G02*
X161800000Y-87605000I50000J0D01*
G01*
G37*
G36*
G01*
X167000000Y-88875000D02*
X170000000Y-88875000D01*
G75*
G02*
X170050000Y-88925000I0J-50000D01*
G01*
X170050000Y-90425000D01*
G75*
G02*
X170000000Y-90475000I-50000J0D01*
G01*
X167000000Y-90475000D01*
G75*
G02*
X166950000Y-90425000I0J50000D01*
G01*
X166950000Y-88925000D01*
G75*
G02*
X167000000Y-88875000I50000J0D01*
G01*
G37*
G36*
G01*
X161800000Y-90145000D02*
X164800000Y-90145000D01*
G75*
G02*
X164850000Y-90195000I0J-50000D01*
G01*
X164850000Y-91695000D01*
G75*
G02*
X164800000Y-91745000I-50000J0D01*
G01*
X161800000Y-91745000D01*
G75*
G02*
X161750000Y-91695000I0J50000D01*
G01*
X161750000Y-90195000D01*
G75*
G02*
X161800000Y-90145000I50000J0D01*
G01*
G37*
G36*
G01*
X167000000Y-91415000D02*
X170000000Y-91415000D01*
G75*
G02*
X170050000Y-91465000I0J-50000D01*
G01*
X170050000Y-92965000D01*
G75*
G02*
X170000000Y-93015000I-50000J0D01*
G01*
X167000000Y-93015000D01*
G75*
G02*
X166950000Y-92965000I0J50000D01*
G01*
X166950000Y-91465000D01*
G75*
G02*
X167000000Y-91415000I50000J0D01*
G01*
G37*
G36*
G01*
X161800000Y-92685000D02*
X164800000Y-92685000D01*
G75*
G02*
X164850000Y-92735000I0J-50000D01*
G01*
X164850000Y-94235000D01*
G75*
G02*
X164800000Y-94285000I-50000J0D01*
G01*
X161800000Y-94285000D01*
G75*
G02*
X161750000Y-94235000I0J50000D01*
G01*
X161750000Y-92735000D01*
G75*
G02*
X161800000Y-92685000I50000J0D01*
G01*
G37*
G36*
G01*
X167000000Y-93955000D02*
X170000000Y-93955000D01*
G75*
G02*
X170050000Y-94005000I0J-50000D01*
G01*
X170050000Y-95505000D01*
G75*
G02*
X170000000Y-95555000I-50000J0D01*
G01*
X167000000Y-95555000D01*
G75*
G02*
X166950000Y-95505000I0J50000D01*
G01*
X166950000Y-94005000D01*
G75*
G02*
X167000000Y-93955000I50000J0D01*
G01*
G37*
G36*
G01*
X161800000Y-95225000D02*
X164800000Y-95225000D01*
G75*
G02*
X164850000Y-95275000I0J-50000D01*
G01*
X164850000Y-96775000D01*
G75*
G02*
X164800000Y-96825000I-50000J0D01*
G01*
X161800000Y-96825000D01*
G75*
G02*
X161750000Y-96775000I0J50000D01*
G01*
X161750000Y-95275000D01*
G75*
G02*
X161800000Y-95225000I50000J0D01*
G01*
G37*
G36*
G01*
X167000000Y-96495000D02*
X170000000Y-96495000D01*
G75*
G02*
X170050000Y-96545000I0J-50000D01*
G01*
X170050000Y-98045000D01*
G75*
G02*
X170000000Y-98095000I-50000J0D01*
G01*
X167000000Y-98095000D01*
G75*
G02*
X166950000Y-98045000I0J50000D01*
G01*
X166950000Y-96545000D01*
G75*
G02*
X167000000Y-96495000I50000J0D01*
G01*
G37*
G36*
G01*
X161800000Y-97765000D02*
X164800000Y-97765000D01*
G75*
G02*
X164850000Y-97815000I0J-50000D01*
G01*
X164850000Y-99315000D01*
G75*
G02*
X164800000Y-99365000I-50000J0D01*
G01*
X161800000Y-99365000D01*
G75*
G02*
X161750000Y-99315000I0J50000D01*
G01*
X161750000Y-97815000D01*
G75*
G02*
X161800000Y-97765000I50000J0D01*
G01*
G37*
%TD*%
M02*
