%TF.GenerationSoftware,KiCad,Pcbnew,5.1.9-73d0e3b20d~88~ubuntu20.04.1*%
%TF.CreationDate,2021-02-05T22:52:16+01:00*%
%TF.ProjectId,micromatchTestAdapter,6d696372-6f6d-4617-9463-685465737441,rev?*%
%TF.SameCoordinates,Original*%
%TF.FileFunction,Soldermask,Bot*%
%TF.FilePolarity,Negative*%
%FSLAX46Y46*%
G04 Gerber Fmt 4.6, Leading zero omitted, Abs format (unit mm)*
G04 Created by KiCad (PCBNEW 5.1.9-73d0e3b20d~88~ubuntu20.04.1) date 2021-02-05 22:52:16*
%MOMM*%
%LPD*%
G01*
G04 APERTURE LIST*
%ADD10C,5.700000*%
%ADD11O,1.800000X1.800000*%
G04 APERTURE END LIST*
D10*
%TO.C,H1*%
X143000000Y-69000000D03*
%TD*%
%TO.C,H2*%
X167000000Y-69000000D03*
%TD*%
%TO.C,H3*%
X143000000Y-104000000D03*
%TD*%
%TO.C,H4*%
X167000000Y-104140000D03*
%TD*%
%TO.C,J2*%
G36*
G01*
X155400000Y-76490000D02*
X155400000Y-74790000D01*
G75*
G02*
X155450000Y-74740000I50000J0D01*
G01*
X157150000Y-74740000D01*
G75*
G02*
X157200000Y-74790000I0J-50000D01*
G01*
X157200000Y-76490000D01*
G75*
G02*
X157150000Y-76540000I-50000J0D01*
G01*
X155450000Y-76540000D01*
G75*
G02*
X155400000Y-76490000I0J50000D01*
G01*
G37*
D11*
X153760000Y-75640000D03*
X156300000Y-78180000D03*
X153760000Y-78180000D03*
X156300000Y-80720000D03*
X153760000Y-80720000D03*
X156300000Y-83260000D03*
X153760000Y-83260000D03*
X156300000Y-85800000D03*
X153760000Y-85800000D03*
X156300000Y-88340000D03*
X153760000Y-88340000D03*
X156300000Y-90880000D03*
X153760000Y-90880000D03*
X156300000Y-93420000D03*
X153760000Y-93420000D03*
X156300000Y-95960000D03*
X153760000Y-95960000D03*
X156300000Y-98500000D03*
X153760000Y-98500000D03*
%TD*%
M02*
