EESchema Schematic File Version 2
LIBS:dac-rescue
LIBS:v-reg-2
LIBS:avr-1
LIBS:power
LIBS:ak4396
LIBS:tda1541
LIBS:device
LIBS:transistors
LIBS:conn
LIBS:linear
LIBS:regul
LIBS:74xx
LIBS:cmos4000
LIBS:adc-dac
LIBS:memory
LIBS:xilinx
LIBS:microcontrollers
LIBS:dsp
LIBS:microchip
LIBS:analog_switches
LIBS:motorola
LIBS:texas
LIBS:intel
LIBS:audio
LIBS:interface
LIBS:digital-audio
LIBS:philips
LIBS:display
LIBS:cypress
LIBS:siliconi
LIBS:opto
LIBS:atmel
LIBS:contrib
LIBS:valves
LIBS:linear2
LIBS:cs8416
LIBS:o_ttl
LIBS:dac-cache
EELAYER 25 0
EELAYER END
$Descr A4 11693 8268
encoding utf-8
Sheet 2 5
Title ""
Date "7 dec 2011"
Rev ""
Comp ""
Comment1 ""
Comment2 ""
Comment3 ""
Comment4 ""
$EndDescr
Wire Wire Line
	4300 5800 4150 5800
Wire Wire Line
	4150 5800 4150 5750
Wire Wire Line
	2400 2700 1950 2700
Wire Wire Line
	4150 3400 3650 3400
Wire Wire Line
	3650 3400 3000 3400
Wire Wire Line
	3000 3400 3000 3300
Wire Wire Line
	3050 2700 3000 2700
Wire Wire Line
	3000 2700 2900 2700
Connection ~ 3000 1450
Wire Wire Line
	2900 1450 3000 1450
Wire Wire Line
	3000 1450 3900 1450
Wire Wire Line
	3000 1750 3050 1750
Connection ~ 4850 2600
Wire Wire Line
	4850 1750 4350 1750
Wire Wire Line
	3650 1750 3650 2500
Wire Wire Line
	3650 2500 3750 2500
Wire Wire Line
	4300 2150 4150 2150
Wire Wire Line
	4150 2150 4150 2200
Wire Wire Line
	4150 3000 4150 3050
Wire Wire Line
	4150 3050 4300 3050
Wire Wire Line
	4750 2600 4850 2600
Wire Wire Line
	4850 2600 5750 2600
Wire Wire Line
	3550 1750 3650 1750
Wire Wire Line
	3650 1750 3950 1750
Connection ~ 3650 1750
Wire Wire Line
	4400 1450 4850 1450
Wire Wire Line
	4850 1450 4850 1750
Wire Wire Line
	4850 1750 4850 2600
Connection ~ 4850 1750
Connection ~ 3000 1750
Connection ~ 3000 2700
Wire Wire Line
	3550 2700 3650 2700
Wire Wire Line
	3650 2700 3750 2700
Wire Wire Line
	3650 2800 3650 2700
Connection ~ 3650 2700
Wire Wire Line
	3650 3200 3650 3400
Connection ~ 3650 3400
Wire Wire Line
	3000 2050 3000 1750
Wire Wire Line
	3000 1750 3000 1450
Wire Wire Line
	3000 2800 3000 2700
Wire Wire Line
	3000 2700 3000 2450
Wire Wire Line
	2400 1450 1950 1450
Wire Wire Line
	2400 5450 1950 5450
Wire Wire Line
	4150 6150 3650 6150
Wire Wire Line
	3650 6150 3000 6150
Wire Wire Line
	3000 6150 3000 6050
Wire Wire Line
	3050 5450 3000 5450
Wire Wire Line
	3000 5450 2900 5450
Connection ~ 3000 4200
Wire Wire Line
	2900 4200 3000 4200
Wire Wire Line
	3000 4200 3900 4200
Wire Wire Line
	3000 4500 3050 4500
Connection ~ 4850 5350
Wire Wire Line
	4850 4500 4350 4500
Wire Wire Line
	3650 4500 3650 5250
Wire Wire Line
	3650 5250 3750 5250
Wire Wire Line
	4300 4900 4150 4900
Wire Wire Line
	4150 4900 4150 4950
Wire Wire Line
	4750 5350 4850 5350
Wire Wire Line
	4850 5350 5750 5350
Wire Wire Line
	3550 4500 3650 4500
Wire Wire Line
	3650 4500 3950 4500
Connection ~ 3650 4500
Wire Wire Line
	4400 4200 4850 4200
Wire Wire Line
	4850 4200 4850 4500
Wire Wire Line
	4850 4500 4850 5350
Connection ~ 4850 4500
Connection ~ 3000 4500
Connection ~ 3000 5450
Wire Wire Line
	3550 5450 3650 5450
Wire Wire Line
	3650 5450 3750 5450
Wire Wire Line
	3650 5550 3650 5450
Connection ~ 3650 5450
Wire Wire Line
	3650 5950 3650 6150
Connection ~ 3650 6150
Wire Wire Line
	3000 4800 3000 4500
Wire Wire Line
	3000 4500 3000 4200
Wire Wire Line
	3000 5550 3000 5450
Wire Wire Line
	3000 5450 3000 5200
Wire Wire Line
	2400 4200 1950 4200
Text HLabel 1950 1450 0    60   Input ~ 0
AOUTL-
Text HLabel 1950 2700 0    60   Input ~ 0
AOUTL+
Text HLabel 5750 2600 2    60   Input ~ 0
AOUTL
Text HLabel 5750 5350 2    60   Input ~ 0
AOUTR
Text HLabel 1950 5450 0    60   Input ~ 0
AOUTR+
Text HLabel 1950 4200 0    60   Input ~ 0
AOUTR-
Text GLabel 4150 6150 2    60   Input ~ 0
GND
Text GLabel 4300 5800 2    60   Input ~ 0
+15VA
Text GLabel 4300 4900 2    60   Input ~ 0
-15VA
$Comp
L OP275-RESCUE-dac U6
U 2 1 4E29B635
P 4250 5350
F 0 "U6" H 4200 5550 60  0000 L CNN
F 1 "OP275" H 4200 5100 60  0000 L CNN
F 2 "" H 4250 5350 60  0001 C CNN
F 3 "" H 4250 5350 60  0001 C CNN
	2    4250 5350
	1    0    0    1   
$EndComp
$Comp
L R-RESCUE-dac R51
U 1 1 4E29B634
P 3300 5450
F 0 "R51" V 3380 5450 50  0000 C CNN
F 1 "150R" V 3300 5450 50  0000 C CNN
F 2 "" H 3300 5450 60  0001 C CNN
F 3 "" H 3300 5450 60  0001 C CNN
	1    3300 5450
	0    1    1    0   
$EndComp
$Comp
L R-RESCUE-dac R50
U 1 1 4E29B633
P 3300 4500
F 0 "R50" V 3380 4500 50  0000 C CNN
F 1 "150R" V 3300 4500 50  0000 C CNN
F 2 "" H 3300 4500 60  0001 C CNN
F 3 "" H 3300 4500 60  0001 C CNN
	1    3300 4500
	0    1    1    0   
$EndComp
$Comp
L C-RESCUE-dac C59
U 1 1 4E29B632
P 3000 5000
F 0 "C59" H 3050 5100 50  0000 L CNN
F 1 "3,3n" H 3050 4900 50  0000 L CNN
F 2 "" H 3000 5000 60  0001 C CNN
F 3 "" H 3000 5000 60  0001 C CNN
	1    3000 5000
	1    0    0    -1  
$EndComp
$Comp
L C-RESCUE-dac C63
U 1 1 4E29B631
P 4150 4500
F 0 "C63" H 4200 4600 50  0000 L CNN
F 1 "680p" H 4200 4400 50  0000 L CNN
F 2 "" H 4150 4500 60  0001 C CNN
F 3 "" H 4150 4500 60  0001 C CNN
	1    4150 4500
	0    1    1    0   
$EndComp
$Comp
L R-RESCUE-dac R47
U 1 1 4E29B630
P 3000 5800
F 0 "R47" V 3080 5800 50  0000 C CNN
F 1 "2,4K" V 3000 5800 50  0000 C CNN
F 2 "" H 3000 5800 60  0001 C CNN
F 3 "" H 3000 5800 60  0001 C CNN
	1    3000 5800
	1    0    0    -1  
$EndComp
$Comp
L R-RESCUE-dac R45
U 1 1 4E29B62F
P 2650 5450
F 0 "R45" V 2730 5450 50  0000 C CNN
F 1 "2,4K" V 2650 5450 50  0000 C CNN
F 2 "" H 2650 5450 60  0001 C CNN
F 3 "" H 2650 5450 60  0001 C CNN
	1    2650 5450
	0    1    1    0   
$EndComp
$Comp
L R-RESCUE-dac R44
U 1 1 4E29B62E
P 2650 4200
F 0 "R44" V 2730 4200 50  0000 C CNN
F 1 "2,4K" V 2650 4200 50  0000 C CNN
F 2 "" H 2650 4200 60  0001 C CNN
F 3 "" H 2650 4200 60  0001 C CNN
	1    2650 4200
	0    1    1    0   
$EndComp
$Comp
L R-RESCUE-dac R53
U 1 1 4E29B62D
P 4150 4200
F 0 "R53" V 4230 4200 50  0000 C CNN
F 1 "2,4K" V 4150 4200 50  0000 C CNN
F 2 "" H 4150 4200 60  0001 C CNN
F 3 "" H 4150 4200 60  0001 C CNN
	1    4150 4200
	0    1    1    0   
$EndComp
$Comp
L C-RESCUE-dac C61
U 1 1 4E29B62C
P 3650 5750
F 0 "C61" H 3700 5850 50  0000 L CNN
F 1 "680p" H 3700 5650 50  0000 L CNN
F 2 "" H 3650 5750 60  0001 C CNN
F 3 "" H 3650 5750 60  0001 C CNN
	1    3650 5750
	-1   0    0    1   
$EndComp
Text GLabel 4150 3400 2    60   Input ~ 0
GND
Text GLabel 4300 3050 2    60   Input ~ 0
+15VA
Text GLabel 4300 2150 2    60   Input ~ 0
-15VA
$Comp
L OP275-RESCUE-dac U6
U 1 1 4E29B4ED
P 4250 2600
F 0 "U6" H 4200 2800 60  0000 L CNN
F 1 "OP275" H 4200 2350 60  0000 L CNN
F 2 "" H 4250 2600 60  0001 C CNN
F 3 "" H 4250 2600 60  0001 C CNN
	1    4250 2600
	1    0    0    1   
$EndComp
$Comp
L R-RESCUE-dac R49
U 1 1 4E29B4E0
P 3300 2700
F 0 "R49" V 3380 2700 50  0000 C CNN
F 1 "150R" V 3300 2700 50  0000 C CNN
F 2 "" H 3300 2700 60  0001 C CNN
F 3 "" H 3300 2700 60  0001 C CNN
	1    3300 2700
	0    1    1    0   
$EndComp
$Comp
L R-RESCUE-dac R48
U 1 1 4E29B4DB
P 3300 1750
F 0 "R48" V 3380 1750 50  0000 C CNN
F 1 "150R" V 3300 1750 50  0000 C CNN
F 2 "" H 3300 1750 60  0001 C CNN
F 3 "" H 3300 1750 60  0001 C CNN
	1    3300 1750
	0    1    1    0   
$EndComp
$Comp
L C-RESCUE-dac C58
U 1 1 4E29B4D0
P 3000 2250
F 0 "C58" H 3050 2350 50  0000 L CNN
F 1 "3,3n" H 3050 2150 50  0000 L CNN
F 2 "" H 3000 2250 60  0001 C CNN
F 3 "" H 3000 2250 60  0001 C CNN
	1    3000 2250
	1    0    0    -1  
$EndComp
$Comp
L C-RESCUE-dac C62
U 1 1 4E29B4C0
P 4150 1750
F 0 "C62" H 4200 1850 50  0000 L CNN
F 1 "680p" H 4200 1650 50  0000 L CNN
F 2 "" H 4150 1750 60  0001 C CNN
F 3 "" H 4150 1750 60  0001 C CNN
	1    4150 1750
	0    1    1    0   
$EndComp
$Comp
L R-RESCUE-dac R46
U 1 1 4E29B4B8
P 3000 3050
F 0 "R46" V 3080 3050 50  0000 C CNN
F 1 "2,4K" V 3000 3050 50  0000 C CNN
F 2 "" H 3000 3050 60  0001 C CNN
F 3 "" H 3000 3050 60  0001 C CNN
	1    3000 3050
	1    0    0    -1  
$EndComp
$Comp
L R-RESCUE-dac R43
U 1 1 4E29B4B0
P 2650 2700
F 0 "R43" V 2730 2700 50  0000 C CNN
F 1 "2,4K" V 2650 2700 50  0000 C CNN
F 2 "" H 2650 2700 60  0001 C CNN
F 3 "" H 2650 2700 60  0001 C CNN
	1    2650 2700
	0    1    1    0   
$EndComp
$Comp
L R-RESCUE-dac R42
U 1 1 4E29B4AD
P 2650 1450
F 0 "R42" V 2730 1450 50  0000 C CNN
F 1 "2,4K" V 2650 1450 50  0000 C CNN
F 2 "" H 2650 1450 60  0001 C CNN
F 3 "" H 2650 1450 60  0001 C CNN
	1    2650 1450
	0    1    1    0   
$EndComp
$Comp
L R-RESCUE-dac R52
U 1 1 4E29B49F
P 4150 1450
F 0 "R52" V 4230 1450 50  0000 C CNN
F 1 "2,4K" V 4150 1450 50  0000 C CNN
F 2 "" H 4150 1450 60  0001 C CNN
F 3 "" H 4150 1450 60  0001 C CNN
	1    4150 1450
	0    1    1    0   
$EndComp
$Comp
L C-RESCUE-dac C60
U 1 1 4E29B499
P 3650 3000
F 0 "C60" H 3700 3100 50  0000 L CNN
F 1 "680p" H 3700 2900 50  0000 L CNN
F 2 "" H 3650 3000 60  0001 C CNN
F 3 "" H 3650 3000 60  0001 C CNN
	1    3650 3000
	-1   0    0    1   
$EndComp
$Comp
L OP275-RESCUE-dac U?
U 1 1 5BE3CFE4
P 8350 1700
F 0 "U?" H 8300 1900 60  0000 L CNN
F 1 "OP275" H 8300 1450 60  0000 L CNN
F 2 "" H 8350 1700 60  0001 C CNN
F 3 "" H 8350 1700 60  0001 C CNN
	1    8350 1700
	1    0    0    1   
$EndComp
$EndSCHEMATC
