EESchema Schematic File Version 2
LIBS:dac-rescue
LIBS:v-reg-2
LIBS:avr-1
LIBS:power
LIBS:ak4396
LIBS:tda1541
LIBS:device
LIBS:transistors
LIBS:conn
LIBS:linear
LIBS:regul
LIBS:74xx
LIBS:cmos4000
LIBS:adc-dac
LIBS:memory
LIBS:xilinx
LIBS:microcontrollers
LIBS:dsp
LIBS:microchip
LIBS:analog_switches
LIBS:motorola
LIBS:texas
LIBS:intel
LIBS:audio
LIBS:interface
LIBS:digital-audio
LIBS:philips
LIBS:display
LIBS:cypress
LIBS:siliconi
LIBS:opto
LIBS:atmel
LIBS:contrib
LIBS:valves
LIBS:linear2
LIBS:cs8416
LIBS:o_ttl
LIBS:dac-cache
EELAYER 25 0
EELAYER END
$Descr A4 11693 8268
encoding utf-8
Sheet 5 5
Title "noname.sch"
Date "7 dec 2011"
Rev ""
Comp ""
Comment1 ""
Comment2 ""
Comment3 ""
Comment4 ""
$EndDescr
Text Label 2250 6200 0    60   ~ 0
GND
Text Label 2250 5500 0    60   ~ 0
5VD
Connection ~ 1700 6200
Wire Wire Line
	1700 6100 1700 6200
Connection ~ 1700 5500
Wire Wire Line
	1700 5700 1700 5500
Connection ~ 7600 4100
Wire Wire Line
	7750 4100 7500 4100
Wire Wire Line
	7500 4100 7500 5200
Wire Wire Line
	7500 5200 5250 5200
Wire Wire Line
	7600 3500 7600 3300
Wire Wire Line
	7600 3300 6700 3300
Wire Wire Line
	5350 5300 5250 5300
Wire Wire Line
	5250 5000 5850 5000
Wire Wire Line
	5250 4800 5850 4800
Wire Wire Line
	5700 3400 5250 3400
Wire Wire Line
	5700 4300 5250 4300
Wire Wire Line
	6950 4100 5250 4100
Connection ~ 1400 2950
Wire Wire Line
	1400 3000 1400 2950
Connection ~ 1700 3650
Wire Wire Line
	1700 3650 1250 3650
Wire Wire Line
	1150 3000 1200 3000
Wire Wire Line
	1200 3000 1200 2950
Wire Wire Line
	1200 2950 1700 2950
Wire Wire Line
	1700 2950 1700 3050
Connection ~ 3350 4450
Wire Wire Line
	3350 3850 3350 6650
Wire Wire Line
	3350 3850 3050 3850
Connection ~ 10100 3700
Wire Wire Line
	10100 2750 10100 3700
Wire Wire Line
	10100 2550 10100 2100
Wire Wire Line
	10100 2100 5250 2100
Wire Wire Line
	7600 4300 7600 4500
Wire Wire Line
	7600 4300 7750 4300
Connection ~ 9550 3700
Wire Wire Line
	9800 3150 9800 3250
Wire Wire Line
	9550 2650 9550 2300
Wire Wire Line
	9550 2300 5250 2300
Connection ~ 9300 3700
Wire Wire Line
	9300 2650 9300 2400
Wire Wire Line
	9300 2400 5250 2400
Wire Wire Line
	5250 3700 5700 3700
Wire Wire Line
	7100 6350 7450 6350
Wire Wire Line
	8850 6400 8850 6300
Wire Wire Line
	9150 5700 8850 5700
Wire Wire Line
	8850 5700 8850 5800
Wire Wire Line
	9050 6600 9050 6700
Wire Wire Line
	9050 6700 9300 6700
Wire Wire Line
	7450 6400 7450 6300
Wire Wire Line
	7750 5700 7450 5700
Wire Wire Line
	7450 5700 7450 5800
Connection ~ 9050 3700
Connection ~ 8450 3700
Wire Wire Line
	9050 2650 9050 2450
Wire Wire Line
	9050 2450 7850 2450
Wire Wire Line
	7850 2450 7850 2500
Wire Wire Line
	7850 2500 5250 2500
Wire Wire Line
	8750 2650 8750 2500
Wire Wire Line
	8750 2500 7900 2500
Wire Wire Line
	7900 2500 7900 2600
Wire Wire Line
	8000 2600 8150 2600
Wire Wire Line
	8000 2600 8000 2800
Wire Wire Line
	8000 2800 5250 2800
Connection ~ 6900 3300
Connection ~ 6900 4000
Wire Wire Line
	6900 3850 6900 4000
Wire Wire Line
	5250 4000 6950 4000
Wire Wire Line
	650  2000 3200 2000
Wire Wire Line
	650  2000 650  3600
Wire Wire Line
	3650 2600 3050 2600
Wire Wire Line
	3050 2600 3050 3850
Wire Wire Line
	2100 4550 1700 4550
Connection ~ 1700 4250
Wire Wire Line
	1700 4250 2100 4250
Wire Wire Line
	8150 3650 8150 3700
Wire Wire Line
	3650 3400 3150 3400
Wire Wire Line
	650  3000 750  3000
Wire Wire Line
	650  3600 800  3600
Wire Wire Line
	6050 5300 5750 5300
Wire Wire Line
	6050 5400 5250 5400
Wire Wire Line
	8700 4850 9250 4850
Connection ~ 10150 4950
Wire Wire Line
	10150 4950 10050 4950
Connection ~ 10150 4750
Wire Wire Line
	10050 4750 10150 4750
Wire Wire Line
	5250 3200 5650 3200
Wire Wire Line
	5250 3000 5650 3000
Connection ~ 3000 1600
Wire Wire Line
	3000 1600 3650 1600
Wire Wire Line
	3650 1600 3650 2100
Wire Wire Line
	3000 1550 3000 1650
Wire Wire Line
	3000 1050 3000 950 
Wire Wire Line
	3200 2000 3200 1850
Wire Wire Line
	5250 3100 5650 3100
Wire Wire Line
	10050 4650 10150 4650
Wire Wire Line
	10150 4650 10150 5150
Wire Wire Line
	10150 5150 10400 5150
Wire Wire Line
	10050 4850 10150 4850
Connection ~ 10150 4850
Wire Wire Line
	10050 4550 10400 4550
Wire Wire Line
	8700 4550 9250 4550
Wire Wire Line
	8700 4750 9250 4750
Wire Wire Line
	8700 4950 9250 4950
Wire Wire Line
	6050 5500 5250 5500
Wire Wire Line
	6050 5600 5750 5600
Connection ~ 650  3000
Wire Wire Line
	8150 3150 8150 3250
Wire Wire Line
	8150 2600 8150 2650
Connection ~ 1700 3000
Wire Wire Line
	2000 3050 2000 3000
Connection ~ 2000 3000
Wire Wire Line
	1700 4350 2100 4350
Connection ~ 1700 4350
Wire Wire Line
	2200 3050 2200 3000
Wire Wire Line
	1700 4550 1700 3550
Wire Wire Line
	5250 3900 6950 3900
Wire Wire Line
	6700 3850 6700 3900
Connection ~ 6700 3900
Wire Wire Line
	6700 3300 6700 3350
Wire Wire Line
	2750 950  3250 950 
Connection ~ 3000 950 
Wire Wire Line
	8450 3700 8450 3650
Wire Wire Line
	8450 3150 8450 3250
Wire Wire Line
	8750 3700 8750 3650
Wire Wire Line
	8750 3150 8750 3250
Wire Wire Line
	9050 3700 9050 3650
Wire Wire Line
	9050 3150 9050 3250
Wire Wire Line
	5250 2700 7950 2700
Wire Wire Line
	7950 2700 7950 2550
Wire Wire Line
	7950 2550 8450 2550
Wire Wire Line
	8450 2550 8450 2650
Wire Wire Line
	7900 2600 5250 2600
Connection ~ 8750 3700
Wire Wire Line
	7650 6600 7650 6700
Wire Wire Line
	7650 6700 7900 6700
Wire Wire Line
	1800 2000 1800 1850
Connection ~ 1800 2000
Connection ~ 7450 6350
Wire Wire Line
	8850 6350 8550 6350
Connection ~ 8850 6350
Wire Wire Line
	5250 3600 5700 3600
Wire Wire Line
	9300 3700 9300 3650
Wire Wire Line
	9300 3150 9300 3250
Wire Wire Line
	9550 3700 9550 3650
Wire Wire Line
	9550 3150 9550 3250
Wire Wire Line
	5250 2200 9800 2200
Wire Wire Line
	9800 2200 9800 2650
Wire Wire Line
	9800 3700 9800 3650
Connection ~ 9800 3700
Wire Wire Line
	7600 4500 7700 4500
Wire Wire Line
	8150 3700 10250 3700
Wire Wire Line
	3350 4450 3300 4450
Wire Wire Line
	3350 6650 3950 6650
Wire Wire Line
	2200 3000 1700 3000
Wire Wire Line
	1200 3600 1250 3600
Wire Wire Line
	1250 3600 1250 3650
Wire Wire Line
	1400 3650 1400 3600
Connection ~ 1400 3650
Wire Wire Line
	5250 4200 5700 4200
Wire Wire Line
	5250 3300 5700 3300
Wire Wire Line
	5250 3500 5700 3500
Wire Wire Line
	5850 4900 5250 4900
Wire Wire Line
	5850 5100 5250 5100
Wire Wire Line
	3150 3400 3150 3450
Wire Wire Line
	3150 3250 3150 3300
Wire Wire Line
	3150 3300 3650 3300
Wire Wire Line
	6900 3350 6900 3300
Wire Wire Line
	7600 4100 7600 4000
Wire Wire Line
	1300 5700 1300 5500
Wire Wire Line
	1300 5500 2250 5500
Wire Wire Line
	1300 6100 1300 6200
Wire Wire Line
	1300 6200 2250 6200
$Comp
L C-RESCUE-dac C67
U 1 1 4E47AB5F
P 1700 5900
F 0 "C67" H 1750 6000 50  0000 L CNN
F 1 "1uF" H 1750 5800 50  0000 L CNN
F 2 "" H 1700 5900 60  0001 C CNN
F 3 "" H 1700 5900 60  0001 C CNN
	1    1700 5900
	1    0    0    -1  
$EndComp
$Comp
L C-RESCUE-dac C66
U 1 1 4E47AB50
P 1300 5900
F 0 "C66" H 1350 6000 50  0000 L CNN
F 1 "1uF" H 1350 5800 50  0000 L CNN
F 2 "" H 1300 5900 60  0001 C CNN
F 3 "" H 1300 5900 60  0001 C CNN
	1    1300 5900
	1    0    0    -1  
$EndComp
Text HLabel 3950 6650 2    60   Input ~ 0
OUT_SYNC_CLK
Text HLabel 6950 4000 2    60   Input ~ 0
SCL
Text HLabel 6950 3900 2    60   Input ~ 0
SDA
Text HLabel 5350 5300 2    60   Input ~ 0
INT0
Text HLabel 6950 4100 2    60   Input ~ 0
AUTORST
Text HLabel 5850 5100 2    60   Input ~ 0
AK4396CS/
Text HLabel 5850 5000 2    60   Input ~ 0
POWERDOWN
Text HLabel 5850 4900 2    60   Input ~ 0
CDTI
Text HLabel 5850 4800 2    60   Input ~ 0
CCLK
Text HLabel 5700 4200 2    60   Input ~ 0
OUT_GND_DISCONNECT
Text HLabel 5700 4300 2    60   Input ~ 0
OUT_GND_CONNECT
Text HLabel 5700 3300 2    60   Input ~ 0
OUTS2
Text HLabel 5700 3400 2    60   Input ~ 0
OUTS1
Text HLabel 5700 3500 2    60   Input ~ 0
OUTS0
$Comp
L GND-RESCUE-dac #PWR07
U 1 1 4E44F50D
P 3150 3450
F 0 "#PWR07" H 3150 3450 30  0001 C CNN
F 1 "GND" H 3150 3380 30  0001 C CNN
F 2 "" H 3150 3450 60  0001 C CNN
F 3 "" H 3150 3450 60  0001 C CNN
	1    3150 3450
	1    0    0    -1  
$EndComp
$Comp
L VCC #PWR08
U 1 1 4E44F4E9
P 3150 3250
F 0 "#PWR08" H 3150 3350 30  0001 C CNN
F 1 "VCC" H 3150 3350 30  0000 C CNN
F 2 "" H 3150 3250 60  0001 C CNN
F 3 "" H 3150 3250 60  0001 C CNN
	1    3150 3250
	1    0    0    -1  
$EndComp
$Comp
L CONN_2 P5
U 1 1 4E4408D1
P 10450 2650
F 0 "P5" V 10400 2650 40  0000 C CNN
F 1 "CONN_2" V 10500 2650 40  0000 C CNN
F 2 "" H 10450 2650 60  0001 C CNN
F 3 "" H 10450 2650 60  0001 C CNN
	1    10450 2650
	1    0    0    -1  
$EndComp
Text Label 7700 4500 0    60   ~ 0
GND
$Comp
L CONN_2 P3
U 1 1 4E2AA47D
P 8100 4200
F 0 "P3" V 8050 4200 40  0000 C CNN
F 1 "CONN_2" V 8150 4200 40  0000 C CNN
F 2 "" H 8100 4200 60  0001 C CNN
F 3 "" H 8100 4200 60  0001 C CNN
	1    8100 4200
	1    0    0    -1  
$EndComp
Text Label 6700 5200 0    60   ~ 0
DETC_POWROFF
$Comp
L R-RESCUE-dac R12
U 1 1 4E2AA423
P 7600 3750
F 0 "R12" V 7680 3750 50  0000 C CNN
F 1 "10K" V 7600 3750 50  0000 C CNN
F 2 "" H 7600 3750 60  0001 C CNN
F 3 "" H 7600 3750 60  0001 C CNN
	1    7600 3750
	-1   0    0    1   
$EndComp
Text Notes 10200 2000 0    60   ~ 0
44KHZCARTE
$Comp
L R-RESCUE-dac R23
U 1 1 4E29BDC9
P 9800 2900
F 0 "R23" V 9880 2900 50  0000 C CNN
F 1 "4,7K" V 9800 2900 50  0000 C CNN
F 2 "" H 9800 2900 60  0001 C CNN
F 3 "" H 9800 2900 60  0001 C CNN
	1    9800 2900
	-1   0    0    1   
$EndComp
$Comp
L LED-RESCUE-dac D9
U 1 1 4E29BDC8
P 9800 3450
F 0 "D9" H 9800 3550 50  0000 C CNN
F 1 "LED" H 9800 3350 50  0000 C CNN
F 2 "" H 9800 3450 60  0001 C CNN
F 3 "" H 9800 3450 60  0001 C CNN
	1    9800 3450
	0    1    1    0   
$EndComp
$Comp
L R-RESCUE-dac R22
U 1 1 4E29BD55
P 9550 2900
F 0 "R22" V 9630 2900 50  0000 C CNN
F 1 "4,7K" V 9550 2900 50  0000 C CNN
F 2 "" H 9550 2900 60  0001 C CNN
F 3 "" H 9550 2900 60  0001 C CNN
	1    9550 2900
	-1   0    0    1   
$EndComp
$Comp
L LED-RESCUE-dac D8
U 1 1 4E29BD54
P 9550 3450
F 0 "D8" H 9550 3550 50  0000 C CNN
F 1 "LED" H 9550 3350 50  0000 C CNN
F 2 "" H 9550 3450 60  0001 C CNN
F 3 "" H 9550 3450 60  0001 C CNN
	1    9550 3450
	0    1    1    0   
$EndComp
Text Notes 10200 1700 0    60   ~ 0
NO AUDIO
Text Label 10250 3700 0    60   ~ 0
GND
$Comp
L R-RESCUE-dac R21
U 1 1 4E29BCE8
P 9300 2900
F 0 "R21" V 9380 2900 50  0000 C CNN
F 1 "4,7K" V 9300 2900 50  0000 C CNN
F 2 "" H 9300 2900 60  0001 C CNN
F 3 "" H 9300 2900 60  0001 C CNN
	1    9300 2900
	-1   0    0    1   
$EndComp
$Comp
L LED-RESCUE-dac D7
U 1 1 4E29BCE7
P 9300 3450
F 0 "D7" H 9300 3550 50  0000 C CNN
F 1 "LED" H 9300 3350 50  0000 C CNN
F 2 "" H 9300 3450 60  0001 C CNN
F 3 "" H 9300 3450 60  0001 C CNN
	1    9300 3450
	0    1    1    0   
$EndComp
Text Notes 8000 1650 0    60   ~ 0
44/48
Text Notes 9500 1700 0    60   ~ 0
AK4369
Text Notes 9500 1350 0    60   ~ 0
ECH_PERDU
Text Notes 8650 1350 0    60   ~ 0
PLL SYNC
Text Notes 7950 1350 0    60   ~ 0
94/44
Text Label 8550 6350 0    60   ~ 0
IN2
Text Label 7100 6350 0    60   ~ 0
IN1
Text Label 5700 3700 0    60   ~ 0
IN1
Text Label 5700 3600 0    60   ~ 0
IN2
Text Label 9300 6700 0    60   ~ 0
GND
Text Label 9150 5700 0    60   ~ 0
5VD
$Comp
L R-RESCUE-dac R19
U 1 1 4E29BC03
P 8850 6050
F 0 "R19" V 8930 6050 50  0000 C CNN
F 1 "10K" V 8850 6050 50  0000 C CNN
F 2 "" H 8850 6050 60  0001 C CNN
F 3 "" H 8850 6050 60  0001 C CNN
	1    8850 6050
	1    0    0    -1  
$EndComp
$Comp
L SW_PUSH_SMALL SW3
U 1 1 4E29BC02
P 8950 6500
F 0 "SW3" H 9100 6610 30  0000 C CNN
F 1 "SW_PUSH_SMALL" H 8950 6421 30  0000 C CNN
F 2 "" H 8950 6500 60  0001 C CNN
F 3 "" H 8950 6500 60  0001 C CNN
	1    8950 6500
	1    0    0    -1  
$EndComp
Text Label 7900 6700 0    60   ~ 0
GND
Text GLabel 1800 1850 3    60   Input ~ 0
GND
Text Label 7750 5700 0    60   ~ 0
5VD
$Comp
L R-RESCUE-dac R15
U 1 1 4E29BB97
P 7450 6050
F 0 "R15" V 7530 6050 50  0000 C CNN
F 1 "10K" V 7450 6050 50  0000 C CNN
F 2 "" H 7450 6050 60  0001 C CNN
F 3 "" H 7450 6050 60  0001 C CNN
	1    7450 6050
	1    0    0    -1  
$EndComp
$Comp
L R-RESCUE-dac R20
U 1 1 4E29BB22
P 9050 2900
F 0 "R20" V 9130 2900 50  0000 C CNN
F 1 "4,7K" V 9050 2900 50  0000 C CNN
F 2 "" H 9050 2900 60  0001 C CNN
F 3 "" H 9050 2900 60  0001 C CNN
	1    9050 2900
	-1   0    0    1   
$EndComp
$Comp
L LED-RESCUE-dac D6
U 1 1 4E29BB21
P 9050 3450
F 0 "D6" H 9050 3550 50  0000 C CNN
F 1 "LED" H 9050 3350 50  0000 C CNN
F 2 "" H 9050 3450 60  0001 C CNN
F 3 "" H 9050 3450 60  0001 C CNN
	1    9050 3450
	0    1    1    0   
$EndComp
$Comp
L R-RESCUE-dac R18
U 1 1 4E29BB20
P 8750 2900
F 0 "R18" V 8830 2900 50  0000 C CNN
F 1 "4,7K" V 8750 2900 50  0000 C CNN
F 2 "" H 8750 2900 60  0001 C CNN
F 3 "" H 8750 2900 60  0001 C CNN
	1    8750 2900
	-1   0    0    1   
$EndComp
$Comp
L LED-RESCUE-dac D5
U 1 1 4E29BB1F
P 8750 3450
F 0 "D5" H 8750 3550 50  0000 C CNN
F 1 "LED" H 8750 3350 50  0000 C CNN
F 2 "" H 8750 3450 60  0001 C CNN
F 3 "" H 8750 3450 60  0001 C CNN
	1    8750 3450
	0    1    1    0   
$EndComp
$Comp
L R-RESCUE-dac R17
U 1 1 4E29BB14
P 8450 2900
F 0 "R17" V 8530 2900 50  0000 C CNN
F 1 "4,7k" V 8450 2900 50  0000 C CNN
F 2 "" H 8450 2900 60  0001 C CNN
F 3 "" H 8450 2900 60  0001 C CNN
	1    8450 2900
	-1   0    0    1   
$EndComp
$Comp
L LED-RESCUE-dac D4
U 1 1 4E29BB13
P 8450 3450
F 0 "D4" H 8450 3550 50  0000 C CNN
F 1 "LED" H 8450 3350 50  0000 C CNN
F 2 "" H 8450 3450 60  0001 C CNN
F 3 "" H 8450 3450 60  0001 C CNN
	1    8450 3450
	0    1    1    0   
$EndComp
$Comp
L SW_PUSH_SMALL SW2
U 1 1 4E295C15
P 7550 6500
F 0 "SW2" H 7700 6610 30  0000 C CNN
F 1 "SW_PUSH_SMALL" H 7550 6421 30  0000 C CNN
F 2 "" H 7550 6500 60  0001 C CNN
F 3 "" H 7550 6500 60  0001 C CNN
	1    7550 6500
	1    0    0    -1  
$EndComp
Text GLabel 3250 950  2    60   Input ~ 0
+5VD
Text Label 7150 3300 0    60   ~ 0
5VD
$Comp
L R-RESCUE-dac R14
U 1 1 4E294C02
P 6900 3600
F 0 "R14" V 6980 3600 50  0000 C CNN
F 1 "4,7K" V 6900 3600 50  0000 C CNN
F 2 "" H 6900 3600 60  0001 C CNN
F 3 "" H 6900 3600 60  0001 C CNN
	1    6900 3600
	1    0    0    -1  
$EndComp
$Comp
L R-RESCUE-dac R13
U 1 1 4E294BF4
P 6700 3600
F 0 "R13" V 6780 3600 50  0000 C CNN
F 1 "4,7K" V 6700 3600 50  0000 C CNN
F 2 "" H 6700 3600 60  0001 C CNN
F 3 "" H 6700 3600 60  0001 C CNN
	1    6700 3600
	1    0    0    -1  
$EndComp
Text Notes 3850 5850 0    60   ~ 0
ATMEGA8515-16AI
Text Notes 1100 2850 0    60   ~ 0
12.288 MHz
$Comp
L 74HCT00-RESCUE-dac U4
U 2 1 4E28A799
P 2700 4450
F 0 "U4" H 2700 4500 60  0000 C CNN
F 1 "74HCT00" H 2700 4350 60  0000 C CNN
F 2 "" H 2700 4450 60  0001 C CNN
F 3 "" H 2700 4450 60  0001 C CNN
	2    2700 4450
	1    0    0    -1  
$EndComp
$Comp
L 74HCT00-RESCUE-dac U4
U 1 1 4E28A754
P 2100 3650
F 0 "U4" H 2100 3700 60  0000 C CNN
F 1 "74HCT00" H 2100 3550 60  0000 C CNN
F 2 "" H 2100 3650 60  0001 C CNN
F 3 "" H 2100 3650 60  0001 C CNN
	1    2100 3650
	0    1    1    0   
$EndComp
$Comp
L R-RESCUE-dac R10
U 1 1 4E28A656
P 1700 3300
F 0 "R10" V 1780 3300 50  0000 C CNN
F 1 "10M" V 1700 3300 50  0000 C CNN
F 2 "" H 1700 3300 60  0001 C CNN
F 3 "" H 1700 3300 60  0001 C CNN
	1    1700 3300
	1    0    0    -1  
$EndComp
Text Label 3350 3400 0    60   ~ 0
GND
Text Label 3350 3300 0    60   ~ 0
5VD
$Comp
L C-RESCUE-dac C56
U 1 1 4E2733A8
P 1000 3600
F 0 "C56" H 1050 3700 50  0000 L CNN
F 1 "20p" H 1050 3500 50  0000 L CNN
F 2 "" H 1000 3600 60  0001 C CNN
F 3 "" H 1000 3600 60  0001 C CNN
	1    1000 3600
	0    1    1    0   
$EndComp
$Comp
L C-RESCUE-dac C55
U 1 1 4E2733A0
P 950 3000
F 0 "C55" H 1000 3100 50  0000 L CNN
F 1 "20p" H 1000 2900 50  0000 L CNN
F 2 "" H 950 3000 60  0001 C CNN
F 3 "" H 950 3000 60  0001 C CNN
	1    950  3000
	0    1    1    0   
$EndComp
$Comp
L CRYSTAL X1
U 1 1 4E27338D
P 1400 3300
F 0 "X1" H 1400 3450 60  0000 C CNN
F 1 "CRYSTAL" H 1400 3150 60  0000 C CNN
F 2 "" H 1400 3300 60  0001 C CNN
F 3 "" H 1400 3300 60  0001 C CNN
	1    1400 3300
	0    1    1    0   
$EndComp
Text Label 5750 5600 0    50   ~ 0
GND
Text Label 5750 5300 0    50   ~ 0
5VD
$Comp
L CONN_4 P2
U 1 1 4CA05DF3
P 6400 5450
F 0 "P2" V 6350 5450 50  0000 C CNN
F 1 "CONN_4" V 6450 5450 50  0000 C CNN
F 2 "" H 6400 5450 60  0001 C CNN
F 3 "" H 6400 5450 60  0001 C CNN
	1    6400 5450
	1    0    0    -1  
$EndComp
Text Label 5650 5400 0    50   ~ 0
PC_RX
Text Label 5650 5500 0    50   ~ 0
PC_TX
$Comp
L R-RESCUE-dac R16
U 1 1 4CA05CB7
P 8150 2900
F 0 "R16" V 8230 2900 50  0000 C CNN
F 1 "4,7k" V 8150 2900 50  0000 C CNN
F 2 "" H 8150 2900 60  0001 C CNN
F 3 "" H 8150 2900 60  0001 C CNN
	1    8150 2900
	-1   0    0    1   
$EndComp
$Comp
L LED-RESCUE-dac D3
U 1 1 4CA05CB4
P 8150 3450
F 0 "D3" H 8150 3550 50  0000 C CNN
F 1 "LED" H 8150 3350 50  0000 C CNN
F 2 "" H 8150 3450 60  0001 C CNN
F 3 "" H 8150 3450 60  0001 C CNN
	1    8150 3450
	0    1    1    0   
$EndComp
Text Label 8700 4750 0    60   ~ 0
RESET
Text Label 3450 1600 0    50   ~ 0
RESET
Text Label 8700 4850 0    60   ~ 0
AVR_SCK
Text Label 8700 4950 0    60   ~ 0
AVR_MISO
Text Label 8700 4550 0    60   ~ 0
AVR_MOSI
Text Label 10400 5150 0    60   ~ 0
GND
Text Label 10350 4550 0    60   ~ 0
5VD
Text Label 5650 3200 0    50   ~ 0
AVR_MOSI
Text Label 5650 3100 0    50   ~ 0
AVR_MISO
Text Label 5650 3000 0    50   ~ 0
AVR_SCK
Text Label 2750 950  0    50   ~ 0
5VD
Text Label 2350 2000 0    50   ~ 0
GND
$Comp
L R-RESCUE-dac R11
U 1 1 4CA056FD
P 3000 1300
F 0 "R11" V 3080 1300 50  0000 C CNN
F 1 "10K" V 3000 1300 50  0000 C CNN
F 2 "" H 3000 1300 60  0001 C CNN
F 3 "" H 3000 1300 60  0001 C CNN
	1    3000 1300
	1    0    0    -1  
$EndComp
$Comp
L CONN_5X2 P4
U 1 1 4C9F5DB2
P 9650 4750
F 0 "P4" H 9650 5050 60  0000 C CNN
F 1 "CONN_5X2" V 9650 4750 50  0000 C CNN
F 2 "" H 9650 4750 60  0001 C CNN
F 3 "" H 9650 4750 60  0001 C CNN
	1    9650 4750
	1    0    0    -1  
$EndComp
$Comp
L SW_PUSH_SMALL SW1
U 1 1 4C9F5D8B
P 3100 1750
F 0 "SW1" H 3250 1860 30  0000 C CNN
F 1 "SW_PUSH_SMALL" H 3100 1671 30  0000 C CNN
F 2 "" H 3100 1750 60  0001 C CNN
F 3 "" H 3100 1750 60  0001 C CNN
	1    3100 1750
	1    0    0    -1  
$EndComp
$Comp
L MEGA8515-A IC8
U 1 1 4C9F5D6B
P 4450 3600
F 0 "IC8" H 3850 5230 50  0000 L BNN
F 1 "MEGA8515-A" H 3850 1500 50  0000 L BNN
F 2 "avr-1-TQFP44" H 4450 3750 50  0001 C CNN
F 3 "" H 4450 3600 60  0001 C CNN
	1    4450 3600
	1    0    0    -1  
$EndComp
$EndSCHEMATC
