PCBNEW-LibModule-V1  2020-03-29 14:02:27
# encoding utf-8
Units mm
$INDEX
0533750310
$EndINDEX
$MODULE 0533750310
Po 0 0 0 15 5e809c63 00000000 ~~
Li 0533750310
Cd 0533750310-2
Kw Connector
Sc 0
At STD
AR 
Op 0 0 0
T0 3.300 -0.2 1.27 1.27 0 0.254 N V 21 N "J**"
T1 3.300 -0.2 1.27 1.27 0 0.254 N I 21 N "0533750310"
DS -1.65 -3.6 8.25 -3.6 0.2 24
DS 8.25 -3.6 8.25 3.2 0.2 24
DS 8.25 3.2 -1.65 3.2 0.2 24
DS -1.65 3.2 -1.65 -3.6 0.2 24
DS -1.65 -3.6 8.25 -3.6 0.1 21
DS 8.25 -3.6 8.25 3.2 0.1 21
DS 8.25 3.2 -1.65 3.2 0.1 21
DS -1.65 3.2 -1.65 -3.6 0.1 21
DS -2.65 -4.6 9.25 -4.6 0.1 24
DS 9.25 -4.6 9.25 4.2 0.1 24
DS 9.25 4.2 -2.65 4.2 0.1 24
DS -2.65 4.2 -2.65 -4.6 0.1 24
$PAD
Po 0.000 -0
Sh "1" C 1.650 1.650 0 0 900
Dr 1.1 0 0
At STD N 00E0FFFF
Ne 0 ""
$EndPAD
$PAD
Po 2.500 -0
Sh "2" C 1.650 1.650 0 0 900
Dr 1.1 0 0
At STD N 00E0FFFF
Ne 0 ""
$EndPAD
$PAD
Po 5.000 -0
Sh "3" C 1.650 1.650 0 0 900
Dr 1.1 0 0
At STD N 00E0FFFF
Ne 0 ""
$EndPAD
$PAD
Po 6.600 2.2
Sh "MH1" C 0.625 0.625 0 0 900
Dr 1.25 0 0
At STD N 00E0FFFF
Ne 0 ""
$EndPAD
$EndMODULE 0533750310
$EndLIBRARY
