EESchema Schematic File Version 4
EELAYER 30 0
EELAYER END
$Descr A4 11693 8268
encoding utf-8
Sheet 2 3
Title ""
Date ""
Rev ""
Comp ""
Comment1 ""
Comment2 ""
Comment3 ""
Comment4 ""
$EndDescr
$Comp
L Device:C C3
U 1 1 5ECF066A
P 2550 1800
F 0 "C3" H 2665 1846 50  0000 L CNN
F 1 "0.1uF" H 2665 1755 50  0000 L CNN
F 2 "Capacitor_SMD:C_0805_2012Metric_Pad1.15x1.40mm_HandSolder" H 2588 1650 50  0001 C CNN
F 3 "~" H 2550 1800 50  0001 C CNN
	1    2550 1800
	1    0    0    -1  
$EndComp
$Comp
L Device:C C7
U 1 1 5ECF0671
P 3350 2450
F 0 "C7" H 3465 2496 50  0000 L CNN
F 1 "0.1uF" H 3465 2405 50  0000 L CNN
F 2 "Capacitor_SMD:C_0805_2012Metric_Pad1.15x1.40mm_HandSolder" H 3388 2300 50  0001 C CNN
F 3 "~" H 3350 2450 50  0001 C CNN
	1    3350 2450
	0    1    1    0   
$EndComp
Wire Wire Line
	2550 2000 2550 1950
Wire Wire Line
	2550 1650 2550 1500
Wire Wire Line
	3500 2450 3550 2450
Wire Wire Line
	2550 1500 2800 1500
Wire Wire Line
	2550 2000 2800 2000
Text Label 9550 5200 0    50   ~ 0
3.3V
Text Label 2800 2000 0    50   ~ 0
GND
Text Label 3600 2450 0    50   ~ 0
TOSLINK1
$Comp
L Device:C C10
U 1 1 5ECF0686
P 4100 2350
F 0 "C10" H 4215 2396 50  0000 L CNN
F 1 "0.1uF" H 4215 2305 50  0000 L CNN
F 2 "Capacitor_SMD:C_0805_2012Metric_Pad1.15x1.40mm_HandSolder" H 4138 2200 50  0001 C CNN
F 3 "~" H 4100 2350 50  0001 C CNN
	1    4100 2350
	0    1    1    0   
$EndComp
Wire Wire Line
	4250 2350 4300 2350
Text Label 4350 2350 0    50   ~ 0
TOSLINK2
Wire Wire Line
	5200 3850 4800 3850
Wire Wire Line
	5200 3750 4800 3750
Text Label 4800 3750 0    50   ~ 0
TOSLINK2
Text Label 4800 3850 0    50   ~ 0
TOSLINK1
Wire Wire Line
	5200 3650 4800 3650
Wire Wire Line
	4800 3650 4800 3550
Wire Wire Line
	4800 3550 5200 3550
Wire Wire Line
	4800 3550 4600 3550
Connection ~ 4800 3550
Text Label 4600 3550 0    50   ~ 0
AGND
$Comp
L Device:C C8
U 1 1 5ECF0699
P 4450 3600
F 0 "C8" H 4565 3646 50  0000 L CNN
F 1 "0.1uF" H 4565 3555 50  0000 L CNN
F 2 "Capacitor_SMD:C_0805_2012Metric_Pad1.15x1.40mm_HandSolder" H 4488 3450 50  0001 C CNN
F 3 "~" H 4450 3600 50  0001 C CNN
	1    4450 3600
	-1   0    0    1   
$EndComp
$Comp
L Device:C C2
U 1 1 5ECF06A0
P 3700 4300
F 0 "C2" H 3815 4346 50  0000 L CNN
F 1 "0.1uF" H 3815 4255 50  0000 L CNN
F 2 "Capacitor_SMD:C_0805_2012Metric_Pad1.15x1.40mm_HandSolder" H 3738 4150 50  0001 C CNN
F 3 "~" H 3700 4300 50  0001 C CNN
	1    3700 4300
	-1   0    0    1   
$EndComp
$Comp
L Device:C C1
U 1 1 5ECF06A7
P 3450 4300
F 0 "C1" H 3565 4346 50  0000 L CNN
F 1 "0.1uF" H 3565 4255 50  0000 L CNN
F 2 "Capacitor_SMD:C_0805_2012Metric_Pad1.15x1.40mm_HandSolder" H 3488 4150 50  0001 C CNN
F 3 "~" H 3450 4300 50  0001 C CNN
	1    3450 4300
	-1   0    0    1   
$EndComp
$Comp
L Device:CP1 C6
U 1 1 5ECF06AE
P 4200 4300
F 0 "C6" H 4315 4346 50  0000 L CNN
F 1 "10uF15V" H 4315 4255 50  0000 L CNN
F 2 "Capacitor_SMD:CP_Elec_4x5.7" H 4200 4300 50  0001 C CNN
F 3 "~" H 4200 4300 50  0001 C CNN
	1    4200 4300
	1    0    0    -1  
$EndComp
$Comp
L Device:CP1 C4
U 1 1 5ECF06B5
P 3950 4300
F 0 "C4" H 4065 4346 50  0000 L CNN
F 1 "10uF15V" H 4065 4255 50  0000 L CNN
F 2 "Capacitor_SMD:CP_Elec_4x5.7" H 3950 4300 50  0001 C CNN
F 3 "~" H 3950 4300 50  0001 C CNN
	1    3950 4300
	1    0    0    -1  
$EndComp
$Comp
L Device:CP1 C12
U 1 1 5ECF06BC
P 8150 4750
F 0 "C12" H 8265 4796 50  0000 L CNN
F 1 "0.1uF" H 8265 4705 50  0000 L CNN
F 2 "Capacitor_SMD:C_0805_2012Metric_Pad1.15x1.40mm_HandSolder" H 8150 4750 50  0001 C CNN
F 3 "~" H 8150 4750 50  0001 C CNN
	1    8150 4750
	1    0    0    -1  
$EndComp
$Comp
L Device:CP1 C11
U 1 1 5ECF06C3
P 7700 4750
F 0 "C11" H 7815 4796 50  0000 L CNN
F 1 "0.1uF" H 7815 4705 50  0000 L CNN
F 2 "Capacitor_SMD:C_0805_2012Metric_Pad1.15x1.40mm_HandSolder" H 7700 4750 50  0001 C CNN
F 3 "~" H 7700 4750 50  0001 C CNN
	1    7700 4750
	1    0    0    -1  
$EndComp
$Comp
L Device:R R4
U 1 1 5ECF06D1
P 8400 4050
F 0 "R4" H 8470 4096 50  0000 L CNN
F 1 "47K" H 8470 4005 50  0000 L CNN
F 2 "Resistor_SMD:R_0805_2012Metric" V 8330 4050 50  0001 C CNN
F 3 "~" H 8400 4050 50  0001 C CNN
	1    8400 4050
	1    0    0    -1  
$EndComp
$Comp
L Device:R R1
U 1 1 5ECF06D8
P 4450 5000
F 0 "R1" H 4520 5046 50  0000 L CNN
F 1 "3K" H 4520 4955 50  0000 L CNN
F 2 "Resistor_SMD:R_0805_2012Metric" V 4380 5000 50  0001 C CNN
F 3 "~" H 4450 5000 50  0001 C CNN
	1    4450 5000
	1    0    0    -1  
$EndComp
Wire Wire Line
	5200 3950 4450 3950
Wire Wire Line
	4450 3950 4450 3750
Wire Wire Line
	4450 3450 4450 3350
Wire Wire Line
	4450 3350 4550 3350
Wire Wire Line
	5200 4050 4200 4050
Wire Wire Line
	3450 4050 3450 4150
Wire Wire Line
	3700 4150 3700 4050
Connection ~ 3700 4050
Wire Wire Line
	3700 4050 3450 4050
Wire Wire Line
	3950 4150 3950 4050
Connection ~ 3950 4050
Wire Wire Line
	3950 4050 3700 4050
Wire Wire Line
	4200 4150 4200 4050
Connection ~ 4200 4050
Wire Wire Line
	4200 4050 3950 4050
Text Label 3200 4050 0    50   ~ 0
3.3V
Wire Wire Line
	3200 4050 3450 4050
Wire Wire Line
	5200 4150 4350 4150
Wire Wire Line
	4350 4150 4350 4550
Wire Wire Line
	4350 4550 4200 4550
Wire Wire Line
	3450 4550 3450 4450
Wire Wire Line
	3700 4450 3700 4550
Connection ~ 3700 4550
Wire Wire Line
	3700 4550 3450 4550
Wire Wire Line
	3950 4450 3950 4550
Connection ~ 3950 4550
Wire Wire Line
	3950 4550 3700 4550
Wire Wire Line
	4200 4450 4200 4550
Connection ~ 4200 4550
Wire Wire Line
	4200 4550 3950 4550
Wire Wire Line
	5200 4450 5000 4450
Wire Wire Line
	5000 4450 5000 4550
Wire Wire Line
	5000 4750 5200 4750
Wire Wire Line
	5200 4650 5000 4650
Connection ~ 5000 4650
Wire Wire Line
	5000 4650 5000 4750
Wire Wire Line
	5000 4550 5200 4550
Connection ~ 5000 4550
Wire Wire Line
	5000 4550 5000 4650
Text Label 5000 4450 0    50   ~ 0
AGND
Wire Wire Line
	5200 4350 4750 4350
Wire Wire Line
	5200 4250 4450 4250
Wire Wire Line
	4450 4250 4450 4800
Text Label 4750 4350 0    50   ~ 0
RST\
Text Label 8300 5000 0    50   ~ 0
GND
Wire Wire Line
	7700 5000 7700 4900
Wire Wire Line
	6700 4250 7700 4250
Wire Wire Line
	7700 4250 7700 4600
Wire Wire Line
	7700 5000 8150 5000
Wire Wire Line
	8150 4900 8150 5000
Connection ~ 8150 5000
Wire Wire Line
	8150 5000 8300 5000
Wire Wire Line
	6700 4050 8150 4050
Wire Wire Line
	8150 4050 8150 4250
Wire Wire Line
	6700 4150 7050 4150
Text Label 7050 4150 0    50   ~ 0
GND
Wire Wire Line
	6700 4350 7050 4350
NoConn ~ 6700 4450
Text Label 7050 4350 0    50   ~ 0
INT0
Wire Wire Line
	6700 3850 7200 3850
Wire Wire Line
	6700 3950 7200 3950
Text Label 8000 4050 0    50   ~ 0
3.3V
Wire Wire Line
	7700 4250 8150 4250
Wire Wire Line
	8400 4250 8400 4200
Connection ~ 7700 4250
Wire Wire Line
	8400 3750 8400 3900
$Comp
L Device:C C5
U 1 1 5ECF0735
P 4000 5250
F 0 "C5" H 4115 5296 50  0000 L CNN
F 1 "1nF" H 4115 5205 50  0000 L CNN
F 2 "Capacitor_SMD:C_0805_2012Metric_Pad1.15x1.40mm_HandSolder" H 4038 5100 50  0001 C CNN
F 3 "~" H 4000 5250 50  0001 C CNN
	1    4000 5250
	-1   0    0    1   
$EndComp
$Comp
L Device:C C9
U 1 1 5ECF073C
P 4450 5400
F 0 "C9" H 4565 5446 50  0000 L CNN
F 1 "22nF" H 4565 5355 50  0000 L CNN
F 2 "Capacitor_SMD:C_0805_2012Metric_Pad1.15x1.40mm_HandSolder" H 4488 5250 50  0001 C CNN
F 3 "~" H 4450 5400 50  0001 C CNN
	1    4450 5400
	-1   0    0    1   
$EndComp
Connection ~ 8150 4250
Wire Wire Line
	8150 4250 8150 4600
Wire Wire Line
	8150 4250 8400 4250
Wire Wire Line
	5000 4850 5200 4850
Wire Wire Line
	4450 5150 4450 5250
Wire Wire Line
	4450 4800 4000 4800
Wire Wire Line
	4000 4800 4000 5100
Connection ~ 4450 4800
Wire Wire Line
	4450 4800 4450 4850
Wire Wire Line
	4450 5550 4000 5550
Wire Wire Line
	3450 5550 3450 4550
Connection ~ 3450 4550
Wire Wire Line
	4000 5400 4000 5550
Connection ~ 4000 5550
Wire Wire Line
	4000 5550 3450 5550
Text Label 3600 5550 0    50   ~ 0
AGND
Text Label 6950 3550 0    50   ~ 0
OLRCK
Text Label 6950 3650 0    50   ~ 0
OSCLK
Text Label 9500 3800 0    50   ~ 0
SDATA
Text Label 7200 3850 0    50   ~ 0
EXT_OMCK
Text Label 7200 3950 0    50   ~ 0
MCLK
Wire Wire Line
	6700 3750 8400 3750
$Comp
L Connector:TestPoint TP2
U 1 1 5ECF0763
P 4300 2450
F 0 "TP2" H 4242 2477 50  0000 R CNN
F 1 "TOSLNK2" H 4242 2568 50  0000 R CNN
F 2 "TestPoint:TestPoint_Pad_D2.0mm" H 4500 2450 50  0001 C CNN
F 3 "~" H 4500 2450 50  0001 C CNN
	1    4300 2450
	-1   0    0    1   
$EndComp
$Comp
L Connector:TestPoint TP1
U 1 1 5ECF076A
P 3550 2550
F 0 "TP1" H 3492 2577 50  0000 R CNN
F 1 "TOSLNK1" H 3492 2668 50  0000 R CNN
F 2 "TestPoint:TestPoint_Pad_D2.0mm" H 3750 2550 50  0001 C CNN
F 3 "~" H 3750 2550 50  0001 C CNN
	1    3550 2550
	-1   0    0    1   
$EndComp
Wire Wire Line
	4300 2350 4300 2450
Connection ~ 4300 2350
Wire Wire Line
	4300 2350 4350 2350
Wire Wire Line
	3550 2550 3550 2450
Connection ~ 3550 2450
Wire Wire Line
	3550 2450 3600 2450
$Comp
L Device:R R2
U 1 1 5ECF077F
P 7650 3350
F 0 "R2" V 7443 3350 50  0000 C CNN
F 1 "33R" V 7534 3350 50  0000 C CNN
F 2 "Resistor_SMD:R_0805_2012Metric" V 7580 3350 50  0001 C CNN
F 3 "~" H 7650 3350 50  0001 C CNN
	1    7650 3350
	0    1    1    0   
$EndComp
$Comp
L Device:R R3
U 1 1 5ECF0786
P 7650 3650
F 0 "R3" V 7443 3650 50  0000 C CNN
F 1 "33R" V 7534 3650 50  0000 C CNN
F 2 "Resistor_SMD:R_0805_2012Metric" V 7580 3650 50  0001 C CNN
F 3 "~" H 7650 3650 50  0001 C CNN
	1    7650 3650
	0    1    1    0   
$EndComp
$Comp
L Device:R R5
U 1 1 5ECF078D
P 8650 3750
F 0 "R5" V 8443 3750 50  0000 C CNN
F 1 "33R" V 8534 3750 50  0000 C CNN
F 2 "Resistor_SMD:R_0805_2012Metric" V 8580 3750 50  0001 C CNN
F 3 "~" H 8650 3750 50  0001 C CNN
	1    8650 3750
	0    1    1    0   
$EndComp
Wire Wire Line
	6700 3650 7500 3650
Wire Wire Line
	6700 3550 7350 3550
Wire Wire Line
	7350 3550 7350 3350
Wire Wire Line
	7350 3350 7500 3350
Wire Wire Line
	7800 3350 7950 3350
Wire Wire Line
	7800 3650 7950 3650
Wire Wire Line
	8400 3750 8500 3750
Connection ~ 8400 3750
Text Label 7950 3350 0    50   ~ 0
LRCKPSC
Text Label 7950 3650 0    50   ~ 0
SCLKPSC
Text HLabel 9900 3800 2    50   Input ~ 0
SDATA
Text HLabel 9900 3650 2    50   Input ~ 0
LRCK
Text HLabel 9900 3500 2    50   Input ~ 0
SCLK
Text HLabel 9900 3950 2    50   Input ~ 0
EXT_OMCK
Text HLabel 9900 4100 2    50   Input ~ 0
MCLK
Text HLabel 5400 5200 2    50   Input ~ 0
CS\
Text HLabel 5400 5350 2    50   Input ~ 0
CDIN
Text Label 9500 3650 0    50   ~ 0
LRCKPSC
Text Label 9500 3500 0    50   ~ 0
SCLKPSC
Text Label 9500 3950 0    50   ~ 0
EXT_OMCK
Text Label 7200 3850 0    50   ~ 0
EXT_OMCK
Text Label 7200 3950 0    50   ~ 0
MCLK
Text Label 9500 4100 0    50   ~ 0
MCLK
Text Label 5000 5200 0    50   ~ 0
CS\
Text Label 5000 5350 0    50   ~ 0
CDIN
Wire Wire Line
	9500 3500 9900 3500
Wire Wire Line
	9500 3650 9900 3650
Wire Wire Line
	9500 3950 9900 3950
Wire Wire Line
	9500 4100 9900 4100
Wire Wire Line
	5000 5200 5400 5200
Wire Wire Line
	5000 5350 5400 5350
Text HLabel 9950 5350 2    50   Input ~ 0
GND
Text HLabel 9950 5200 2    50   Input ~ 0
3.3V
Wire Wire Line
	9550 5200 9950 5200
Wire Wire Line
	9550 5350 9950 5350
Text Label 9550 5350 0    50   ~ 0
GND
Text HLabel 9900 4250 2    50   Input ~ 0
INT0
Wire Wire Line
	9900 4250 9500 4250
Text Label 9500 4250 0    50   ~ 0
INT0
Text HLabel 5400 5800 2    50   Input ~ 0
RESET
Wire Wire Line
	5400 5800 5000 5800
Text Label 5000 5800 0    50   ~ 0
RST\
Text Label 1750 1700 0    50   ~ 0
3.3V
Connection ~ 3450 4050
$Comp
L cs8416:CS8416uC U1
U 1 1 5F16DE8E
P 5750 5000
F 0 "U1" H 5950 6697 60  0000 C CNN
F 1 "CS8416uC" H 5950 6591 60  0000 C CNN
F 2 "Package_SO:SOIC-28W_7.5x17.9mm_P1.27mm" H 5750 5000 50  0001 C CNN
F 3 "" H 5750 5000 50  0001 C CNN
	1    5750 5000
	1    0    0    -1  
$EndComp
Text HLabel 5400 5500 2    50   Input ~ 0
CCLK
Text HLabel 5400 5650 2    50   Output ~ 0
CDOUT
Wire Wire Line
	5000 5500 5400 5500
Wire Wire Line
	5400 5650 5000 5650
Text Label 5000 5500 0    50   ~ 0
CCLK
Text Label 5000 5650 0    50   ~ 0
CDOUT
Text Label 6900 4750 0    50   ~ 0
CCLK
Text Label 6900 4650 0    50   ~ 0
CDOUT
Text Label 6900 4850 0    50   ~ 0
CDIN
Wire Wire Line
	6700 4850 6900 4850
Wire Wire Line
	6700 4750 6900 4750
Wire Wire Line
	6900 4650 6700 4650
Text Label 5000 4850 0    50   ~ 0
CS\
NoConn ~ 6700 4550
$Comp
L Mechanical:MountingHole_Pad H1
U 1 1 5FA07C86
P 8050 1550
F 0 "H1" V 8004 1700 50  0000 L CNN
F 1 "MountingHole_Pad" V 8095 1700 50  0000 L CNN
F 2 "MountingHole:MountingHole_3.2mm_M3_Pad" H 8050 1550 50  0001 C CNN
F 3 "~" H 8050 1550 50  0001 C CNN
	1    8050 1550
	0    1    1    0   
$EndComp
$Comp
L Mechanical:MountingHole_Pad H2
U 1 1 5FA0A6E3
P 8050 1750
F 0 "H2" V 8004 1900 50  0000 L CNN
F 1 "MountingHole_Pad" V 8095 1900 50  0000 L CNN
F 2 "MountingHole:MountingHole_3.2mm_M3_Pad" H 8050 1750 50  0001 C CNN
F 3 "~" H 8050 1750 50  0001 C CNN
	1    8050 1750
	0    1    1    0   
$EndComp
$Comp
L Mechanical:MountingHole_Pad H3
U 1 1 5FA0AD2F
P 8050 1950
F 0 "H3" V 8004 2100 50  0000 L CNN
F 1 "MountingHole_Pad" V 8095 2100 50  0000 L CNN
F 2 "MountingHole:MountingHole_3.2mm_M3_Pad" H 8050 1950 50  0001 C CNN
F 3 "~" H 8050 1950 50  0001 C CNN
	1    8050 1950
	0    1    1    0   
$EndComp
$Comp
L Mechanical:MountingHole_Pad H4
U 1 1 5FA0AD39
P 8050 2150
F 0 "H4" V 8004 2300 50  0000 L CNN
F 1 "MountingHole_Pad" V 8095 2300 50  0000 L CNN
F 2 "MountingHole:MountingHole_3.2mm_M3_Pad" H 8050 2150 50  0001 C CNN
F 3 "~" H 8050 2150 50  0001 C CNN
	1    8050 2150
	0    1    1    0   
$EndComp
Wire Wire Line
	7950 1550 7850 1550
Wire Wire Line
	7850 1550 7850 1750
Wire Wire Line
	7850 2150 7950 2150
Wire Wire Line
	7950 1950 7850 1950
Connection ~ 7850 1950
Wire Wire Line
	7850 1950 7850 2150
Wire Wire Line
	7850 1950 7850 1750
Wire Wire Line
	7850 1750 7950 1750
Connection ~ 7850 1750
Wire Wire Line
	7850 2150 7450 2150
Connection ~ 7850 2150
Text Label 7450 2150 0    50   ~ 0
GND
Wire Wire Line
	9250 3800 9250 3750
Wire Wire Line
	8800 3750 9250 3750
Wire Wire Line
	9250 3800 9900 3800
Text Label 6950 3750 0    50   ~ 0
SDOUT
Text Label 4550 3350 0    50   ~ 0
AGND
Text Label 4200 3350 0    50   ~ 0
GND
Wire Wire Line
	4450 3350 4200 3350
Connection ~ 4450 3350
Text Label 2350 2450 0    50   ~ 0
IN2
$Comp
L toslinkModule-rescue:ToslinkIn-tosLinkIO U4
U 1 1 60B213CD
P 1450 2200
F 0 "U4" H 1519 2035 50  0000 C CNN
F 1 "ToslinkIn" H 1519 2126 50  0000 C CNN
F 2 "lib:FCR684205R" H 1650 2250 50  0001 C CNN
F 3 "" H 1650 2250 50  0001 C CNN
	1    1450 2200
	-1   0    0    1   
$EndComp
Wire Wire Line
	1550 2250 1750 2250
Wire Wire Line
	1550 2350 1750 2350
Text Label 1750 2350 0    50   ~ 0
GND
$Comp
L toslinkModule-rescue:ToslinkIn-tosLinkIO U3
U 1 1 60B213D9
P 1450 1650
F 0 "U3" H 1519 1485 50  0000 C CNN
F 1 "ToslinkIn" H 1519 1576 50  0000 C CNN
F 2 "lib:FCR684205R" H 1650 1700 50  0001 C CNN
F 3 "" H 1650 1700 50  0001 C CNN
	1    1450 1650
	-1   0    0    1   
$EndComp
Text Label 2350 2350 0    50   ~ 0
IN1
Wire Wire Line
	1550 1900 2200 1900
Text Label 1750 1800 0    50   ~ 0
GND
Wire Wire Line
	1550 1800 1750 1800
Text Label 1750 2250 0    50   ~ 0
3.3V
Wire Wire Line
	1550 1700 1750 1700
Text Label 2800 1500 0    50   ~ 0
3.3V
Wire Wire Line
	3950 2350 2200 2350
Wire Wire Line
	2200 2350 2200 1900
Wire Wire Line
	1550 2450 3200 2450
$EndSCHEMATC
