(export (version D)
  (design
    (source /home/patrick/git/modac/schematics/toslinkModule/toslinkModule.sch)
    (date "sam. 10 juil. 2021 21:04:11")
    (tool "Eeschema 5.1.9-73d0e3b20d~88~ubuntu20.04.1")
    (sheet (number 1) (name /) (tstamps /)
      (title_block
        (title)
        (company)
        (rev)
        (date)
        (source toslinkModule.sch)
        (comment (number 1) (value ""))
        (comment (number 2) (value ""))
        (comment (number 3) (value ""))
        (comment (number 4) (value ""))))
    (sheet (number 2) (name /Sheet5F167DA8/) (tstamps /5F167DA9/)
      (title_block
        (title)
        (company)
        (rev)
        (date)
        (source toslinkInOut.sch)
        (comment (number 1) (value ""))
        (comment (number 2) (value ""))
        (comment (number 3) (value ""))
        (comment (number 4) (value ""))))
    (sheet (number 3) (name /Sheet5F1DCDD5/) (tstamps /5F1DCDD6/)
      (title_block
        (title)
        (company)
        (rev)
        (date)
        (source identifier.sch)
        (comment (number 1) (value ""))
        (comment (number 2) (value ""))
        (comment (number 3) (value ""))
        (comment (number 4) (value "")))))
  (components
    (comp (ref J1)
      (value Conn_01x12_Female)
      (footprint lib:ConnectorMicromatch-12)
      (datasheet ~)
      (libsource (lib Connector) (part Conn_01x12_Female) (description "Generic connector, single row, 01x12, script generated (kicad-library-utils/schlib/autogen/connector/)"))
      (sheetpath (names /) (tstamps /))
      (tstamp 60B07449))
    (comp (ref C3)
      (value 0.1uF)
      (footprint Capacitor_SMD:C_0805_2012Metric_Pad1.15x1.40mm_HandSolder)
      (datasheet ~)
      (libsource (lib Device) (part C) (description "Unpolarized capacitor"))
      (sheetpath (names /Sheet5F167DA8/) (tstamps /5F167DA9/))
      (tstamp 5ECF066A))
    (comp (ref C7)
      (value 0.1uF)
      (footprint Capacitor_SMD:C_0805_2012Metric_Pad1.15x1.40mm_HandSolder)
      (datasheet ~)
      (libsource (lib Device) (part C) (description "Unpolarized capacitor"))
      (sheetpath (names /Sheet5F167DA8/) (tstamps /5F167DA9/))
      (tstamp 5ECF0671))
    (comp (ref C10)
      (value 0.1uF)
      (footprint Capacitor_SMD:C_0805_2012Metric_Pad1.15x1.40mm_HandSolder)
      (datasheet ~)
      (libsource (lib Device) (part C) (description "Unpolarized capacitor"))
      (sheetpath (names /Sheet5F167DA8/) (tstamps /5F167DA9/))
      (tstamp 5ECF0686))
    (comp (ref C8)
      (value 0.1uF)
      (footprint Capacitor_SMD:C_0805_2012Metric_Pad1.15x1.40mm_HandSolder)
      (datasheet ~)
      (libsource (lib Device) (part C) (description "Unpolarized capacitor"))
      (sheetpath (names /Sheet5F167DA8/) (tstamps /5F167DA9/))
      (tstamp 5ECF0699))
    (comp (ref C2)
      (value 0.1uF)
      (footprint Capacitor_SMD:C_0805_2012Metric_Pad1.15x1.40mm_HandSolder)
      (datasheet ~)
      (libsource (lib Device) (part C) (description "Unpolarized capacitor"))
      (sheetpath (names /Sheet5F167DA8/) (tstamps /5F167DA9/))
      (tstamp 5ECF06A0))
    (comp (ref C1)
      (value 0.1uF)
      (footprint Capacitor_SMD:C_0805_2012Metric_Pad1.15x1.40mm_HandSolder)
      (datasheet ~)
      (libsource (lib Device) (part C) (description "Unpolarized capacitor"))
      (sheetpath (names /Sheet5F167DA8/) (tstamps /5F167DA9/))
      (tstamp 5ECF06A7))
    (comp (ref C6)
      (value 10uF15V)
      (footprint Capacitor_SMD:CP_Elec_4x5.7)
      (datasheet ~)
      (libsource (lib Device) (part CP1) (description "Polarized capacitor, US symbol"))
      (sheetpath (names /Sheet5F167DA8/) (tstamps /5F167DA9/))
      (tstamp 5ECF06AE))
    (comp (ref C4)
      (value 10uF15V)
      (footprint Capacitor_SMD:CP_Elec_4x5.7)
      (datasheet ~)
      (libsource (lib Device) (part CP1) (description "Polarized capacitor, US symbol"))
      (sheetpath (names /Sheet5F167DA8/) (tstamps /5F167DA9/))
      (tstamp 5ECF06B5))
    (comp (ref C12)
      (value 0.1uF)
      (footprint Capacitor_SMD:C_0805_2012Metric_Pad1.15x1.40mm_HandSolder)
      (datasheet ~)
      (libsource (lib Device) (part CP1) (description "Polarized capacitor, US symbol"))
      (sheetpath (names /Sheet5F167DA8/) (tstamps /5F167DA9/))
      (tstamp 5ECF06BC))
    (comp (ref C11)
      (value 0.1uF)
      (footprint Capacitor_SMD:C_0805_2012Metric_Pad1.15x1.40mm_HandSolder)
      (datasheet ~)
      (libsource (lib Device) (part CP1) (description "Polarized capacitor, US symbol"))
      (sheetpath (names /Sheet5F167DA8/) (tstamps /5F167DA9/))
      (tstamp 5ECF06C3))
    (comp (ref R4)
      (value 47K)
      (footprint Resistor_SMD:R_0805_2012Metric)
      (datasheet ~)
      (libsource (lib Device) (part R) (description Resistor))
      (sheetpath (names /Sheet5F167DA8/) (tstamps /5F167DA9/))
      (tstamp 5ECF06D1))
    (comp (ref R1)
      (value 3K)
      (footprint Resistor_SMD:R_0805_2012Metric)
      (datasheet ~)
      (libsource (lib Device) (part R) (description Resistor))
      (sheetpath (names /Sheet5F167DA8/) (tstamps /5F167DA9/))
      (tstamp 5ECF06D8))
    (comp (ref C5)
      (value 1nF)
      (footprint Capacitor_SMD:C_0805_2012Metric_Pad1.15x1.40mm_HandSolder)
      (datasheet ~)
      (libsource (lib Device) (part C) (description "Unpolarized capacitor"))
      (sheetpath (names /Sheet5F167DA8/) (tstamps /5F167DA9/))
      (tstamp 5ECF0735))
    (comp (ref C9)
      (value 22nF)
      (footprint Capacitor_SMD:C_0805_2012Metric_Pad1.15x1.40mm_HandSolder)
      (datasheet ~)
      (libsource (lib Device) (part C) (description "Unpolarized capacitor"))
      (sheetpath (names /Sheet5F167DA8/) (tstamps /5F167DA9/))
      (tstamp 5ECF073C))
    (comp (ref TP2)
      (value TOSLNK2)
      (footprint TestPoint:TestPoint_Pad_D2.0mm)
      (datasheet ~)
      (libsource (lib Connector) (part TestPoint) (description "test point"))
      (sheetpath (names /Sheet5F167DA8/) (tstamps /5F167DA9/))
      (tstamp 5ECF0763))
    (comp (ref TP1)
      (value TOSLNK1)
      (footprint TestPoint:TestPoint_Pad_D2.0mm)
      (datasheet ~)
      (libsource (lib Connector) (part TestPoint) (description "test point"))
      (sheetpath (names /Sheet5F167DA8/) (tstamps /5F167DA9/))
      (tstamp 5ECF076A))
    (comp (ref R2)
      (value 33R)
      (footprint Resistor_SMD:R_0805_2012Metric)
      (datasheet ~)
      (libsource (lib Device) (part R) (description Resistor))
      (sheetpath (names /Sheet5F167DA8/) (tstamps /5F167DA9/))
      (tstamp 5ECF077F))
    (comp (ref R3)
      (value 33R)
      (footprint Resistor_SMD:R_0805_2012Metric)
      (datasheet ~)
      (libsource (lib Device) (part R) (description Resistor))
      (sheetpath (names /Sheet5F167DA8/) (tstamps /5F167DA9/))
      (tstamp 5ECF0786))
    (comp (ref R5)
      (value 33R)
      (footprint Resistor_SMD:R_0805_2012Metric)
      (datasheet ~)
      (libsource (lib Device) (part R) (description Resistor))
      (sheetpath (names /Sheet5F167DA8/) (tstamps /5F167DA9/))
      (tstamp 5ECF078D))
    (comp (ref U1)
      (value CS8416uC)
      (footprint Package_SO:SOIC-28W_7.5x17.9mm_P1.27mm)
      (libsource (lib cs8416) (part CS8416uC) (description ""))
      (sheetpath (names /Sheet5F167DA8/) (tstamps /5F167DA9/))
      (tstamp 5F16DE8E))
    (comp (ref H1)
      (value MountingHole_Pad)
      (footprint MountingHole:MountingHole_3.2mm_M3_Pad)
      (datasheet ~)
      (libsource (lib Mechanical) (part MountingHole_Pad) (description "Mounting Hole with connection"))
      (sheetpath (names /Sheet5F167DA8/) (tstamps /5F167DA9/))
      (tstamp 5FA07C86))
    (comp (ref H2)
      (value MountingHole_Pad)
      (footprint MountingHole:MountingHole_3.2mm_M3_Pad)
      (datasheet ~)
      (libsource (lib Mechanical) (part MountingHole_Pad) (description "Mounting Hole with connection"))
      (sheetpath (names /Sheet5F167DA8/) (tstamps /5F167DA9/))
      (tstamp 5FA0A6E3))
    (comp (ref H3)
      (value MountingHole_Pad)
      (footprint MountingHole:MountingHole_3.2mm_M3_Pad)
      (datasheet ~)
      (libsource (lib Mechanical) (part MountingHole_Pad) (description "Mounting Hole with connection"))
      (sheetpath (names /Sheet5F167DA8/) (tstamps /5F167DA9/))
      (tstamp 5FA0AD2F))
    (comp (ref H4)
      (value MountingHole_Pad)
      (footprint MountingHole:MountingHole_3.2mm_M3_Pad)
      (datasheet ~)
      (libsource (lib Mechanical) (part MountingHole_Pad) (description "Mounting Hole with connection"))
      (sheetpath (names /Sheet5F167DA8/) (tstamps /5F167DA9/))
      (tstamp 5FA0AD39))
    (comp (ref U4)
      (value ToslinkIn)
      (footprint lib:FCR684205R)
      (libsource (lib toslinkModule-rescue) (part ToslinkIn-tosLinkIO) (description ""))
      (sheetpath (names /Sheet5F167DA8/) (tstamps /5F167DA9/))
      (tstamp 60B213CD))
    (comp (ref U3)
      (value ToslinkIn)
      (footprint lib:FCR684205R)
      (libsource (lib toslinkModule-rescue) (part ToslinkIn-tosLinkIO) (description ""))
      (sheetpath (names /Sheet5F167DA8/) (tstamps /5F167DA9/))
      (tstamp 60B213D9))
    (comp (ref U2)
      (value AT25xxx)
      (footprint Package_SO:SOIC-8_3.9x4.9mm_P1.27mm)
      (datasheet http://ww1.microchip.com/downloads/en/DeviceDoc/Atmel-8707-SEEPROM-AT25010B-020B-040B-Datasheet.pdf)
      (libsource (lib Memory_EEPROM) (part AT25xxx) (description "Microchip SPI Serial EEPROM, DIP-8/SOIC-8/TSSOP-8"))
      (sheetpath (names /Sheet5F1DCDD5/) (tstamps /5F1DCDD6/))
      (tstamp 5EC8AF81)))
  (libparts
    (libpart (lib Connector) (part Conn_01x12_Female)
      (description "Generic connector, single row, 01x12, script generated (kicad-library-utils/schlib/autogen/connector/)")
      (docs ~)
      (footprints
        (fp Connector*:*_1x??_*))
      (fields
        (field (name Reference) J)
        (field (name Value) Conn_01x12_Female))
      (pins
        (pin (num 1) (name Pin_1) (type passive))
        (pin (num 2) (name Pin_2) (type passive))
        (pin (num 3) (name Pin_3) (type passive))
        (pin (num 4) (name Pin_4) (type passive))
        (pin (num 5) (name Pin_5) (type passive))
        (pin (num 6) (name Pin_6) (type passive))
        (pin (num 7) (name Pin_7) (type passive))
        (pin (num 8) (name Pin_8) (type passive))
        (pin (num 9) (name Pin_9) (type passive))
        (pin (num 10) (name Pin_10) (type passive))
        (pin (num 11) (name Pin_11) (type passive))
        (pin (num 12) (name Pin_12) (type passive))))
    (libpart (lib Connector) (part TestPoint)
      (description "test point")
      (docs ~)
      (footprints
        (fp Pin*)
        (fp Test*))
      (fields
        (field (name Reference) TP)
        (field (name Value) TestPoint))
      (pins
        (pin (num 1) (name 1) (type passive))))
    (libpart (lib Device) (part C)
      (description "Unpolarized capacitor")
      (docs ~)
      (footprints
        (fp C_*))
      (fields
        (field (name Reference) C)
        (field (name Value) C))
      (pins
        (pin (num 1) (name ~) (type passive))
        (pin (num 2) (name ~) (type passive))))
    (libpart (lib Device) (part CP1)
      (description "Polarized capacitor, US symbol")
      (docs ~)
      (footprints
        (fp CP_*))
      (fields
        (field (name Reference) C)
        (field (name Value) CP1))
      (pins
        (pin (num 1) (name ~) (type passive))
        (pin (num 2) (name ~) (type passive))))
    (libpart (lib Device) (part R)
      (description Resistor)
      (docs ~)
      (footprints
        (fp R_*))
      (fields
        (field (name Reference) R)
        (field (name Value) R))
      (pins
        (pin (num 1) (name ~) (type passive))
        (pin (num 2) (name ~) (type passive))))
    (libpart (lib Mechanical) (part MountingHole_Pad)
      (description "Mounting Hole with connection")
      (docs ~)
      (footprints
        (fp MountingHole*Pad*))
      (fields
        (field (name Reference) H)
        (field (name Value) MountingHole_Pad))
      (pins
        (pin (num 1) (name 1) (type input))))
    (libpart (lib Memory_EEPROM) (part 25LCxxx)
      (aliases
        (alias BR25Sxxx)
        (alias CAT250xxx)
        (alias AT25xxx))
      (description "SPI Serial EEPROM, DIP-8/SOIC-8/TSSOP-8")
      (docs http://ww1.microchip.com/downloads/en/DeviceDoc/21832H.pdf)
      (footprints
        (fp DIP*W7.62mm*)
        (fp SOIC*3.9x4.9mm*)
        (fp TSSOP*4.4x3mm*P0.65mm*))
      (fields
        (field (name Reference) U)
        (field (name Value) 25LCxxx))
      (pins
        (pin (num 1) (name ~CS) (type input))
        (pin (num 2) (name MISO) (type 3state))
        (pin (num 3) (name ~WP) (type input))
        (pin (num 4) (name GND) (type power_in))
        (pin (num 5) (name MOSI) (type input))
        (pin (num 6) (name SCK) (type input))
        (pin (num 7) (name ~HOLD) (type input))
        (pin (num 8) (name VCC) (type power_in))))
    (libpart (lib cs8416) (part CS8416uC)
      (fields
        (field (name Reference) U)
        (field (name Value) CS8416uC))
      (pins
        (pin (num 1) (name RXP3) (type input))
        (pin (num 2) (name RXP2) (type input))
        (pin (num 3) (name RXP1) (type input))
        (pin (num 4) (name RXP0) (type input))
        (pin (num 5) (name RXN) (type input))
        (pin (num 6) (name VA) (type input))
        (pin (num 7) (name AGND) (type input))
        (pin (num 8) (name FILT) (type input))
        (pin (num 9) (name /RST) (type input))
        (pin (num 10) (name RXP4) (type input))
        (pin (num 11) (name RXP5) (type input))
        (pin (num 12) (name RXP6) (type input))
        (pin (num 13) (name RXP7) (type input))
        (pin (num 14) (name AD0/CS) (type input))
        (pin (num 15) (name AD1/CDIN) (type input))
        (pin (num 16) (name SDL/CCLK) (type input))
        (pin (num 17) (name SDA/CDOUT) (type output))
        (pin (num 18) (name AD2/GPO2) (type output))
        (pin (num 19) (name GPO1) (type output))
        (pin (num 20) (name GPO0) (type output))
        (pin (num 21) (name VL) (type input))
        (pin (num 22) (name DGND) (type input))
        (pin (num 23) (name VD) (type input))
        (pin (num 24) (name RMCK) (type output))
        (pin (num 25) (name OMCK) (type input))
        (pin (num 26) (name SDOUT) (type output))
        (pin (num 27) (name OSCLK) (type BiDi))
        (pin (num 28) (name OLRCK) (type BiDi))))
    (libpart (lib toslinkModule-rescue) (part ToslinkIn-tosLinkIO)
      (fields
        (field (name Reference) U)
        (field (name Value) ToslinkIn-tosLinkIO))
      (pins
        (pin (num 1) (name VOUT) (type output))
        (pin (num 2) (name GND) (type input))
        (pin (num 3) (name VCC) (type input)))))
  (libraries
    (library (logical Connector)
      (uri /usr/share/kicad/library/Connector.lib))
    (library (logical Device)
      (uri /usr/share/kicad/library/Device.lib))
    (library (logical Mechanical)
      (uri /usr/share/kicad/library/Mechanical.lib))
    (library (logical Memory_EEPROM)
      (uri /usr/share/kicad/library/Memory_EEPROM.lib))
    (library (logical cs8416)
      (uri /home/patrick/git/modac/schematics/lib/cs8416.lib))
    (library (logical toslinkModule-rescue)
      (uri /home/patrick/git/modac/schematics/toslinkModule/toslinkModule-rescue.lib)))
  (nets
    (net (code 1) (name /CDTO)
      (node (ref U1) (pin 17))
      (node (ref J1) (pin 1))
      (node (ref U2) (pin 2)))
    (net (code 2) (name /Sheet5F167DA8/INT0)
      (node (ref U1) (pin 20)))
    (net (code 3) (name /GND)
      (node (ref C12) (pin 2))
      (node (ref U3) (pin 2))
      (node (ref C9) (pin 1))
      (node (ref U1) (pin 13))
      (node (ref U1) (pin 22))
      (node (ref C5) (pin 1))
      (node (ref C11) (pin 2))
      (node (ref U4) (pin 2))
      (node (ref C6) (pin 2))
      (node (ref C8) (pin 2))
      (node (ref C2) (pin 1))
      (node (ref C1) (pin 1))
      (node (ref U2) (pin 4))
      (node (ref C3) (pin 2))
      (node (ref C4) (pin 2))
      (node (ref U1) (pin 1))
      (node (ref U1) (pin 11))
      (node (ref U1) (pin 2))
      (node (ref H2) (pin 1))
      (node (ref U1) (pin 10))
      (node (ref J1) (pin 10))
      (node (ref U1) (pin 7))
      (node (ref H3) (pin 1))
      (node (ref H4) (pin 1))
      (node (ref H1) (pin 1))
      (node (ref U1) (pin 12)))
    (net (code 4) (name /Sheet5F167DA8/EXT_OMCK)
      (node (ref U1) (pin 25)))
    (net (code 5) (name /SDATA)
      (node (ref J1) (pin 8))
      (node (ref R5) (pin 1)))
    (net (code 6) (name /3.3V)
      (node (ref U1) (pin 6))
      (node (ref C12) (pin 1))
      (node (ref U3) (pin 3))
      (node (ref C11) (pin 1))
      (node (ref R4) (pin 2))
      (node (ref U2) (pin 3))
      (node (ref J1) (pin 12))
      (node (ref C4) (pin 1))
      (node (ref U2) (pin 8))
      (node (ref U2) (pin 7))
      (node (ref C3) (pin 1))
      (node (ref U4) (pin 3))
      (node (ref C6) (pin 1))
      (node (ref C1) (pin 2))
      (node (ref C2) (pin 2))
      (node (ref U1) (pin 21))
      (node (ref U1) (pin 23)))
    (net (code 7) (name /CSIDENT)
      (node (ref U2) (pin 1))
      (node (ref J1) (pin 4)))
    (net (code 8) (name /LRCK)
      (node (ref J1) (pin 7))
      (node (ref R2) (pin 1)))
    (net (code 9) (name /CCLK)
      (node (ref U1) (pin 16))
      (node (ref U2) (pin 6))
      (node (ref J1) (pin 3)))
    (net (code 10) (name /CDTI)
      (node (ref J1) (pin 2))
      (node (ref U1) (pin 15))
      (node (ref U2) (pin 5)))
    (net (code 11) (name /CSTOS)
      (node (ref J1) (pin 6))
      (node (ref U1) (pin 14)))
    (net (code 12) (name /RST)
      (node (ref J1) (pin 5))
      (node (ref U1) (pin 9)))
    (net (code 13) (name /MCLK)
      (node (ref U1) (pin 24))
      (node (ref J1) (pin 11)))
    (net (code 14) (name /SCLK)
      (node (ref R3) (pin 1))
      (node (ref J1) (pin 9)))
    (net (code 15) (name "Net-(U1-Pad19)")
      (node (ref U1) (pin 19)))
    (net (code 16) (name "Net-(U1-Pad18)")
      (node (ref U1) (pin 18)))
    (net (code 17) (name /Sheet5F167DA8/TOSLINK1)
      (node (ref C7) (pin 1))
      (node (ref U1) (pin 4))
      (node (ref TP1) (pin 1)))
    (net (code 18) (name /Sheet5F167DA8/IN2)
      (node (ref U4) (pin 1))
      (node (ref C7) (pin 2)))
    (net (code 19) (name /Sheet5F167DA8/IN1)
      (node (ref C10) (pin 2))
      (node (ref U3) (pin 1)))
    (net (code 20) (name "Net-(C9-Pad2)")
      (node (ref C9) (pin 2))
      (node (ref R1) (pin 2)))
    (net (code 21) (name "Net-(C8-Pad1)")
      (node (ref C8) (pin 1))
      (node (ref U1) (pin 5)))
    (net (code 22) (name /Sheet5F167DA8/SDOUT)
      (node (ref R4) (pin 1))
      (node (ref R5) (pin 2))
      (node (ref U1) (pin 26)))
    (net (code 23) (name /Sheet5F167DA8/TOSLINK2)
      (node (ref U1) (pin 3))
      (node (ref TP2) (pin 1))
      (node (ref C10) (pin 1)))
    (net (code 24) (name "Net-(C5-Pad2)")
      (node (ref U1) (pin 8))
      (node (ref R1) (pin 1))
      (node (ref C5) (pin 2)))
    (net (code 25) (name /Sheet5F167DA8/OSCLK)
      (node (ref R3) (pin 2))
      (node (ref U1) (pin 27)))
    (net (code 26) (name /Sheet5F167DA8/OLRCK)
      (node (ref R2) (pin 2))
      (node (ref U1) (pin 28)))))