EESchema Schematic File Version 4
EELAYER 30 0
EELAYER END
$Descr A4 11693 8268
encoding utf-8
Sheet 1 3
Title ""
Date ""
Rev ""
Comp ""
Comment1 ""
Comment2 ""
Comment3 ""
Comment4 ""
$EndDescr
$Sheet
S 4250 2500 950  1350
U 5F167DA9
F0 "Sheet5F167DA8" 50
F1 "toslinkInOut.sch" 50
F2 "SDATA" I R 5200 2900 50 
F3 "LRCK" I R 5200 2700 50 
F4 "SCLK" I R 5200 2800 50 
F5 "EXT_OMCK" I R 5200 3100 50 
F6 "MCLK" I R 5200 2600 50 
F7 "GND" I L 4250 3700 50 
F8 "3.3V" I L 4250 3600 50 
F9 "INT0" I L 4250 2800 50 
F10 "RESET" I R 5200 3750 50 
F11 "CS\\" I R 5200 3350 50 
F12 "CDIN" I R 5200 3450 50 
F13 "CCLK" I R 5200 3650 50 
F14 "CDOUT" O R 5200 3550 50 
$EndSheet
$Sheet
S 4250 4400 950  700 
U 5F1DCDD6
F0 "Sheet5F1DCDD5" 50
F1 "identifier.sch" 50
F2 "GND" I L 4250 4750 50 
F3 "VDD" I L 4250 4600 50 
F4 "SDI" I R 5200 4800 50 
F5 "CS" I R 5200 4600 50 
F6 "CLK" I R 5200 4700 50 
F7 "SDO" O R 5200 4900 50 
$EndSheet
Wire Wire Line
	6950 3150 6600 3150
Wire Wire Line
	6950 3450 6600 3450
Wire Wire Line
	6950 3550 6600 3550
Wire Wire Line
	6950 3750 6600 3750
Wire Wire Line
	6950 3350 6600 3350
Wire Wire Line
	6950 4050 6600 4050
Wire Wire Line
	6950 3650 6600 3650
Wire Wire Line
	6950 3950 6600 3950
Wire Wire Line
	6950 3250 6600 3250
Wire Wire Line
	6950 3050 6600 3050
Text Label 6600 3850 0    50   ~ 0
CSIDENT
Text Label 6600 4050 0    50   ~ 0
CDTI
Text Label 6600 3350 0    50   ~ 0
SCLK
Text Label 6600 3250 0    50   ~ 0
GND
Text Label 6600 3550 0    50   ~ 0
LRCK
Text Label 6600 3950 0    50   ~ 0
CCLK
Text Label 6600 3450 0    50   ~ 0
SDATA
Text Label 6600 3650 0    50   ~ 0
CSTOS
Text Label 6600 3050 0    50   ~ 0
3.3V
Text Label 6600 3150 0    50   ~ 0
MCLK
Wire Wire Line
	5200 2600 5400 2600
Wire Wire Line
	5200 2700 5400 2700
Wire Wire Line
	5200 2800 5400 2800
Wire Wire Line
	5200 2900 5400 2900
Wire Wire Line
	5200 3350 5400 3350
Wire Wire Line
	5200 3450 5400 3450
Wire Wire Line
	5200 3650 5400 3650
Wire Wire Line
	5200 3750 5400 3750
Wire Wire Line
	4050 2800 4250 2800
Wire Wire Line
	5200 4700 5400 4700
Wire Wire Line
	5200 4800 5400 4800
Wire Wire Line
	4050 4600 4250 4600
Wire Wire Line
	4050 4750 4250 4750
Text Label 5400 2600 0    50   ~ 0
MCLK
Text Label 5400 2700 0    50   ~ 0
LRCK
Text Label 5400 2800 0    50   ~ 0
SCLK
Text Label 5400 2900 0    50   ~ 0
SDATA
Text Label 5400 3650 0    50   ~ 0
CCLK
Text Label 5400 4700 0    50   ~ 0
CCLK
Text Label 5400 3350 0    50   ~ 0
CSTOS
Text Label 4050 4600 0    50   ~ 0
3.3V
Text Label 4050 3600 0    50   ~ 0
3.3V
Text Label 4050 3700 0    50   ~ 0
GND
Text Label 4050 4750 0    50   ~ 0
GND
Text Label 5400 4800 0    50   ~ 0
CDTI
Text Label 5400 3750 0    50   ~ 0
RST
Text Label 5400 3450 0    50   ~ 0
CDTI
NoConn ~ 4050 2800
Text Label 5400 4900 0    50   ~ 0
CDTO
Text Label 6600 4150 0    50   ~ 0
CDTO
Wire Wire Line
	6600 4150 6950 4150
Wire Wire Line
	5200 3550 5400 3550
Wire Wire Line
	5200 4900 5400 4900
Wire Wire Line
	5200 3100 5400 3100
NoConn ~ 5400 3100
Text Label 5400 3550 0    50   ~ 0
CDTO
Text Label 6600 3750 0    50   ~ 0
RST
$Comp
L Connector:Conn_01x12_Female J1
U 1 1 60B07449
P 7150 3650
F 0 "J1" H 7042 2825 50  0000 C CNN
F 1 "Conn_01x12_Female" H 7042 2916 50  0000 C CNN
F 2 "lib:ConnectorMicromatch-12" H 7150 3650 50  0001 C CNN
F 3 "~" H 7150 3650 50  0001 C CNN
	1    7150 3650
	1    0    0    1   
$EndComp
Wire Wire Line
	5200 4600 6050 4600
Text Label 6050 4600 0    50   ~ 0
CSIDENT
Wire Wire Line
	6600 3850 6950 3850
Wire Wire Line
	3750 3600 4250 3600
Wire Wire Line
	3750 3700 4250 3700
$Comp
L power:PWR_FLAG #FLG0101
U 1 1 60EB3122
P 3750 3600
F 0 "#FLG0101" H 3750 3675 50  0001 C CNN
F 1 "PWR_FLAG" H 3750 3773 50  0000 C CNN
F 2 "" H 3750 3600 50  0001 C CNN
F 3 "~" H 3750 3600 50  0001 C CNN
	1    3750 3600
	1    0    0    -1  
$EndComp
$Comp
L power:PWR_FLAG #FLG0102
U 1 1 60EB3476
P 3750 3700
F 0 "#FLG0102" H 3750 3775 50  0001 C CNN
F 1 "PWR_FLAG" H 3750 3873 50  0000 C CNN
F 2 "" H 3750 3700 50  0001 C CNN
F 3 "~" H 3750 3700 50  0001 C CNN
	1    3750 3700
	-1   0    0    1   
$EndComp
$EndSCHEMATC
