(export (version D)
  (design
    (source /home/patrick/git/modac/schematics/volume/volume.sch)
    (date "sam. 29 févr. 2020 15:20:57 CET")
    (tool "Eeschema 5.1.5-52549c5~84~ubuntu18.04.1")
    (sheet (number 1) (name /) (tstamps /)
      (title_block
        (title)
        (company)
        (rev)
        (date)
        (source volume.sch)
        (comment (number 1) (value ""))
        (comment (number 2) (value ""))
        (comment (number 3) (value ""))
        (comment (number 4) (value "")))))
  (components
    (comp (ref U1)
      (value 4WKnob)
      (footprint lib:POT4WayBourns)
      (libsource (lib 4WayVolumeKnob) (part 4WKnob) (description ""))
      (sheetpath (names /) (tstamps /))
      (tstamp 5E57BACC))
    (comp (ref J1)
      (value Conn_01x04_Female)
      (footprint lib:ConnectorMicromatch-4)
      (datasheet ~)
      (libsource (lib Connector) (part Conn_01x04_Female) (description "Generic connector, single row, 01x04, script generated (kicad-library-utils/schlib/autogen/connector/)"))
      (sheetpath (names /) (tstamps /))
      (tstamp 5E57CAC1))
    (comp (ref J2)
      (value Conn_01x04_Female)
      (footprint lib:ConnectorMicromatch-4)
      (datasheet ~)
      (libsource (lib Connector) (part Conn_01x04_Female) (description "Generic connector, single row, 01x04, script generated (kicad-library-utils/schlib/autogen/connector/)"))
      (sheetpath (names /) (tstamps /))
      (tstamp 5E574065))
    (comp (ref J4)
      (value Conn_01x04_Female)
      (footprint lib:ConnectorMicromatch-4)
      (datasheet ~)
      (libsource (lib Connector) (part Conn_01x04_Female) (description "Generic connector, single row, 01x04, script generated (kicad-library-utils/schlib/autogen/connector/)"))
      (sheetpath (names /) (tstamps /))
      (tstamp 5E575B87))
    (comp (ref J3)
      (value Conn_01x04_Female)
      (footprint lib:ConnectorMicromatch-4)
      (datasheet ~)
      (libsource (lib Connector) (part Conn_01x04_Female) (description "Generic connector, single row, 01x04, script generated (kicad-library-utils/schlib/autogen/connector/)"))
      (sheetpath (names /) (tstamps /))
      (tstamp 5E575B9C)))
  (libparts
    (libpart (lib 4WayVolumeKnob) (part 4WKnob)
      (fields
        (field (name Reference) U)
        (field (name Value) 4WKnob))
      (pins
        (pin (num 1) (name IN1) (type input))
        (pin (num 2) (name IN2) (type input))
        (pin (num 3) (name IN3) (type input))
        (pin (num 4) (name IN4) (type input))
        (pin (num 5) (name OUT1) (type output))
        (pin (num 6) (name OUT2) (type output))
        (pin (num 7) (name OUT3) (type output))
        (pin (num 8) (name OUT4) (type output))
        (pin (num 9) (name GND1) (type input))
        (pin (num 10) (name GND2) (type input))
        (pin (num 11) (name GND3) (type input))
        (pin (num 12) (name GND4) (type input))))
    (libpart (lib Connector) (part Conn_01x04_Female)
      (description "Generic connector, single row, 01x04, script generated (kicad-library-utils/schlib/autogen/connector/)")
      (docs ~)
      (footprints
        (fp Connector*:*_1x??_*))
      (fields
        (field (name Reference) J)
        (field (name Value) Conn_01x04_Female))
      (pins
        (pin (num 1) (name Pin_1) (type passive))
        (pin (num 2) (name Pin_2) (type passive))
        (pin (num 3) (name Pin_3) (type passive))
        (pin (num 4) (name Pin_4) (type passive)))))
  (libraries
    (library (logical 4WayVolumeKnob)
      (uri /home/patrick/git/modac/schematics/volume/../lib/4WayVolumeKnob.lib))
    (library (logical Connector)
      (uri /usr/share/kicad/library/Connector.lib)))
  (nets
    (net (code 1) (name /GND)
      (node (ref J1) (pin 2))
      (node (ref U1) (pin 9))
      (node (ref J2) (pin 3))
      (node (ref J1) (pin 3))
      (node (ref J2) (pin 2))
      (node (ref U1) (pin 10))
      (node (ref U1) (pin 11))
      (node (ref U1) (pin 12))
      (node (ref J3) (pin 3))
      (node (ref J3) (pin 2))
      (node (ref J4) (pin 3))
      (node (ref J4) (pin 2)))
    (net (code 2) (name /LO2)
      (node (ref U1) (pin 7))
      (node (ref J4) (pin 4)))
    (net (code 3) (name /RO2)
      (node (ref J4) (pin 1))
      (node (ref U1) (pin 8)))
    (net (code 4) (name /L2)
      (node (ref U1) (pin 3))
      (node (ref J2) (pin 4)))
    (net (code 5) (name /R2)
      (node (ref U1) (pin 4))
      (node (ref J2) (pin 1)))
    (net (code 6) (name /LO1)
      (node (ref J3) (pin 4))
      (node (ref U1) (pin 5)))
    (net (code 7) (name /RO1)
      (node (ref U1) (pin 6))
      (node (ref J3) (pin 1)))
    (net (code 8) (name /R1)
      (node (ref J1) (pin 1))
      (node (ref U1) (pin 2)))
    (net (code 9) (name /L1)
      (node (ref U1) (pin 1))
      (node (ref J1) (pin 4)))))