0x000001
0x000002
0x000003
0x000004
0x000005
0x000006
0x000007
0x000008
0x000009
0x00000A
0x00000B
0x00000C
0x00000D
0x00000E
0x00000F
0x000010
0x000011
0x000012
0x000013
0x000014
0x000015
0x000016
0x000017
0x000018
0x000019
0x00001A