EESchema Schematic File Version 4
LIBS:dac-cache
EELAYER 26 0
EELAYER END
$Descr A4 11693 8268
encoding utf-8
Sheet 1 6
Title ""
Date "7 dec 2011"
Rev ""
Comp ""
Comment1 ""
Comment2 ""
Comment3 ""
Comment4 ""
$EndDescr
Text Notes 6300 3150 0    60   ~ 0

Wire Wire Line
	5950 2400 6500 2400
Connection ~ 3300 1900
Wire Wire Line
	3450 1750 3300 1750
Wire Wire Line
	3300 1750 3300 1900
Wire Wire Line
	2300 1450 1750 1450
Connection ~ 4750 5200
Wire Wire Line
	4750 5900 4750 5200
Connection ~ 3300 2200
Wire Wire Line
	3450 2200 3300 2200
Wire Wire Line
	3300 2500 3100 2500
Wire Wire Line
	3300 1900 3450 1900
Connection ~ 900  4450
Connection ~ 1100 4450
Wire Wire Line
	1100 4450 900  4450
Connection ~ 900  3950
Wire Wire Line
	650  4000 650  3950
Wire Wire Line
	650  3950 900  3950
Wire Wire Line
	1000 3100 1100 3100
Wire Wire Line
	3900 4400 4950 4400
Wire Wire Line
	8000 1800 8150 1800
Wire Wire Line
	6500 2000 6300 2000
Wire Wire Line
	3900 4700 4100 4700
Wire Wire Line
	4200 5100 3900 5100
Wire Wire Line
	2400 4700 1750 4700
Wire Wire Line
	4300 7350 5150 7350
Wire Wire Line
	4300 7150 5150 7150
Wire Wire Line
	6450 7050 10900 7050
Wire Wire Line
	9850 5650 9550 5650
Wire Wire Line
	8100 5350 8400 5350
Wire Wire Line
	8100 5150 9850 5150
Wire Wire Line
	9300 5900 9150 5900
Wire Wire Line
	4300 6800 5000 6800
Wire Wire Line
	2650 7550 2050 7550
Wire Wire Line
	6750 4650 6500 4650
Wire Wire Line
	8750 4650 8750 4850
Connection ~ 6700 5950
Wire Wire Line
	6700 6050 6700 5950
Wire Wire Line
	6700 6050 8200 6050
Wire Wire Line
	6750 5450 6050 5450
Connection ~ 8200 5850
Wire Wire Line
	8200 6050 8200 5850
Wire Wire Line
	8850 5700 8850 5750
Wire Wire Line
	8750 4850 8100 4850
Wire Wire Line
	6050 4850 6750 4850
Wire Wire Line
	6750 4750 6500 4750
Connection ~ 6700 5850
Wire Wire Line
	6750 5850 6700 5850
Wire Wire Line
	6700 5950 6350 5950
Wire Wire Line
	6700 5650 6750 5650
Connection ~ 9900 1350
Wire Wire Line
	9900 1300 9900 1350
Wire Wire Line
	10250 850  9900 850 
Connection ~ 5500 2700
Wire Wire Line
	5350 2700 5500 2700
Connection ~ 4750 4650
Wire Wire Line
	4750 4650 5400 4650
Wire Wire Line
	6750 5050 6200 5050
Wire Wire Line
	5450 4000 3900 4000
Wire Wire Line
	5500 4800 5400 4800
Wire Wire Line
	3100 650  3250 650 
Connection ~ 4350 5500
Wire Wire Line
	4350 5500 2300 5500
Wire Wire Line
	2300 5500 2300 5200
Wire Wire Line
	2300 5200 2400 5200
Wire Wire Line
	2650 7100 2050 7100
Wire Wire Line
	4550 5800 4550 5900
Wire Wire Line
	6450 6800 6750 6800
Wire Wire Line
	2650 6700 2050 6700
Wire Wire Line
	2550 3350 2350 3350
Connection ~ 2350 4900
Wire Wire Line
	2400 4800 2350 4800
Wire Wire Line
	2350 4800 2350 4900
Wire Wire Line
	2350 5000 2400 5000
Connection ~ 2150 3950
Wire Wire Line
	2000 3900 2000 3950
Wire Wire Line
	2000 3950 2150 3950
Wire Wire Line
	1050 1450 1000 1450
Wire Wire Line
	1000 1450 1000 1800
Wire Wire Line
	1150 2300 1000 2300
Wire Wire Line
	1000 2300 1000 2200
Connection ~ 1650 2100
Wire Wire Line
	1650 2100 1650 1800
Connection ~ 1000 1800
Wire Wire Line
	1100 3100 1100 3200
Connection ~ 2350 3350
Wire Wire Line
	2350 3350 2350 3900
Wire Wire Line
	2250 3950 2250 4100
Wire Wire Line
	2250 4100 2400 4100
Wire Wire Line
	1850 4100 2200 4100
Wire Wire Line
	2200 4100 2200 4200
Wire Wire Line
	2350 3900 2400 3900
Connection ~ 2600 1250
Wire Wire Line
	2600 1200 2600 1250
Connection ~ 2600 650 
Wire Wire Line
	2600 700  2600 650 
Wire Wire Line
	6750 4550 6750 4100
Wire Wire Line
	9450 4650 9450 4600
Wire Wire Line
	9750 4200 9750 4100
Wire Wire Line
	9750 4100 9450 4100
Wire Wire Line
	8550 4100 8550 4950
Wire Wire Line
	8550 4950 8100 4950
Wire Wire Line
	9150 6350 9150 6400
Wire Wire Line
	9150 6400 8850 6400
Wire Wire Line
	8500 6400 8500 5750
Wire Wire Line
	8500 5750 8200 5750
Wire Wire Line
	9150 5900 9150 5950
Wire Wire Line
	8600 5900 8600 5650
Wire Wire Line
	8600 5650 8100 5650
Wire Wire Line
	8700 5550 8700 5750
Connection ~ 8850 5250
Wire Wire Line
	9150 5250 9150 5300
Connection ~ 6500 4650
Wire Wire Line
	6500 4600 6500 4650
Connection ~ 6200 4100
Wire Wire Line
	6200 4100 6200 4200
Wire Wire Line
	2200 4200 2400 4200
Wire Wire Line
	1000 850  1050 850 
Wire Wire Line
	1050 850  1050 650 
Wire Wire Line
	1500 650  1450 650 
Wire Wire Line
	8850 1350 8600 1350
Wire Wire Line
	8100 1450 9450 1450
Wire Wire Line
	8100 1450 8100 1600
Wire Wire Line
	8100 1600 8000 1600
Connection ~ 9450 2300
Wire Wire Line
	9950 2300 9450 2300
Wire Wire Line
	9450 2250 9450 2300
Wire Wire Line
	6150 3000 6450 3000
Wire Wire Line
	6500 1500 5500 1500
Wire Wire Line
	6500 1700 5500 1700
Wire Wire Line
	6500 1800 6200 1800
Connection ~ 8200 850 
Connection ~ 9450 1550
Wire Wire Line
	9800 1550 9450 1550
Wire Wire Line
	9450 1850 9450 1550
Wire Wire Line
	8300 1550 8300 1700
Wire Wire Line
	8000 2700 8300 2700
Wire Wire Line
	8300 2700 8300 2800
Connection ~ 8850 2000
Connection ~ 8850 2100
Wire Wire Line
	8850 2500 8850 2400
Connection ~ 8850 2300
Wire Wire Line
	8850 2400 8800 2400
Wire Wire Line
	8850 2200 8800 2200
Wire Wire Line
	8850 1900 8500 1900
Wire Wire Line
	8000 2500 8100 2500
Wire Wire Line
	8000 2300 8100 2300
Wire Wire Line
	8000 2100 8100 2100
Wire Wire Line
	8000 1900 8100 1900
Connection ~ 5500 2300
Wire Wire Line
	5500 2300 6000 2300
Wire Wire Line
	5500 2200 5550 2200
Wire Wire Line
	5550 2600 5500 2600
Wire Wire Line
	6500 2600 5950 2600
Wire Wire Line
	6500 2200 5950 2200
Wire Wire Line
	1700 4300 1700 3750
Wire Wire Line
	1700 4300 1900 4300
Wire Wire Line
	4950 4400 4950 4450
Wire Wire Line
	5400 4100 5400 4150
Connection ~ 1350 3950
Wire Wire Line
	2400 4400 1550 4400
Wire Wire Line
	1550 4400 1550 3950
Connection ~ 1100 4500
Wire Wire Line
	1100 4550 1100 4500
Connection ~ 1350 5550
Wire Wire Line
	2400 4600 1500 4600
Wire Wire Line
	1500 4600 1500 5550
Wire Wire Line
	1500 5550 1350 5550
Connection ~ 1350 4500
Wire Wire Line
	1100 5550 1100 5500
Wire Wire Line
	1350 5250 1350 5550
Wire Wire Line
	1100 5000 1100 4950
Wire Wire Line
	1350 4850 1350 4500
Wire Wire Line
	1350 4000 1350 3950
Wire Wire Line
	1100 4000 1100 3950
Connection ~ 1100 3950
Wire Wire Line
	3900 4600 4750 4600
Wire Wire Line
	4750 4600 4750 4650
Wire Wire Line
	4950 4850 4950 5200
Wire Wire Line
	2400 4300 2300 4300
Wire Wire Line
	6500 2100 6400 2100
Wire Wire Line
	6400 2300 6500 2300
Wire Wire Line
	6500 2500 6400 2500
Wire Wire Line
	6500 2700 6400 2700
Connection ~ 5500 2600
Wire Wire Line
	5500 2700 5500 2600
Wire Wire Line
	5500 2100 6000 2100
Connection ~ 5500 2200
Wire Wire Line
	5500 2500 6000 2500
Connection ~ 5500 2500
Wire Wire Line
	8000 2000 8400 2000
Wire Wire Line
	8000 2200 8400 2200
Wire Wire Line
	8000 2400 8400 2400
Wire Wire Line
	8800 2000 8850 2000
Wire Wire Line
	8850 2100 8500 2100
Wire Wire Line
	8850 2300 8500 2300
Connection ~ 8850 2400
Connection ~ 8850 2200
Wire Wire Line
	8000 2600 8200 2600
Wire Wire Line
	8200 2600 8200 2650
Wire Wire Line
	8200 2650 8700 2650
Wire Wire Line
	8700 2650 8700 2800
Wire Wire Line
	8000 850  8000 1500
Wire Wire Line
	8200 900  8200 850 
Wire Wire Line
	9750 2950 9450 2950
Connection ~ 9450 2950
Wire Wire Line
	8950 2500 8850 2500
Connection ~ 8850 2500
Wire Wire Line
	6500 1900 6200 1900
Wire Wire Line
	6500 1600 5500 1600
Wire Wire Line
	6500 2800 6450 2800
Wire Wire Line
	6450 2800 6450 3000
Wire Wire Line
	9450 2750 9450 2950
Wire Wire Line
	8200 1350 8200 1300
Wire Wire Line
	9350 1350 9450 1350
Connection ~ 9450 1350
Connection ~ 8800 850 
Wire Wire Line
	1500 1050 1000 1050
Wire Wire Line
	6500 4200 6500 4100
Connection ~ 6500 4100
Wire Wire Line
	6200 4650 6200 4600
Wire Wire Line
	8100 5450 8700 5450
Wire Wire Line
	8700 5450 8700 5250
Wire Wire Line
	8850 5300 8850 5250
Wire Wire Line
	8700 5550 8100 5550
Wire Wire Line
	8700 5750 8850 5750
Wire Wire Line
	9150 5750 9150 5700
Connection ~ 8850 5750
Connection ~ 8850 5900
Wire Wire Line
	8850 6350 8850 6400
Connection ~ 8850 6400
Wire Wire Line
	9450 4200 9450 4100
Connection ~ 9450 4100
Connection ~ 9750 4650
Connection ~ 6200 4650
Wire Wire Line
	3900 4500 4250 4500
Wire Wire Line
	2300 1050 2400 1050
Wire Wire Line
	2400 1050 2400 1250
Wire Wire Line
	2400 1250 2600 1250
Wire Wire Line
	2400 4000 2300 4000
Wire Wire Line
	2150 3950 2150 3900
Wire Wire Line
	2150 3350 2150 3400
Wire Wire Line
	2300 4000 2300 3350
Connection ~ 2300 3350
Wire Wire Line
	1650 1800 1550 1800
Wire Wire Line
	1000 1800 1150 1800
Wire Wire Line
	2050 2100 1650 2100
Wire Wire Line
	2350 4900 2400 4900
Connection ~ 2350 5000
Wire Wire Line
	2100 5100 2350 5100
Connection ~ 2350 5100
Wire Wire Line
	6450 6700 6750 6700
Wire Wire Line
	4550 5300 4550 4900
Wire Wire Line
	4550 4900 3900 4900
Wire Wire Line
	2650 7000 2050 7000
Wire Wire Line
	4350 5200 4350 5500
Connection ~ 4550 5900
Wire Wire Line
	2650 7250 2050 7250
Wire Wire Line
	2700 650  2600 650 
Wire Wire Line
	5400 4800 5400 4650
Connection ~ 5400 4100
Wire Wire Line
	5450 3900 3900 3900
Wire Wire Line
	6750 4950 6200 4950
Wire Wire Line
	6750 5150 6200 5150
Wire Wire Line
	2450 3000 2450 2300
Wire Wire Line
	2450 3000 2000 3000
Wire Wire Line
	2000 3000 2000 3400
Wire Wire Line
	1700 3750 1600 3750
Wire Wire Line
	8600 1350 8600 1050
Connection ~ 8600 1350
Wire Wire Line
	8600 1050 9600 1050
Wire Wire Line
	9600 1050 9600 1350
Wire Wire Line
	9600 1350 9900 1350
Wire Wire Line
	9900 900  9900 850 
Connection ~ 9900 850 
Wire Wire Line
	8850 1200 8800 1200
Wire Wire Line
	8800 1200 8800 850 
Wire Wire Line
	9350 1200 9450 1200
Wire Wire Line
	9450 1200 9450 1350
Wire Wire Line
	6700 5750 6750 5750
Connection ~ 6700 5750
Wire Wire Line
	6050 5250 6750 5250
Connection ~ 9150 5900
Wire Wire Line
	8200 5850 8100 5850
Connection ~ 8200 5750
Wire Wire Line
	6700 5350 6750 5350
Connection ~ 6700 5650
Wire Wire Line
	6750 5550 6050 5550
Wire Wire Line
	8700 5250 8850 5250
Wire Wire Line
	9750 5250 9750 4650
Connection ~ 9150 5250
Wire Wire Line
	8100 4650 8750 4650
Connection ~ 9450 4650
Connection ~ 8750 4650
Wire Wire Line
	6750 4100 6500 4100
Wire Wire Line
	2650 7450 2050 7450
Wire Wire Line
	4300 6700 5000 6700
Wire Wire Line
	4300 6900 5000 6900
Wire Wire Line
	8100 5050 9850 5050
Wire Wire Line
	8400 5250 8100 5250
Wire Wire Line
	9850 5550 9550 5550
Wire Wire Line
	10850 6950 10800 6950
Wire Wire Line
	5150 7050 4300 7050
Wire Wire Line
	5150 7250 4300 7250
Wire Wire Line
	5150 7450 4300 7450
Wire Wire Line
	4350 5200 3900 5200
Wire Wire Line
	3900 5000 4200 5000
Wire Wire Line
	3900 4200 4350 4200
Wire Wire Line
	5450 4100 5400 4100
Wire Wire Line
	8300 1700 8000 1700
Wire Wire Line
	8000 2950 8000 2800
Wire Wire Line
	1050 4500 1100 4500
Wire Wire Line
	900  3950 900  4000
Wire Wire Line
	650  4450 650  4400
Wire Wire Line
	900  4450 900  4400
Wire Wire Line
	2450 2300 1550 2300
Wire Wire Line
	3300 2050 3450 2050
Connection ~ 3300 2050
Wire Wire Line
	3300 2350 3450 2350
Connection ~ 3300 2350
Wire Wire Line
	4350 5900 4550 5900
Connection ~ 4750 5900
Wire Wire Line
	4950 5200 4750 5200
Wire Wire Line
	3900 4300 4200 4300
Wire Wire Line
	5550 2400 5500 2400
Connection ~ 5500 2400
NoConn ~ 8100 4750
NoConn ~ 8100 4550
$Comp
L dac-rescue:CONN_1 P15
U 1 1 4E4E5BD4
P 3600 1750
F 0 "P15" H 3680 1750 40  0000 L CNN
F 1 "CONN_1" H 3600 1805 30  0001 C CNN
F 2 "" H 3600 1750 60  0001 C CNN
F 3 "" H 3600 1750 60  0001 C CNN
	1    3600 1750
	1    0    0    -1  
$EndComp
Text Label 4200 4300 0    60   ~ 0
MCLK
Text Label 6500 4750 0    60   ~ 0
MCLK
$Comp
L dac-rescue:FILTER FB1
U 1 1 4E1F1BFF
P 1100 3550
F 0 "FB1" H 1100 3700 60  0000 C CNN
F 1 "FILTER" H 1100 3450 60  0000 C CNN
F 2 "" H 1100 3550 60  0001 C CNN
F 3 "" H 1100 3550 60  0001 C CNN
	1    1100 3550
	0    1    1    0   
$EndComp
Text GLabel 2300 1450 2    60   Input ~ 0
+3V3D
Text Label 6300 3000 0    60   ~ 0
GND
Text Label 3100 2500 0    60   ~ 0
GND
$Comp
L dac-rescue:CONN_1 P13
U 1 1 4E4531F6
P 3600 2350
F 0 "P13" H 3680 2350 40  0000 L CNN
F 1 "CONN_1" H 3600 2405 30  0001 C CNN
F 2 "" H 3600 2350 60  0001 C CNN
F 3 "" H 3600 2350 60  0001 C CNN
	1    3600 2350
	1    0    0    -1  
$EndComp
$Comp
L dac-rescue:CONN_1 P12
U 1 1 4E4531EE
P 3600 2200
F 0 "P12" H 3680 2200 40  0000 L CNN
F 1 "CONN_1" H 3600 2255 30  0001 C CNN
F 2 "" H 3600 2200 60  0001 C CNN
F 3 "" H 3600 2200 60  0001 C CNN
	1    3600 2200
	1    0    0    -1  
$EndComp
$Comp
L dac-rescue:CONN_1 P11
U 1 1 4E4531EC
P 3600 2050
F 0 "P11" H 3680 2050 40  0000 L CNN
F 1 "CONN_1" H 3600 2105 30  0001 C CNN
F 2 "" H 3600 2050 60  0001 C CNN
F 3 "" H 3600 2050 60  0001 C CNN
	1    3600 2050
	1    0    0    -1  
$EndComp
$Comp
L dac-rescue:CONN_1 P10
U 1 1 4E4531E9
P 3600 1900
F 0 "P10" H 3680 1900 40  0000 L CNN
F 1 "CONN_1" H 3600 1955 30  0001 C CNN
F 2 "" H 3600 1900 60  0001 C CNN
F 3 "" H 3600 1900 60  0001 C CNN
	1    3600 1900
	1    0    0    -1  
$EndComp
$Comp
L dac-rescue:C-RESCUE-dac C64
U 1 1 4E4527F6
P 650 4200
F 0 "C64" H 700 4300 50  0000 L CNN
F 1 "1nF" H 700 4100 50  0000 L CNN
F 2 "" H 650 4200 60  0001 C CNN
F 3 "" H 650 4200 60  0001 C CNN
	1    650  4200
	-1   0    0    1   
$EndComp
$Comp
L dac-rescue:C-RESCUE-dac C65
U 1 1 4E4527E7
P 900 4200
F 0 "C65" H 950 4300 50  0000 L CNN
F 1 "0,1uF" H 950 4100 50  0000 L CNN
F 2 "" H 900 4200 60  0001 C CNN
F 3 "" H 900 4200 60  0001 C CNN
	1    900  4200
	-1   0    0    1   
$EndComp
Text GLabel 1000 3100 0    60   Input ~ 0
+3V3A
Text GLabel 1050 4500 0    60   Input ~ 0
AGND
$Comp
L ak4396:AK4396UC U7
U 1 1 4E44FE00
P 7300 5950
F 0 "U7" H 7300 5950 60  0000 C CNN
F 1 "AK4396UC" H 7300 5950 60  0000 C CNN
F 2 "" H 7300 5950 60  0001 C CNN
F 3 "" H 7300 5950 60  0001 C CNN
	1    7300 5950
	1    0    0    -1  
$EndComp
Text Label 9550 5650 0    60   ~ 0
AOR-
Text Label 9550 5550 0    60   ~ 0
AOR+
Text Label 8400 5350 2    60   ~ 0
AOR-
Text Label 8400 5250 2    60   ~ 0
AOR+
$Sheet
S 9850 4750 600  1150
U 4E29B474
F0 "amp_dif" 60
F1 "amp_dif.sch" 60
F2 "AOUTR" I R 10450 4950 60 
F3 "AOUTL" I R 10450 4850 60 
F4 "AOUTL-" I L 9850 5150 60 
F5 "AOUTL+" I L 9850 5050 60 
F6 "AOUTR-" I L 9850 5650 60 
F7 "AOUTR+" I L 9850 5550 60 
F8 "OL" I R 10450 5650 50 
F9 "OR" I R 10450 5750 50 
F10 "TDAOL" I R 10450 5250 50 
F11 "TDAOR" I R 10450 5350 50 
$EndSheet
Text Label 5000 6900 2    60   ~ 0
POWERDOWN
Text Label 5000 6800 2    60   ~ 0
AK4396CS/
Text Label 5000 6700 2    60   ~ 0
AUTORST
Text Label 2050 7550 0    60   ~ 0
CDTI
Text Label 2050 7450 0    60   ~ 0
CCLK
Text Label 6050 5550 0    60   ~ 0
CDTI
Text Label 6050 5450 0    60   ~ 0
CCLK
Text GLabel 10100 4650 2    60   Input ~ 0
AGND
Text GLabel 9300 5900 2    60   Input ~ 0
+5VA
Text Label 6050 5250 0    60   ~ 0
AK4396CS/
Text Label 6050 4850 0    60   ~ 0
POWERDOWN
Text Label 6200 4950 0    60   ~ 0
SCLK
Text Label 6200 5050 0    60   ~ 0
SDATA
Text Label 6200 5150 0    60   ~ 0
LRCK
Text GLabel 6350 5950 0    60   Input ~ 0
AGND
Text GLabel 10250 1350 2    60   Input ~ 0
GND
$Comp
L dac-rescue:CP1-RESCUE-dac C38
U 1 1 4E295B7B
P 9900 1100
F 0 "C38" H 9950 1200 50  0000 L CNN
F 1 "45u" H 9950 1000 50  0000 L CNN
F 2 "" H 9900 1100 60  0001 C CNN
F 3 "" H 9900 1100 60  0001 C CNN
	1    9900 1100
	1    0    0    -1  
$EndComp
Text GLabel 10250 850  2    60   Input ~ 0
+5VA
Text GLabel 8950 2500 2    60   Input ~ 0
AGND
Text GLabel 5350 2700 0    60   Input ~ 0
AGND
Text GLabel 1600 3750 0    60   Input ~ 0
GND
Text GLabel 4250 4500 2    60   Input ~ 0
GND
Text Label 5500 1700 0    60   ~ 0
SDATA
Text Label 5500 1600 0    60   ~ 0
SCLK
Text Label 5500 1500 0    60   ~ 0
LRCK
Text GLabel 6100 4650 0    60   Input ~ 0
+5VD
Text GLabel 6100 4100 0    60   Input ~ 0
AGND
Text GLabel 6200 1800 0    60   Input ~ 0
GND
Text GLabel 6200 1900 0    60   Input ~ 0
AGND
Text GLabel 6150 3000 0    60   Input ~ 0
GND
Text GLabel 9800 1550 2    60   Input ~ 0
-5VA
Text GLabel 9750 2950 2    60   Input ~ 0
-15VA
Text GLabel 9950 2300 2    60   Input ~ 0
AGND
Text Label 5450 4100 0    60   ~ 0
SDATA
Text Label 5450 4000 0    60   ~ 0
SCLK
Text Label 5450 3900 0    60   ~ 0
LRCK
Text GLabel 5450 4800 2    60   Input ~ 0
+5VD
Text GLabel 2550 3350 2    60   Input ~ 0
AGND
Text GLabel 2100 5100 0    60   Input ~ 0
AGND
Text Label 2050 7250 0    60   ~ 0
INT0
Text GLabel 4950 5900 2    60   Input ~ 0
GND
Text Label 2050 7100 0    60   ~ 0
SCL
Text Label 2050 7000 0    60   ~ 0
SDA
Text Label 4200 5000 0    60   ~ 0
SDA
Text Label 4200 5100 0    60   ~ 0
SCL
Text Label 4100 4700 0    60   ~ 0
INT0
$Sheet
S 700  6100 850  1400
U 4E2721B4
F0 "alim" 60
F1 "dac_alim.sch" 60
$EndSheet
Text Label 4350 4200 0    60   ~ 0
EXT_OMCK
Text Label 2050 6700 0    60   ~ 0
EXT_OMCK
$Comp
L cs8416:CS8416uC U1
U 1 1 4E293358
P 2950 5350
F 0 "U1" H 2950 5350 60  0000 C CNN
F 1 "CS8416UC" H 2950 5350 60  0000 C CNN
F 2 "" H 2950 5350 60  0001 C CNN
F 3 "" H 2950 5350 60  0001 C CNN
	1    2950 5350
	1    0    0    -1  
$EndComp
Text Label 10600 5650 0    60   ~ 0
OL
Text Label 10600 5750 0    60   ~ 0
OR
$Sheet
S 5150 6600 1300 950 
U 4E27238B
F0 "selecteur" 60
F1 "dac_selecteur.sch" 60
F2 "OUTSEL0" I L 5150 7250 60 
F3 "OUTSEL1" I L 5150 7150 60 
F4 "OUTSEL2" I L 5150 7050 60 
F5 "OUT_GND_CONNECT" I L 5150 7350 60 
F6 "OL" I R 6450 6700 60 
F7 "OR" I R 6450 6800 60 
F8 "AOUTL" I R 6450 7050 60 
F9 "AOUTR" I R 6450 6950 60 
F10 "OUT_GND_DISCONNECT" I L 5150 7450 60 
$EndSheet
$Sheet
S 2650 6600 1650 1050
U 4E2721CB
F0 "avr" 60
F1 "dac_avr.sch" 60
F2 "OUT_SYNC_CLK" I L 2650 6700 60 
F3 "OUT_GND_CONNECT" I R 4300 7350 60 
F4 "OUTS0" I R 4300 7250 60 
F5 "OUTS1" I R 4300 7150 60 
F6 "OUTS2" I R 4300 7050 60 
F7 "SDA" I L 2650 7000 60 
F8 "SCL" O L 2650 7100 60 
F9 "INT0" I L 2650 7250 60 
F10 "POWERDOWN" I R 4300 6900 60 
F11 "AK4396CS/" I R 4300 6800 60 
F12 "AUTORST" I R 4300 6700 60 
F13 "CCLK" I L 2650 7450 60 
F14 "CDTI" I L 2650 7550 60 
F15 "OUT_GND_DISCONNECT" I R 4300 7450 60 
$EndSheet
$Comp
L dac-rescue:R-RESCUE-dac R2
U 1 1 4E24864E
P 2000 3650
F 0 "R2" V 2080 3650 50  0000 C CNN
F 1 "0R" V 2000 3650 50  0000 C CNN
F 2 "" H 2000 3650 60  0001 C CNN
F 3 "" H 2000 3650 60  0001 C CNN
	1    2000 3650
	1    0    0    -1  
$EndComp
Text Label 1700 2300 0    60   ~ 0
SPDIF_TOSLINK
Text Label 2050 2100 2    60   ~ 0
GND
Text Label 2050 1450 2    60   ~ 0
3V3D
$Comp
L dac-rescue:FILTER FB2
U 1 1 4E24859A
P 1400 1450
F 0 "FB2" H 1400 1600 60  0000 C CNN
F 1 "47uH" H 1400 1350 60  0000 C CNN
F 2 "" H 1400 1450 60  0001 C CNN
F 3 "" H 1400 1450 60  0001 C CNN
	1    1400 1450
	-1   0    0    1   
$EndComp
$Comp
L dac-rescue:CONN_3 K1
U 1 1 4E24847A
P 650 2100
F 0 "K1" V 600 2100 50  0000 C CNN
F 1 "CONN_3" V 700 2100 40  0000 C CNN
F 2 "" H 650 2100 60  0001 C CNN
F 3 "" H 650 2100 60  0001 C CNN
	1    650  2100
	-1   0    0    1   
$EndComp
$Comp
L dac-rescue:C-RESCUE-dac C7
U 1 1 4E24845D
P 1350 2300
F 0 "C7" H 1400 2400 50  0000 L CNN
F 1 "0,01u" H 1400 2200 50  0000 L CNN
F 2 "" H 1350 2300 60  0001 C CNN
F 3 "" H 1350 2300 60  0001 C CNN
	1    1350 2300
	0    1    1    0   
$EndComp
$Comp
L dac-rescue:C-RESCUE-dac C6
U 1 1 4E248439
P 1350 1800
F 0 "C6" H 1400 1900 50  0000 L CNN
F 1 "0,1u" H 1400 1700 50  0000 L CNN
F 2 "" H 1350 1800 60  0001 C CNN
F 3 "" H 1350 1800 60  0001 C CNN
	1    1350 1800
	0    1    1    0   
$EndComp
Text Label 4750 4400 0    60   ~ 0
3V3D
$Comp
L dac-rescue:R-RESCUE-dac R3
U 1 1 4E1F566C
P 2150 3650
F 0 "R3" V 2230 3650 50  0000 C CNN
F 1 "0R" V 2150 3650 50  0000 C CNN
F 2 "" H 2150 3650 60  0001 C CNN
F 3 "" H 2150 3650 60  0001 C CNN
	1    2150 3650
	1    0    0    -1  
$EndComp
Text Label 1850 4100 0    60   ~ 0
SPDIF
$Comp
L dac-rescue:R-RESCUE-dac R4
U 1 1 4E1F53B5
P 2600 950
F 0 "R4" V 2680 950 50  0000 C CNN
F 1 "75R" V 2600 950 50  0000 C CNN
F 2 "" H 2600 950 60  0001 C CNN
F 3 "" H 2600 950 60  0001 C CNN
	1    2600 950 
	1    0    0    -1  
$EndComp
$Comp
L dac-rescue:R-RESCUE-dac R5
U 1 1 4E1F509E
P 4550 5550
F 0 "R5" V 4630 5550 50  0000 C CNN
F 1 "47K" V 4550 5550 50  0000 C CNN
F 2 "" H 4550 5550 60  0001 C CNN
F 3 "" H 4550 5550 60  0001 C CNN
	1    4550 5550
	1    0    0    -1  
$EndComp
Text Label 4300 4600 0    60   ~ 0
DVDD
Text Label 1450 4500 0    60   ~ 0
AGND
Text Label 3250 650  0    60   ~ 0
SPDIF
Text Label 2800 1250 0    60   ~ 0
GND
$Comp
L dac-rescue:CONN_2 P1
U 1 1 4E1F43E1
P 650 950
F 0 "P1" V 600 950 40  0000 C CNN
F 1 "CONN_2" V 700 950 40  0000 C CNN
F 2 "" H 650 950 60  0001 C CNN
F 3 "" H 650 950 60  0001 C CNN
	1    650  950 
	-1   0    0    1   
$EndComp
$Comp
L dac-rescue:TRANSFO T1
U 1 1 4E1F4332
P 1900 850
F 0 "T1" H 1900 1100 70  0000 C CNN
F 1 "TRANSFO" H 1900 550 70  0000 C CNN
F 2 "" H 1900 850 60  0001 C CNN
F 3 "" H 1900 850 60  0001 C CNN
	1    1900 850 
	1    0    0    -1  
$EndComp
$Comp
L dac-rescue:C-RESCUE-dac C3
U 1 1 4E1F42FB
P 1250 650
F 0 "C3" H 1300 750 50  0000 L CNN
F 1 "0,1u" H 1300 550 50  0000 L CNN
F 2 "" H 1250 650 60  0001 C CNN
F 3 "" H 1250 650 60  0001 C CNN
	1    1250 650 
	0    1    1    0   
$EndComp
$Comp
L dac-rescue:C-RESCUE-dac C31
U 1 1 4E1F3242
P 8850 6150
F 0 "C31" H 8900 6250 50  0000 L CNN
F 1 "0,1u" H 8900 6050 50  0000 L CNN
F 2 "" H 8850 6150 60  0001 C CNN
F 3 "" H 8850 6150 60  0001 C CNN
	1    8850 6150
	1    0    0    -1  
$EndComp
$Comp
L dac-rescue:C-RESCUE-dac C19
U 1 1 4E1F3240
P 6200 4400
F 0 "C19" H 6250 4500 50  0000 L CNN
F 1 "0,1u" H 6250 4300 50  0000 L CNN
F 2 "" H 6200 4400 60  0001 C CNN
F 3 "" H 6200 4400 60  0001 C CNN
	1    6200 4400
	1    0    0    -1  
$EndComp
$Comp
L dac-rescue:C-RESCUE-dac C36
U 1 1 4E1F323D
P 9450 4400
F 0 "C36" H 9500 4500 50  0000 L CNN
F 1 "0,1u" H 9500 4300 50  0000 L CNN
F 2 "" H 9450 4400 60  0001 C CNN
F 3 "" H 9450 4400 60  0001 C CNN
	1    9450 4400
	1    0    0    -1  
$EndComp
$Comp
L dac-rescue:C-RESCUE-dac C30
U 1 1 4E1F3235
P 8850 5500
F 0 "C30" H 8900 5600 50  0000 L CNN
F 1 "0,1u" H 8900 5400 50  0000 L CNN
F 2 "" H 8850 5500 60  0001 C CNN
F 3 "" H 8850 5500 60  0001 C CNN
	1    8850 5500
	1    0    0    -1  
$EndComp
$Comp
L dac-rescue:CP1-RESCUE-dac C37
U 1 1 4E1F3228
P 9750 4400
F 0 "C37" H 9800 4500 50  0000 L CNN
F 1 "10u" H 9800 4300 50  0000 L CNN
F 2 "" H 9750 4400 60  0001 C CNN
F 3 "" H 9750 4400 60  0001 C CNN
	1    9750 4400
	1    0    0    -1  
$EndComp
$Comp
L dac-rescue:CP1-RESCUE-dac C20
U 1 1 4E1F3225
P 6500 4400
F 0 "C20" H 6550 4500 50  0000 L CNN
F 1 "10u" H 6550 4300 50  0000 L CNN
F 2 "" H 6500 4400 60  0001 C CNN
F 3 "" H 6500 4400 60  0001 C CNN
	1    6500 4400
	-1   0    0    1   
$EndComp
$Comp
L dac-rescue:CP1-RESCUE-dac C32
U 1 1 4E1F3205
P 9150 5500
F 0 "C32" H 9200 5600 50  0000 L CNN
F 1 "10u" H 9200 5400 50  0000 L CNN
F 2 "" H 9150 5500 60  0001 C CNN
F 3 "" H 9150 5500 60  0001 C CNN
	1    9150 5500
	-1   0    0    1   
$EndComp
$Comp
L dac-rescue:CP1-RESCUE-dac C33
U 1 1 4E1F3203
P 9150 6150
F 0 "C33" H 9200 6250 50  0000 L CNN
F 1 "10u" H 9200 6050 50  0000 L CNN
F 2 "" H 9150 6150 60  0001 C CNN
F 3 "" H 9150 6150 60  0001 C CNN
	1    9150 6150
	1    0    0    -1  
$EndComp
$Comp
L dac-rescue:R-RESCUE-dac R8
U 1 1 4E1F2DD4
P 9100 1350
F 0 "R8" V 9180 1350 50  0000 C CNN
F 1 "0" V 9100 1350 50  0000 C CNN
F 2 "" H 9100 1350 60  0001 C CNN
F 3 "" H 9100 1350 60  0001 C CNN
	1    9100 1350
	0    1    1    0   
$EndComp
$Comp
L dac-rescue:R-RESCUE-dac R7
U 1 1 4E1F2DCF
P 9100 1200
F 0 "R7" V 9180 1200 50  0000 C CNN
F 1 "0" V 9100 1200 50  0000 C CNN
F 2 "" H 9100 1200 60  0001 C CNN
F 3 "" H 9100 1200 60  0001 C CNN
	1    9100 1200
	0    1    1    0   
$EndComp
Text Label 6300 2000 0    60   ~ 0
TDAOR
Text Label 8150 1800 2    60   ~ 0
TDAOL
$Comp
L dac-rescue:C-RESCUE-dac C35
U 1 1 4E1F2641
P 9450 2550
F 0 "C35" H 9500 2650 50  0000 L CNN
F 1 "100n" H 9500 2450 50  0000 L CNN
F 2 "" H 9450 2550 60  0001 C CNN
F 3 "" H 9450 2550 60  0001 C CNN
	1    9450 2550
	1    0    0    -1  
$EndComp
$Comp
L dac-rescue:C-RESCUE-dac C34
U 1 1 4E1F263E
P 9450 2050
F 0 "C34" H 9500 2150 50  0000 L CNN
F 1 "100n" H 9500 1950 50  0000 L CNN
F 2 "" H 9450 2050 60  0001 C CNN
F 3 "" H 9450 2050 60  0001 C CNN
	1    9450 2050
	1    0    0    -1  
$EndComp
$Comp
L dac-rescue:C-RESCUE-dac C21
U 1 1 4E1F2608
P 8200 1100
F 0 "C21" H 8250 1200 50  0000 L CNN
F 1 "100N" H 8250 1000 50  0000 L CNN
F 2 "" H 8200 1100 60  0001 C CNN
F 3 "" H 8200 1100 60  0001 C CNN
	1    8200 1100
	1    0    0    -1  
$EndComp
$Comp
L dac-rescue:C-RESCUE-dac C26
U 1 1 4E1F25BD
P 8500 2800
F 0 "C26" H 8550 2900 50  0000 L CNN
F 1 "250P" H 8550 2700 50  0000 L CNN
F 2 "" H 8500 2800 60  0001 C CNN
F 3 "" H 8500 2800 60  0001 C CNN
	1    8500 2800
	0    -1   -1   0   
$EndComp
$Comp
L dac-rescue:C-RESCUE-dac C25
U 1 1 4E1F253C
P 8300 2500
F 0 "C25" H 8350 2600 50  0000 L CNN
F 1 "100N" H 8350 2400 50  0000 L CNN
F 2 "" H 8300 2500 60  0001 C CNN
F 3 "" H 8300 2500 60  0001 C CNN
	1    8300 2500
	0    -1   -1   0   
$EndComp
$Comp
L dac-rescue:C-RESCUE-dac C29
U 1 1 4E1F2539
P 8600 2400
F 0 "C29" H 8650 2500 50  0000 L CNN
F 1 "100N" H 8650 2300 50  0000 L CNN
F 2 "" H 8600 2400 60  0001 C CNN
F 3 "" H 8600 2400 60  0001 C CNN
	1    8600 2400
	0    -1   -1   0   
$EndComp
$Comp
L dac-rescue:C-RESCUE-dac C24
U 1 1 4E1F2537
P 8300 2300
F 0 "C24" H 8350 2400 50  0000 L CNN
F 1 "100N" H 8350 2200 50  0000 L CNN
F 2 "" H 8300 2300 60  0001 C CNN
F 3 "" H 8300 2300 60  0001 C CNN
	1    8300 2300
	0    -1   -1   0   
$EndComp
$Comp
L dac-rescue:C-RESCUE-dac C28
U 1 1 4E1F2534
P 8600 2200
F 0 "C28" H 8650 2300 50  0000 L CNN
F 1 "100N" H 8650 2100 50  0000 L CNN
F 2 "" H 8600 2200 60  0001 C CNN
F 3 "" H 8600 2200 60  0001 C CNN
	1    8600 2200
	0    -1   -1   0   
$EndComp
$Comp
L dac-rescue:C-RESCUE-dac C23
U 1 1 4E1F2531
P 8300 2100
F 0 "C23" H 8350 2200 50  0000 L CNN
F 1 "100N" H 8350 2000 50  0000 L CNN
F 2 "" H 8300 2100 60  0001 C CNN
F 3 "" H 8300 2100 60  0001 C CNN
	1    8300 2100
	0    -1   -1   0   
$EndComp
$Comp
L dac-rescue:C-RESCUE-dac C27
U 1 1 4E1F252A
P 8600 2000
F 0 "C27" H 8650 2100 50  0000 L CNN
F 1 "100N" H 8650 1900 50  0000 L CNN
F 2 "" H 8600 2000 60  0001 C CNN
F 3 "" H 8600 2000 60  0001 C CNN
	1    8600 2000
	0    -1   -1   0   
$EndComp
$Comp
L dac-rescue:C-RESCUE-dac C22
U 1 1 4E1F2523
P 8300 1900
F 0 "C22" H 8350 2000 50  0000 L CNN
F 1 "100N" H 8350 1800 50  0000 L CNN
F 2 "" H 8300 1900 60  0001 C CNN
F 3 "" H 8300 1900 60  0001 C CNN
	1    8300 1900
	0    -1   -1   0   
$EndComp
$Comp
L dac-rescue:C-RESCUE-dac C18
U 1 1 4E1F251C
P 6200 2700
F 0 "C18" H 6250 2800 50  0000 L CNN
F 1 "100N" H 6250 2600 50  0000 L CNN
F 2 "" H 6200 2700 60  0001 C CNN
F 3 "" H 6200 2700 60  0001 C CNN
	1    6200 2700
	0    1    1    0   
$EndComp
$Comp
L dac-rescue:C-RESCUE-dac C14
U 1 1 4E1F2518
P 5750 2600
F 0 "C14" H 5800 2700 50  0000 L CNN
F 1 "100N" H 5800 2500 50  0000 L CNN
F 2 "" H 5750 2600 60  0001 C CNN
F 3 "" H 5750 2600 60  0001 C CNN
	1    5750 2600
	0    1    1    0   
$EndComp
$Comp
L dac-rescue:C-RESCUE-dac C17
U 1 1 4E1F2513
P 6200 2500
F 0 "C17" H 6250 2600 50  0000 L CNN
F 1 "100N" H 6250 2400 50  0000 L CNN
F 2 "" H 6200 2500 60  0001 C CNN
F 3 "" H 6200 2500 60  0001 C CNN
	1    6200 2500
	0    1    1    0   
$EndComp
$Comp
L dac-rescue:C-RESCUE-dac C13
U 1 1 4E1F250F
P 5750 2400
F 0 "C13" H 5800 2500 50  0000 L CNN
F 1 "100N" H 5800 2300 50  0000 L CNN
F 2 "" H 5750 2400 60  0001 C CNN
F 3 "" H 5750 2400 60  0001 C CNN
	1    5750 2400
	0    1    1    0   
$EndComp
$Comp
L dac-rescue:C-RESCUE-dac C16
U 1 1 4E1F2509
P 6200 2300
F 0 "C16" H 6250 2400 50  0000 L CNN
F 1 "100N" H 6250 2200 50  0000 L CNN
F 2 "" H 6200 2300 60  0001 C CNN
F 3 "" H 6200 2300 60  0001 C CNN
	1    6200 2300
	0    1    1    0   
$EndComp
$Comp
L dac-rescue:C-RESCUE-dac C12
U 1 1 4E1F2504
P 5750 2200
F 0 "C12" H 5800 2300 50  0000 L CNN
F 1 "100N" H 5800 2100 50  0000 L CNN
F 2 "" H 5750 2200 60  0001 C CNN
F 3 "" H 5750 2200 60  0001 C CNN
	1    5750 2200
	0    1    1    0   
$EndComp
$Comp
L dac-rescue:C-RESCUE-dac C15
U 1 1 4E1F24EB
P 6200 2100
F 0 "C15" H 6250 2200 50  0000 L CNN
F 1 "100N" H 6250 2000 50  0000 L CNN
F 2 "" H 6200 2100 60  0001 C CNN
F 3 "" H 6200 2100 60  0001 C CNN
	1    6200 2100
	0    1    1    0   
$EndComp
$Comp
L dac-rescue:C-RESCUE-dac C8
U 1 1 4E1F23F9
P 2100 4300
F 0 "C8" H 2150 4400 50  0000 L CNN
F 1 "0.01uF" H 2150 4200 50  0000 L CNN
F 2 "" H 2100 4300 60  0001 C CNN
F 3 "" H 2100 4300 60  0001 C CNN
	1    2100 4300
	0    1    1    0   
$EndComp
Text Label 1750 4700 0    60   ~ 0
AUTORST
$Comp
L dac-rescue:C-RESCUE-dac C2
U 1 1 4E1F1C13
P 1100 4750
F 0 "C2" H 1150 4850 50  0000 L CNN
F 1 "Cfilt22nF" H 1150 4650 50  0000 L CNN
F 2 "" H 1100 4750 60  0001 C CNN
F 3 "" H 1100 4750 60  0001 C CNN
	1    1100 4750
	-1   0    0    1   
$EndComp
$Comp
L dac-rescue:C-RESCUE-dac C5
U 1 1 4E1F1C10
P 1350 5050
F 0 "C5" H 1400 5150 50  0000 L CNN
F 1 "Crip1nF" H 1400 4950 50  0000 L CNN
F 2 "" H 1350 5050 60  0001 C CNN
F 3 "" H 1350 5050 60  0001 C CNN
	1    1350 5050
	-1   0    0    1   
$EndComp
$Comp
L dac-rescue:R-RESCUE-dac R1
U 1 1 4E1F1C0D
P 1100 5250
F 0 "R1" V 1180 5250 50  0000 C CNN
F 1 "Rfilt" V 1100 5250 50  0000 C CNN
F 2 "" H 1100 5250 60  0001 C CNN
F 3 "" H 1100 5250 60  0001 C CNN
	1    1100 5250
	1    0    0    -1  
$EndComp
$Comp
L dac-rescue:CP1-RESCUE-dac C10
U 1 1 4E1F1BCA
P 4750 4950
F 0 "C10" H 4800 5050 50  0000 L CNN
F 1 "0,1U" H 4800 4850 50  0000 L CNN
F 2 "" H 4750 4950 60  0001 C CNN
F 3 "" H 4750 4950 60  0001 C CNN
	1    4750 4950
	1    0    0    -1  
$EndComp
$Comp
L dac-rescue:CP1-RESCUE-dac C11
U 1 1 4E1F1BC1
P 4950 4650
F 0 "C11" H 5000 4750 50  0000 L CNN
F 1 "0,1U" H 5000 4550 50  0000 L CNN
F 2 "" H 4950 4650 60  0001 C CNN
F 3 "" H 4950 4650 60  0001 C CNN
	1    4950 4650
	1    0    0    -1  
$EndComp
$Comp
L dac-rescue:CP1-RESCUE-dac C4
U 1 1 4E1F1BBE
P 1350 4200
F 0 "C4" H 1400 4300 50  0000 L CNN
F 1 "0,1U" H 1400 4100 50  0000 L CNN
F 2 "" H 1350 4200 60  0001 C CNN
F 3 "" H 1350 4200 60  0001 C CNN
	1    1350 4200
	1    0    0    -1  
$EndComp
$Comp
L dac-rescue:CP1-RESCUE-dac C1
U 1 1 4E1F1BBA
P 1100 4200
F 0 "C1" H 1150 4300 50  0000 L CNN
F 1 "10U" H 1150 4100 50  0000 L CNN
F 2 "" H 1100 4200 60  0001 C CNN
F 3 "" H 1100 4200 60  0001 C CNN
	1    1100 4200
	1    0    0    -1  
$EndComp
$Comp
L dac-rescue:R-RESCUE-dac R6
U 1 1 4E1F1B8B
P 5400 4400
F 0 "R6" V 5480 4400 50  0000 C CNN
F 1 "47k" V 5400 4400 50  0000 C CNN
F 2 "" H 5400 4400 60  0001 C CNN
F 3 "" H 5400 4400 60  0001 C CNN
	1    5400 4400
	1    0    0    -1  
$EndComp
$Comp
L dac-rescue:C-RESCUE-dac C9
U 1 1 4E1CC01D
P 2900 650
F 0 "C9" H 2950 750 50  0000 L CNN
F 1 "10n" H 2950 550 50  0000 L CNN
F 2 "" H 2900 650 60  0001 C CNN
F 3 "" H 2900 650 60  0001 C CNN
	1    2900 650 
	0    1    1    0   
$EndComp
$Comp
L tda1541:TDA1541 U2
U 1 1 4E1CBFBA
P 7050 2950
F 0 "U2" H 7050 2950 60  0000 C CNN
F 1 "TDA1541" H 7050 2950 60  0000 C CNN
F 2 "" H 7050 2950 60  0001 C CNN
F 3 "" H 7050 2950 60  0001 C CNN
	1    7050 2950
	1    0    0    -1  
$EndComp
Wire Wire Line
	3300 1900 3300 2050
Wire Wire Line
	4750 5200 4750 5150
Wire Wire Line
	3300 2200 3300 2350
Wire Wire Line
	900  4450 650  4450
Wire Wire Line
	1100 4450 1100 4400
Wire Wire Line
	900  3950 1100 3950
Wire Wire Line
	6700 5950 6700 5850
Wire Wire Line
	8200 5850 8200 5750
Wire Wire Line
	6700 5850 6700 5750
Wire Wire Line
	9900 1350 10250 1350
Wire Wire Line
	5500 2700 6000 2700
Wire Wire Line
	4750 4650 4750 4750
Wire Wire Line
	4350 5500 4350 5900
Wire Wire Line
	2350 4900 2350 5000
Wire Wire Line
	2150 3950 2250 3950
Wire Wire Line
	1650 2100 1000 2100
Wire Wire Line
	1000 1800 1000 2000
Wire Wire Line
	2350 3350 2300 3350
Wire Wire Line
	2600 1250 2800 1250
Wire Wire Line
	2600 650  2300 650 
Wire Wire Line
	8850 5250 9150 5250
Wire Wire Line
	6500 4650 6200 4650
Wire Wire Line
	6200 4100 6100 4100
Wire Wire Line
	9450 2300 9450 2350
Wire Wire Line
	8200 850  8000 850 
Wire Wire Line
	9450 1550 8300 1550
Wire Wire Line
	8850 2000 8850 1900
Wire Wire Line
	8850 2100 8850 2000
Wire Wire Line
	8850 2300 8850 2200
Wire Wire Line
	5500 2300 5500 2200
Wire Wire Line
	1350 3950 1550 3950
Wire Wire Line
	1100 4500 1100 4450
Wire Wire Line
	1100 4500 1350 4500
Wire Wire Line
	1350 5550 1100 5550
Wire Wire Line
	1350 4500 1350 4400
Wire Wire Line
	1350 4500 2400 4500
Wire Wire Line
	1100 3950 1100 3900
Wire Wire Line
	1100 3950 1350 3950
Wire Wire Line
	5500 2600 5500 2500
Wire Wire Line
	5500 2200 5500 2100
Wire Wire Line
	5500 2500 5500 2400
Wire Wire Line
	8850 2400 8850 2300
Wire Wire Line
	8850 2200 8850 2100
Wire Wire Line
	9450 2950 8000 2950
Wire Wire Line
	8850 2500 8500 2500
Wire Wire Line
	9450 1350 9450 1450
Wire Wire Line
	8800 850  8200 850 
Wire Wire Line
	6500 4100 6200 4100
Wire Wire Line
	8850 5750 8850 5900
Wire Wire Line
	8850 5750 9150 5750
Wire Wire Line
	8850 5900 8600 5900
Wire Wire Line
	8850 5900 8850 5950
Wire Wire Line
	8850 6400 8500 6400
Wire Wire Line
	9450 4100 8550 4100
Wire Wire Line
	9750 4650 9750 4600
Wire Wire Line
	9750 4650 10100 4650
Wire Wire Line
	6200 4650 6100 4650
Wire Wire Line
	2300 3350 2150 3350
Wire Wire Line
	2350 5000 2350 5100
Wire Wire Line
	2350 5100 2400 5100
Wire Wire Line
	4550 5900 4750 5900
Wire Wire Line
	5400 4100 3900 4100
Wire Wire Line
	8600 1350 8200 1350
Wire Wire Line
	9900 850  8800 850 
Wire Wire Line
	6700 5750 6700 5650
Wire Wire Line
	9150 5900 8850 5900
Wire Wire Line
	8200 5750 8100 5750
Wire Wire Line
	6700 5650 6700 5350
Wire Wire Line
	9150 5250 9750 5250
Wire Wire Line
	9450 4650 9750 4650
Wire Wire Line
	8750 4650 9450 4650
Wire Wire Line
	3300 2050 3300 2200
Wire Wire Line
	3300 2350 3300 2500
Wire Wire Line
	4750 5900 4950 5900
Wire Wire Line
	5500 2400 5500 2300
Wire Wire Line
	10450 4850 10900 4850
Wire Wire Line
	10900 4850 10900 7050
Wire Wire Line
	10800 4950 10450 4950
Wire Wire Line
	10800 4950 10800 6950
Text Label 10600 5250 0    60   ~ 0
TDAOR
Wire Wire Line
	10600 5250 10450 5250
Text Label 10600 5350 0    60   ~ 0
TDAOL
Wire Wire Line
	10600 5350 10450 5350
Wire Wire Line
	10450 5650 10600 5650
Wire Wire Line
	10450 5750 10600 5750
Text Label 6750 6700 0    60   ~ 0
OL
Text Label 6750 6800 0    60   ~ 0
OR
Text Notes 6400 3450 0    60   ~ 0
Errata: sans l'ampli op de sortie, pas de son correct, des bruits semi digitaux
Connection ~ 10800 6950
Wire Wire Line
	10800 6950 6450 6950
Connection ~ 10900 7050
Wire Wire Line
	10900 7050 10950 7050
$EndSCHEMATC
