EESchema Schematic File Version 4
LIBS:dac-cache
EELAYER 26 0
EELAYER END
$Descr A4 11693 8268
encoding utf-8
Sheet 3 6
Title ""
Date "7 dec 2011"
Rev ""
Comp ""
Comment1 ""
Comment2 ""
Comment3 ""
Comment4 ""
$EndDescr
Text Label 7600 2850 0    60   ~ 0
+9V
$Comp
L dac-rescue:CONN_2 P14
U 1 1 4E4BD7BE
P 6850 2950
F 0 "P14" V 6800 2950 40  0000 C CNN
F 1 "CONN_2" V 6900 2950 40  0000 C CNN
F 2 "" H 6850 2950 60  0001 C CNN
F 3 "" H 6850 2950 60  0001 C CNN
	1    6850 2950
	-1   0    0    1   
$EndComp
Connection ~ 8600 4700
Wire Wire Line
	7200 3050 7950 3050
Wire Wire Line
	7950 3050 7950 4700
Wire Wire Line
	7950 4700 10200 4700
Wire Wire Line
	8150 650  8150 1350
Wire Wire Line
	8150 650  3050 650 
Wire Wire Line
	1150 6200 4550 6200
Wire Wire Line
	4550 6200 4550 6600
Wire Wire Line
	1100 1450 3050 1450
Wire Wire Line
	3050 1450 3050 650 
Wire Wire Line
	9050 1950 9050 1650
Wire Wire Line
	6900 5500 6900 5600
Wire Wire Line
	6300 1050 6300 1150
Connection ~ 6550 2150
Wire Wire Line
	6550 2100 6550 2150
Connection ~ 7400 6050
Wire Wire Line
	8450 6350 7400 6350
Wire Wire Line
	7400 6350 7400 6050
Wire Wire Line
	8450 6250 8250 6250
Wire Wire Line
	8250 6250 8250 5850
Wire Wire Line
	8250 5850 7400 5850
Connection ~ 10750 3450
Wire Wire Line
	10750 5050 10750 3000
Wire Wire Line
	5200 1600 6650 1600
Wire Wire Line
	10050 1350 9350 1350
Wire Wire Line
	8150 1350 8750 1350
Connection ~ 4600 650 
Wire Wire Line
	4600 650  4600 1100
Wire Wire Line
	1100 1550 1650 1550
Connection ~ 9650 1950
Connection ~ 9050 1950
Connection ~ 8550 1350
Wire Wire Line
	8550 1450 8550 1350
Connection ~ 6900 6600
Connection ~ 6900 5550
Connection ~ 6400 6600
Wire Wire Line
	7500 6600 6200 6600
Connection ~ 6400 6050
Wire Wire Line
	6400 6100 6400 6000
Connection ~ 6400 5550
Wire Wire Line
	6400 5600 6400 5550
Connection ~ 5800 6050
Wire Wire Line
	5800 6300 5800 5850
Connection ~ 5100 6600
Wire Wire Line
	5100 6600 5100 6500
Wire Wire Line
	4550 6600 5400 6600
Connection ~ 5100 5550
Wire Wire Line
	5100 5550 5100 5600
Wire Wire Line
	5800 1850 5800 1400
Wire Wire Line
	6650 1100 6200 1100
Connection ~ 9850 4200
Wire Wire Line
	9600 4200 10150 4200
Connection ~ 8600 4200
Wire Wire Line
	8600 4200 8600 4250
Wire Wire Line
	8600 4700 8600 4650
Connection ~ 9850 4700
Wire Wire Line
	8800 4200 8150 4200
Wire Wire Line
	6300 1650 6300 1550
Connection ~ 6300 1600
Wire Wire Line
	5200 1550 5200 1650
Connection ~ 5200 1600
Wire Wire Line
	5200 1100 5200 1150
Wire Wire Line
	4600 1100 5400 1100
Connection ~ 5200 1100
Wire Wire Line
	5200 2150 5200 2050
Connection ~ 5200 2150
Wire Wire Line
	6650 2150 6200 2150
Connection ~ 6300 2150
Connection ~ 6300 1100
Connection ~ 5800 1600
Wire Wire Line
	5400 5550 4550 5550
Wire Wire Line
	5100 6100 5100 6000
Connection ~ 5100 6050
Wire Wire Line
	6400 6600 6400 6500
Wire Wire Line
	7500 5550 6200 5550
Wire Wire Line
	6900 6000 6900 6100
Connection ~ 6900 6050
Wire Wire Line
	8550 1850 8550 1950
Wire Wire Line
	9650 1450 9650 1350
Connection ~ 9650 1350
Connection ~ 9650 3450
Wire Wire Line
	9650 3450 9650 3350
Wire Wire Line
	9350 2850 10000 2850
Connection ~ 9050 3450
Wire Wire Line
	9050 3450 9050 3150
Connection ~ 8550 2850
Wire Wire Line
	8550 2950 8550 2850
Wire Wire Line
	8550 3350 8550 3450
Wire Wire Line
	9650 2950 9650 2850
Connection ~ 9650 2850
Wire Wire Line
	1150 6100 1700 6100
Connection ~ 8150 2850
Wire Wire Line
	8550 3450 10750 3450
Wire Wire Line
	10750 5050 9850 5050
Wire Wire Line
	9850 5050 9850 4650
Wire Wire Line
	5400 2150 4600 2150
Wire Wire Line
	5100 6050 7500 6050
Wire Wire Line
	10750 2300 10750 2500
Wire Wire Line
	10750 2300 9650 2300
Wire Wire Line
	7400 5850 7400 5550
Connection ~ 7400 5550
Wire Wire Line
	8450 6450 7400 6450
Wire Wire Line
	7400 6450 7400 6600
Connection ~ 7400 6600
Wire Wire Line
	9200 4500 9200 4700
Connection ~ 9200 4700
Wire Wire Line
	6550 1050 6550 1100
Connection ~ 6550 1100
Wire Wire Line
	6300 2200 6300 2050
Wire Wire Line
	9850 4150 9850 4250
Wire Wire Line
	6900 6650 6900 6500
Wire Wire Line
	8550 1950 10050 1950
Wire Wire Line
	1100 1650 4600 1650
Wire Wire Line
	4600 1650 4600 2150
Wire Wire Line
	1150 6000 4550 6000
Wire Wire Line
	4550 6000 4550 5550
Wire Wire Line
	10750 3000 10950 3000
Wire Wire Line
	10950 3000 10950 2500
Wire Wire Line
	10950 2500 10750 2500
Wire Wire Line
	9650 2300 9650 1850
Wire Wire Line
	8150 4200 8150 2850
Wire Wire Line
	7200 2850 8750 2850
Text Notes 10550 2750 0    60   ~ 0
GND-AGND
$Comp
L linear2:7915T IC9
U 1 1 4E47CF6E
P 5800 6500
F 0 "IC9" H 5500 6200 50  0000 L BNN
F 1 "7915T" H 5500 6100 50  0000 L BNN
F 2 "linear2-TO220H" H 5800 6650 50  0001 C CNN
F 3 "" H 5800 6500 60  0001 C CNN
	1    5800 6500
	1    0    0    -1  
$EndComp
$Comp
L power:PWR_FLAG #FLG01
U 1 1 4E44FB49
P 6900 6650
F 0 "#FLG01" H 6900 6920 30  0001 C CNN
F 1 "PWR_FLAG" H 6900 6880 30  0000 C CNN
F 2 "" H 6900 6650 60  0001 C CNN
F 3 "" H 6900 6650 60  0001 C CNN
	1    6900 6650
	-1   0    0    1   
$EndComp
$Comp
L power:PWR_FLAG #FLG02
U 1 1 4E44FB46
P 6900 5500
F 0 "#FLG02" H 6900 5770 30  0001 C CNN
F 1 "PWR_FLAG" H 6900 5730 30  0000 C CNN
F 2 "" H 6900 5500 60  0001 C CNN
F 3 "" H 6900 5500 60  0001 C CNN
	1    6900 5500
	1    0    0    -1  
$EndComp
$Comp
L power:PWR_FLAG #FLG03
U 1 1 4E44FB28
P 9850 4150
F 0 "#FLG03" H 9850 4420 30  0001 C CNN
F 1 "PWR_FLAG" H 9850 4380 30  0000 C CNN
F 2 "" H 9850 4150 60  0001 C CNN
F 3 "" H 9850 4150 60  0001 C CNN
	1    9850 4150
	1    0    0    -1  
$EndComp
$Comp
L power:PWR_FLAG #FLG04
U 1 1 4E44FABD
P 6300 2200
F 0 "#FLG04" H 6300 2470 30  0001 C CNN
F 1 "PWR_FLAG" H 6300 2430 30  0000 C CNN
F 2 "" H 6300 2200 60  0001 C CNN
F 3 "" H 6300 2200 60  0001 C CNN
	1    6300 2200
	-1   0    0    1   
$EndComp
$Comp
L power:PWR_FLAG #FLG05
U 1 1 4E44FAB6
P 6300 1050
F 0 "#FLG05" H 6300 1320 30  0001 C CNN
F 1 "PWR_FLAG" H 6300 1280 30  0000 C CNN
F 2 "" H 6300 1050 60  0001 C CNN
F 3 "" H 6300 1050 60  0001 C CNN
	1    6300 1050
	1    0    0    -1  
$EndComp
$Comp
L power:-5VA #PWR2
U 1 1 4E44F9D6
P 6550 2100
F 0 "#PWR2" H 6550 2300 40  0001 C CNN
F 1 "-5VA" H 6550 2250 40  0000 C CNN
F 2 "" H 6550 2100 60  0001 C CNN
F 3 "" H 6550 2100 60  0001 C CNN
	1    6550 2100
	1    0    0    -1  
$EndComp
$Comp
L power:+5VA #PWR06
U 1 1 4E44F9C7
P 6550 1050
F 0 "#PWR06" H 6550 1180 20  0001 C CNN
F 1 "+5VA" H 6550 1150 30  0000 C CNN
F 2 "" H 6550 1050 60  0001 C CNN
F 3 "" H 6550 1050 60  0001 C CNN
	1    6550 1050
	1    0    0    -1  
$EndComp
$Comp
L dac-rescue:CONN_3 K4
U 1 1 4E293755
P 8800 6350
F 0 "K4" V 8750 6350 50  0000 C CNN
F 1 "CONN_3" V 8850 6350 40  0000 C CNN
F 2 "" H 8800 6350 60  0001 C CNN
F 3 "" H 8800 6350 60  0001 C CNN
	1    8800 6350
	1    0    0    -1  
$EndComp
Text GLabel 1700 6100 2    60   Input ~ 0
GND
Text GLabel 1650 1550 2    60   Input ~ 0
GND
Text GLabel 6650 1600 2    60   Input ~ 0
AGND
Text GLabel 7500 6050 2    60   Input ~ 0
AGND
Text GLabel 10050 1950 2    60   Input ~ 0
AGND
Text GLabel 10200 4700 2    60   Input ~ 0
GND
Text GLabel 10150 4200 2    60   Input ~ 0
+5VD
Text GLabel 10000 2850 2    60   Input ~ 0
+3V3D
Text GLabel 10050 1350 2    60   Input ~ 0
+3V3A
Text GLabel 6650 2150 2    60   Input ~ 0
-5VA
Text GLabel 6650 1100 2    60   Input ~ 0
+5VA
Text GLabel 7500 6600 2    60   Input ~ 0
-15VA
Text GLabel 7500 5550 2    60   Input ~ 0
+15VA
Text Label 1700 6000 0    60   ~ 0
+18V
Text Label 1700 6200 0    60   ~ 0
-18V
Text Label 1650 1650 0    60   ~ 0
-8VU
Text Label 1650 1450 0    60   ~ 0
8VU
$Comp
L dac-rescue:CONN_3 K3
U 1 1 4E272A92
P 800 6100
F 0 "K3" V 750 6100 50  0000 C CNN
F 1 "CONN_3" V 850 6100 40  0000 C CNN
F 2 "" H 800 6100 60  0001 C CNN
F 3 "" H 800 6100 60  0001 C CNN
	1    800  6100
	-1   0    0    1   
$EndComp
$Comp
L dac-rescue:CONN_3 K2
U 1 1 4E272A8C
P 750 1550
F 0 "K2" V 700 1550 50  0000 C CNN
F 1 "CONN_3" V 800 1550 40  0000 C CNN
F 2 "" H 750 1550 60  0001 C CNN
F 3 "" H 750 1550 60  0001 C CNN
	1    750  1550
	-1   0    0    1   
$EndComp
$Comp
L dac-rescue:C-RESCUE-dac C53
U 1 1 4E272A74
P 9650 3150
F 0 "C53" H 9700 3250 50  0000 L CNN
F 1 "0,1uF" H 9700 3050 50  0000 L CNN
F 2 "" H 9650 3150 60  0001 C CNN
F 3 "" H 9650 3150 60  0001 C CNN
	1    9650 3150
	1    0    0    -1  
$EndComp
$Comp
L dac-rescue:CP1-RESCUE-dac C50
U 1 1 4E272A73
P 8550 3150
F 0 "C50" H 8600 3250 50  0000 L CNN
F 1 "10uF" H 8600 3050 50  0000 L CNN
F 2 "" H 8550 3150 60  0001 C CNN
F 3 "" H 8550 3150 60  0001 C CNN
	1    8550 3150
	1    0    0    -1  
$EndComp
$Comp
L v-reg-2:LM1117 IC6
U 1 1 4E272A72
P 9050 2850
F 0 "IC6" H 9150 2550 50  0000 L BNN
F 1 "LM1117" H 9150 2450 50  0000 L BNN
F 2 "v-reg-2-SOT223" H 9050 3000 50  0001 C CNN
F 3 "" H 9050 2850 60  0001 C CNN
	1    9050 2850
	1    0    0    -1  
$EndComp
$Comp
L dac-rescue:CP1-RESCUE-dac C46
U 1 1 4E27294B
P 6400 6300
F 0 "C46" H 6450 6400 50  0000 L CNN
F 1 "CP1" H 6450 6200 50  0000 L CNN
F 2 "" H 6400 6300 60  0001 C CNN
F 3 "" H 6400 6300 60  0001 C CNN
	1    6400 6300
	1    0    0    -1  
$EndComp
$Comp
L dac-rescue:CP1-RESCUE-dac C45
U 1 1 4E272948
P 6400 5800
F 0 "C45" H 6450 5900 50  0000 L CNN
F 1 "CP1" H 6450 5700 50  0000 L CNN
F 2 "" H 6400 5800 60  0001 C CNN
F 3 "" H 6400 5800 60  0001 C CNN
	1    6400 5800
	1    0    0    -1  
$EndComp
$Comp
L dac-rescue:C-RESCUE-dac C48
U 1 1 4E272944
P 6900 6300
F 0 "C48" H 6950 6400 50  0000 L CNN
F 1 "0,1uF" H 6950 6200 50  0000 L CNN
F 2 "" H 6900 6300 60  0001 C CNN
F 3 "" H 6900 6300 60  0001 C CNN
	1    6900 6300
	1    0    0    -1  
$EndComp
$Comp
L dac-rescue:C-RESCUE-dac C47
U 1 1 4E272941
P 6900 5800
F 0 "C47" H 6950 5900 50  0000 L CNN
F 1 "0,1uF" H 6950 5700 50  0000 L CNN
F 2 "" H 6900 5800 60  0001 C CNN
F 3 "" H 6900 5800 60  0001 C CNN
	1    6900 5800
	1    0    0    -1  
$EndComp
$Comp
L dac-rescue:C-RESCUE-dac C44
U 1 1 4E27293E
P 6300 1850
F 0 "C44" H 6350 1950 50  0000 L CNN
F 1 "0,1uF" H 6350 1750 50  0000 L CNN
F 2 "" H 6300 1850 60  0001 C CNN
F 3 "" H 6300 1850 60  0001 C CNN
	1    6300 1850
	1    0    0    -1  
$EndComp
$Comp
L dac-rescue:C-RESCUE-dac C43
U 1 1 4E27293C
P 6300 1350
F 0 "C43" H 6350 1450 50  0000 L CNN
F 1 "0,1uF" H 6350 1250 50  0000 L CNN
F 2 "" H 6300 1350 60  0001 C CNN
F 3 "" H 6300 1350 60  0001 C CNN
	1    6300 1350
	1    0    0    -1  
$EndComp
$Comp
L dac-rescue:C-RESCUE-dac C54
U 1 1 4E272939
P 9850 4450
F 0 "C54" H 9900 4550 50  0000 L CNN
F 1 "0,1uF" H 9900 4350 50  0000 L CNN
F 2 "" H 9850 4450 60  0001 C CNN
F 3 "" H 9850 4450 60  0001 C CNN
	1    9850 4450
	1    0    0    -1  
$EndComp
$Comp
L dac-rescue:C-RESCUE-dac C52
U 1 1 4E27292F
P 9650 1650
F 0 "C52" H 9700 1750 50  0000 L CNN
F 1 "0,1uF" H 9700 1550 50  0000 L CNN
F 2 "" H 9650 1650 60  0001 C CNN
F 3 "" H 9650 1650 60  0001 C CNN
	1    9650 1650
	1    0    0    -1  
$EndComp
$Comp
L dac-rescue:CP1-RESCUE-dac C40
U 1 1 4E27291F
P 5100 6300
F 0 "C40" H 5150 6400 50  0000 L CNN
F 1 "CP1" H 5150 6200 50  0000 L CNN
F 2 "" H 5100 6300 60  0001 C CNN
F 3 "" H 5100 6300 60  0001 C CNN
	1    5100 6300
	1    0    0    -1  
$EndComp
$Comp
L dac-rescue:CP1-RESCUE-dac C39
U 1 1 4E27291D
P 5100 5800
F 0 "C39" H 5150 5900 50  0000 L CNN
F 1 "CP1" H 5150 5700 50  0000 L CNN
F 2 "" H 5100 5800 60  0001 C CNN
F 3 "" H 5100 5800 60  0001 C CNN
	1    5100 5800
	1    0    0    -1  
$EndComp
$Comp
L dac-rescue:CP1-RESCUE-dac C51
U 1 1 4E27291A
P 8600 4450
F 0 "C51" H 8650 4550 50  0000 L CNN
F 1 "CP1" H 8650 4350 50  0000 L CNN
F 2 "" H 8600 4450 60  0001 C CNN
F 3 "" H 8600 4450 60  0001 C CNN
	1    8600 4450
	1    0    0    -1  
$EndComp
$Comp
L dac-rescue:CP1-RESCUE-dac C42
U 1 1 4E272912
P 5200 1850
F 0 "C42" H 5250 1950 50  0000 L CNN
F 1 "CP1" H 5250 1750 50  0000 L CNN
F 2 "" H 5200 1850 60  0001 C CNN
F 3 "" H 5200 1850 60  0001 C CNN
	1    5200 1850
	1    0    0    -1  
$EndComp
$Comp
L dac-rescue:CP1-RESCUE-dac C41
U 1 1 4E272906
P 5200 1350
F 0 "C41" H 5250 1450 50  0000 L CNN
F 1 "CP1" H 5250 1250 50  0000 L CNN
F 2 "" H 5200 1350 60  0001 C CNN
F 3 "" H 5200 1350 60  0001 C CNN
	1    5200 1350
	1    0    0    -1  
$EndComp
$Comp
L dac-rescue:CP1-RESCUE-dac C49
U 1 1 4E272903
P 8550 1650
F 0 "C49" H 8600 1750 50  0000 L CNN
F 1 "10uF" H 8600 1550 50  0000 L CNN
F 2 "" H 8550 1650 60  0001 C CNN
F 3 "" H 8550 1650 60  0001 C CNN
	1    8550 1650
	1    0    0    -1  
$EndComp
$Comp
L v-reg-2:LM1117 IC5
U 1 1 4E2728D7
P 9050 1350
F 0 "IC5" H 9150 1050 50  0000 L BNN
F 1 "LM1117" H 9150 950 50  0000 L BNN
F 2 "v-reg-2-SOT223" H 9050 1500 50  0001 C CNN
F 3 "" H 9050 1350 60  0001 C CNN
	1    9050 1350
	1    0    0    -1  
$EndComp
$Comp
L linear2:7905T IC2
U 1 1 4E272739
P 5800 2050
F 0 "IC2" H 5500 1750 50  0000 L BNN
F 1 "7905T" H 5500 1650 50  0000 L BNN
F 2 "linear2-TO220H" H 5800 2200 50  0001 C CNN
F 3 "" H 5800 2050 60  0001 C CNN
	1    5800 2050
	1    0    0    -1  
$EndComp
$Comp
L linear2:7815T IC3
U 1 1 4E27270B
P 5800 5550
F 0 "IC3" H 5500 5775 50  0000 L BNN
F 1 "7815T" H 5500 5675 50  0000 L BNN
F 2 "linear2-TO220H" H 5800 5700 50  0001 C CNN
F 3 "" H 5800 5550 60  0001 C CNN
	1    5800 5550
	1    0    0    -1  
$EndComp
$Comp
L linear2:7805T IC1
U 1 1 4E2726FB
P 5800 1100
F 0 "IC1" H 5500 1325 50  0000 L BNN
F 1 "7805T" H 5500 1225 50  0000 L BNN
F 2 "linear2-TO220H" H 5800 1250 50  0001 C CNN
F 3 "" H 5800 1100 60  0001 C CNN
	1    5800 1100
	1    0    0    -1  
$EndComp
$Comp
L linear2:7805T IC7
U 1 1 4E2726F2
P 9200 4200
F 0 "IC7" H 8900 4425 50  0000 L BNN
F 1 "7805T" H 8900 4325 50  0000 L BNN
F 2 "linear2-TO220H" H 9200 4350 50  0001 C CNN
F 3 "" H 9200 4200 60  0001 C CNN
	1    9200 4200
	1    0    0    -1  
$EndComp
$EndSCHEMATC
