EESchema Schematic File Version 4
LIBS:dac-cache
EELAYER 26 0
EELAYER END
$Descr A4 11693 8268
encoding utf-8
Sheet 4 6
Title ""
Date "7 dec 2011"
Rev ""
Comp ""
Comment1 ""
Comment2 ""
Comment3 ""
Comment4 ""
$EndDescr
Wire Wire Line
	9150 1250 8800 1250
Wire Wire Line
	6400 5950 6300 5950
Connection ~ 6300 5650
Wire Wire Line
	6300 5950 6300 5650
Wire Wire Line
	6700 6150 7100 6150
Wire Wire Line
	6700 6150 6700 6050
Wire Wire Line
	9150 3400 9150 2250
Wire Wire Line
	9150 2250 9300 2250
Connection ~ 9150 3400
Wire Wire Line
	10700 2450 10700 2900
Wire Wire Line
	10150 2700 10150 3200
Wire Wire Line
	10850 1950 10150 1950
Wire Wire Line
	9800 2500 9850 2500
Wire Wire Line
	9800 2250 10400 2250
Wire Wire Line
	9100 3100 9300 3100
Wire Wire Line
	9800 3400 9850 3400
Wire Wire Line
	10150 3600 10150 3700
Wire Wire Line
	10150 3700 10250 3700
Connection ~ 10150 2800
Wire Wire Line
	10150 2800 10200 2800
Wire Wire Line
	10700 2800 10750 2800
Connection ~ 10700 2800
Wire Wire Line
	10850 3400 10700 3400
Wire Wire Line
	10700 3400 10700 3300
Wire Wire Line
	9800 3100 10400 3100
Wire Wire Line
	9100 3400 9300 3400
Wire Wire Line
	10150 1950 10150 2300
Wire Wire Line
	10700 2050 10700 1950
Connection ~ 10700 1950
Wire Wire Line
	9200 3100 9200 2500
Wire Wire Line
	9200 2500 9300 2500
Connection ~ 9200 3100
Wire Wire Line
	1950 3400 1950 2250
Wire Wire Line
	1950 2250 2100 2250
Connection ~ 1950 3400
Wire Wire Line
	3500 2450 3500 2900
Wire Wire Line
	2950 2700 2950 3200
Wire Wire Line
	3650 1950 2950 1950
Wire Wire Line
	2600 2500 2650 2500
Wire Wire Line
	2600 2250 3200 2250
Wire Wire Line
	1900 3100 2100 3100
Wire Wire Line
	2600 3400 2650 3400
Wire Wire Line
	2950 3600 2950 3700
Wire Wire Line
	2950 3700 3050 3700
Connection ~ 2950 2800
Wire Wire Line
	2950 2800 3000 2800
Wire Wire Line
	3500 2800 3550 2800
Connection ~ 3500 2800
Wire Wire Line
	3650 3400 3500 3400
Wire Wire Line
	3500 3400 3500 3300
Wire Wire Line
	2600 3100 3200 3100
Wire Wire Line
	1900 3400 2100 3400
Wire Wire Line
	2950 1950 2950 2300
Wire Wire Line
	3500 2050 3500 1950
Connection ~ 3500 1950
Wire Wire Line
	2000 3100 2000 2500
Wire Wire Line
	2000 2500 2100 2500
Connection ~ 2000 3100
Wire Wire Line
	5550 3450 5550 2300
Wire Wire Line
	5550 2300 5700 2300
Connection ~ 5550 3450
Wire Wire Line
	7100 2500 7100 2950
Wire Wire Line
	6550 2750 6550 3250
Wire Wire Line
	7250 2000 6550 2000
Wire Wire Line
	6200 2550 6250 2550
Wire Wire Line
	6200 2300 6800 2300
Wire Wire Line
	5500 3150 5700 3150
Wire Wire Line
	6200 3450 6250 3450
Wire Wire Line
	6550 3650 6550 3750
Wire Wire Line
	6550 3750 6650 3750
Connection ~ 6550 2850
Wire Wire Line
	6550 2850 6600 2850
Wire Wire Line
	7100 2850 7150 2850
Connection ~ 7100 2850
Wire Wire Line
	7250 3450 7100 3450
Wire Wire Line
	7100 3450 7100 3350
Wire Wire Line
	6200 3150 6800 3150
Wire Wire Line
	5500 3450 5700 3450
Wire Wire Line
	6550 2000 6550 2350
Wire Wire Line
	7100 2100 7100 2000
Connection ~ 7100 2000
Wire Wire Line
	5600 3150 5600 2550
Wire Wire Line
	5600 2550 5700 2550
Connection ~ 5600 3150
Wire Wire Line
	1850 7200 1850 6050
Wire Wire Line
	1850 6050 2000 6050
Connection ~ 1850 7200
Wire Wire Line
	3400 6250 3400 6700
Wire Wire Line
	2850 6500 2850 7000
Wire Wire Line
	3550 5750 2850 5750
Wire Wire Line
	2500 6300 2550 6300
Wire Wire Line
	2500 6050 3100 6050
Wire Wire Line
	1800 6900 2000 6900
Wire Wire Line
	2500 7200 2550 7200
Connection ~ 4600 5650
Wire Wire Line
	4600 5700 4600 5650
Wire Wire Line
	5150 5650 4200 5650
Wire Wire Line
	2850 7400 2850 7500
Wire Wire Line
	2850 7500 2950 7500
Connection ~ 2850 6600
Wire Wire Line
	2850 6600 2900 6600
Wire Wire Line
	2600 5150 2200 5150
Wire Wire Line
	8100 5750 7700 5750
Wire Wire Line
	1950 1000 2000 1000
Wire Wire Line
	2000 1000 2000 950 
Wire Wire Line
	2000 950  2900 950 
Wire Wire Line
	6800 1200 7450 1200
Wire Wire Line
	5700 950  3800 950 
Wire Wire Line
	5700 950  5700 1300
Wire Wire Line
	5700 1300 6000 1300
Wire Wire Line
	7450 1400 6800 1400
Wire Wire Line
	9950 1050 10150 1050
Wire Wire Line
	10150 1050 10150 1200
Wire Wire Line
	10150 1200 10600 1200
Wire Wire Line
	9950 850  10000 850 
Wire Wire Line
	10000 850  10000 750 
Wire Wire Line
	10000 750  10600 750 
Wire Wire Line
	9150 1550 8800 1550
Connection ~ 7100 4900
Wire Wire Line
	7400 4900 6800 4900
Connection ~ 4000 4850
Wire Wire Line
	3400 4850 4300 4850
Connection ~ 9350 6150
Wire Wire Line
	9350 5150 9350 6350
Connection ~ 9350 5750
Wire Wire Line
	7950 5150 7900 5150
Wire Wire Line
	7900 5150 7900 5250
Wire Wire Line
	7900 5250 7700 5250
Wire Wire Line
	7100 6150 7100 6350
Wire Wire Line
	7700 5650 8100 5650
Wire Wire Line
	7700 5450 8100 5450
Wire Wire Line
	6400 5450 5900 5450
Wire Wire Line
	6400 5250 5900 5250
Wire Wire Line
	1350 4800 1500 4800
Wire Wire Line
	1500 4800 1500 4950
Wire Wire Line
	1500 4950 2600 4950
Wire Wire Line
	1350 4700 1500 4700
Wire Wire Line
	1500 4700 1500 4600
Wire Wire Line
	1500 4600 1350 4600
Wire Wire Line
	2600 4650 1500 4650
Connection ~ 1500 4650
Wire Wire Line
	1350 4900 1500 4900
Connection ~ 1500 4900
Wire Wire Line
	6400 5350 5900 5350
Wire Wire Line
	7700 5350 8100 5350
Wire Wire Line
	7700 5550 8100 5550
Wire Wire Line
	7100 4900 7100 5050
Wire Wire Line
	7700 5950 7900 5950
Wire Wire Line
	7900 5950 7900 6150
Wire Wire Line
	7900 6150 8000 6150
Wire Wire Line
	9350 5150 8450 5150
Wire Wire Line
	9350 6150 8500 6150
Connection ~ 9350 5950
Wire Wire Line
	4000 4850 4000 4550
Wire Wire Line
	9350 6350 6650 6350
Connection ~ 7100 6350
Wire Wire Line
	9150 1450 8800 1450
Wire Wire Line
	10600 950  10050 950 
Wire Wire Line
	10050 950  10050 1150
Wire Wire Line
	10050 1150 9950 1150
Wire Wire Line
	10600 1400 10550 1400
Wire Wire Line
	10550 1400 10550 1350
Wire Wire Line
	10550 1350 9950 1350
Wire Wire Line
	6000 1600 5650 1600
Wire Wire Line
	6000 1500 5650 1500
Wire Wire Line
	3700 1050 3900 1050
Wire Wire Line
	3900 1050 3900 1200
Wire Wire Line
	3900 1200 4350 1200
Wire Wire Line
	3700 850  3750 850 
Wire Wire Line
	3750 850  3750 750 
Wire Wire Line
	2900 1550 2550 1550
Wire Wire Line
	2900 1450 2550 1450
Wire Wire Line
	3800 950  3800 1150
Wire Wire Line
	3800 1150 3700 1150
Wire Wire Line
	6000 1000 5800 1000
Wire Wire Line
	5800 1000 5800 750 
Wire Wire Line
	5800 750  3750 750 
Wire Wire Line
	9150 950  8800 950 
Wire Wire Line
	4350 1350 3700 1350
Wire Wire Line
	6800 1100 7450 1100
Wire Wire Line
	7450 900  6800 900 
Wire Wire Line
	2900 1250 2000 1250
Wire Wire Line
	2000 1250 2000 1200
Wire Wire Line
	2000 1200 1950 1200
Wire Wire Line
	8100 5850 7700 5850
Wire Wire Line
	4000 4550 3400 4550
Wire Wire Line
	2600 5250 2200 5250
Wire Wire Line
	3400 6600 3450 6600
Connection ~ 3400 6600
Wire Wire Line
	3550 7200 3400 7200
Wire Wire Line
	3400 7200 3400 7100
Wire Wire Line
	4200 6150 5150 6150
Wire Wire Line
	4600 6100 4600 6150
Connection ~ 4600 6150
Wire Wire Line
	2500 6900 3100 6900
Wire Wire Line
	1800 7200 2000 7200
Wire Wire Line
	2850 5750 2850 6100
Wire Wire Line
	3400 5850 3400 5750
Connection ~ 3400 5750
Wire Wire Line
	1900 6900 1900 6300
Wire Wire Line
	1900 6300 2000 6300
Connection ~ 1900 6900
Wire Wire Line
	7100 5050 6700 5050
Wire Wire Line
	6700 5050 6700 5150
Wire Wire Line
	6400 5650 5900 5650
Wire Wire Line
	6400 5850 5900 5850
NoConn ~ 3400 5050
NoConn ~ 3400 4750
$Comp
L dac-rescue:74LS137-RESCUE-dac U8
U 1 1 4EDFCB36
P 7050 5600
F 0 "U8" H 7050 6100 60  0000 C CNN
F 1 "74LS137" H 7050 5100 60  0000 C CNN
F 2 "" H 7050 5600 60  0001 C CNN
F 3 "" H 7050 5600 60  0001 C CNN
	1    7050 5600
	1    0    0    -1  
$EndComp
Text Label 10850 1950 0    60   ~ 0
+5VD
$Comp
L dac-rescue:NPN Q14
U 1 1 4E46BA90
P 10050 3400
F 0 "Q14" H 10200 3400 50  0000 C CNN
F 1 "NPN" H 9952 3550 50  0000 C CNN
F 2 "" H 10050 3400 60  0001 C CNN
F 3 "" H 10050 3400 60  0001 C CNN
	1    10050 3400
	1    0    0    -1  
$EndComp
$Comp
L dac-rescue:R-RESCUE-dac R66
U 1 1 4E46BA8F
P 9550 2500
F 0 "R66" V 9630 2500 50  0000 C CNN
F 1 "10K" V 9550 2500 50  0000 C CNN
F 2 "" H 9550 2500 60  0001 C CNN
F 3 "" H 9550 2500 60  0001 C CNN
	1    9550 2500
	0    1    1    0   
$EndComp
$Comp
L dac-rescue:NPN Q15
U 1 1 4E46BA8E
P 10600 2250
F 0 "Q15" H 10750 2250 50  0000 C CNN
F 1 "NPN" H 10502 2400 50  0000 C CNN
F 2 "" H 10600 2250 60  0001 C CNN
F 3 "" H 10600 2250 60  0001 C CNN
	1    10600 2250
	1    0    0    -1  
$EndComp
$Comp
L dac-rescue:NPN Q13
U 1 1 4E46BA8D
P 10050 2500
F 0 "Q13" H 10200 2500 50  0000 C CNN
F 1 "NPN" H 9952 2650 50  0000 C CNN
F 2 "" H 10050 2500 60  0001 C CNN
F 3 "" H 10050 2500 60  0001 C CNN
	1    10050 2500
	1    0    0    -1  
$EndComp
$Comp
L dac-rescue:R-RESCUE-dac R65
U 1 1 4E46BA8C
P 9550 2250
F 0 "R65" V 9630 2250 50  0000 C CNN
F 1 "10K" V 9550 2250 50  0000 C CNN
F 2 "" H 9550 2250 60  0001 C CNN
F 3 "" H 9550 2250 60  0001 C CNN
	1    9550 2250
	0    1    1    0   
$EndComp
$Comp
L dac-rescue:R-RESCUE-dac R68
U 1 1 4E46BA8B
P 9550 3400
F 0 "R68" V 9630 3400 50  0000 C CNN
F 1 "10K" V 9550 3400 50  0000 C CNN
F 2 "" H 9550 3400 60  0001 C CNN
F 3 "" H 9550 3400 60  0001 C CNN
	1    9550 3400
	0    1    1    0   
$EndComp
$Comp
L dac-rescue:NPN Q16
U 1 1 4E46BA8A
P 10600 3100
F 0 "Q16" H 10750 3100 50  0000 C CNN
F 1 "NPN" H 10502 3250 50  0000 C CNN
F 2 "" H 10600 3100 60  0001 C CNN
F 3 "" H 10600 3100 60  0001 C CNN
	1    10600 3100
	1    0    0    -1  
$EndComp
Text Label 10250 3700 0    60   ~ 0
GND
Text Label 10850 3400 0    60   ~ 0
GND
$Comp
L dac-rescue:R-RESCUE-dac R67
U 1 1 4E46BA89
P 9550 3100
F 0 "R67" V 9630 3100 50  0000 C CNN
F 1 "10K" V 9550 3100 50  0000 C CNN
F 2 "" H 9550 3100 60  0001 C CNN
F 3 "" H 9550 3100 60  0001 C CNN
	1    9550 3100
	0    1    1    0   
$EndComp
Text Label 3650 1950 0    60   ~ 0
+5VD
$Comp
L dac-rescue:NPN Q4
U 1 1 4E46BA88
P 2850 3400
F 0 "Q4" H 3000 3400 50  0000 C CNN
F 1 "NPN" H 2752 3550 50  0000 C CNN
F 2 "" H 2850 3400 60  0001 C CNN
F 3 "" H 2850 3400 60  0001 C CNN
	1    2850 3400
	1    0    0    -1  
$EndComp
$Comp
L dac-rescue:R-RESCUE-dac R58
U 1 1 4E46BA87
P 2350 2500
F 0 "R58" V 2430 2500 50  0000 C CNN
F 1 "10K" V 2350 2500 50  0000 C CNN
F 2 "" H 2350 2500 60  0001 C CNN
F 3 "" H 2350 2500 60  0001 C CNN
	1    2350 2500
	0    1    1    0   
$EndComp
$Comp
L dac-rescue:NPN Q7
U 1 1 4E46BA86
P 3400 2250
F 0 "Q7" H 3550 2250 50  0000 C CNN
F 1 "NPN" H 3302 2400 50  0000 C CNN
F 2 "" H 3400 2250 60  0001 C CNN
F 3 "" H 3400 2250 60  0001 C CNN
	1    3400 2250
	1    0    0    -1  
$EndComp
$Comp
L dac-rescue:NPN Q3
U 1 1 4E46BA85
P 2850 2500
F 0 "Q3" H 3000 2500 50  0000 C CNN
F 1 "NPN" H 2752 2650 50  0000 C CNN
F 2 "" H 2850 2500 60  0001 C CNN
F 3 "" H 2850 2500 60  0001 C CNN
	1    2850 2500
	1    0    0    -1  
$EndComp
$Comp
L dac-rescue:R-RESCUE-dac R57
U 1 1 4E46BA84
P 2350 2250
F 0 "R57" V 2430 2250 50  0000 C CNN
F 1 "10K" V 2350 2250 50  0000 C CNN
F 2 "" H 2350 2250 60  0001 C CNN
F 3 "" H 2350 2250 60  0001 C CNN
	1    2350 2250
	0    1    1    0   
$EndComp
$Comp
L dac-rescue:R-RESCUE-dac R60
U 1 1 4E46BA83
P 2350 3400
F 0 "R60" V 2430 3400 50  0000 C CNN
F 1 "10K" V 2350 3400 50  0000 C CNN
F 2 "" H 2350 3400 60  0001 C CNN
F 3 "" H 2350 3400 60  0001 C CNN
	1    2350 3400
	0    1    1    0   
$EndComp
$Comp
L dac-rescue:NPN Q8
U 1 1 4E46BA82
P 3400 3100
F 0 "Q8" H 3550 3100 50  0000 C CNN
F 1 "NPN" H 3302 3250 50  0000 C CNN
F 2 "" H 3400 3100 60  0001 C CNN
F 3 "" H 3400 3100 60  0001 C CNN
	1    3400 3100
	1    0    0    -1  
$EndComp
Text Label 3050 3700 0    60   ~ 0
GND
Text Label 3650 3400 0    60   ~ 0
GND
$Comp
L dac-rescue:R-RESCUE-dac R59
U 1 1 4E46BA81
P 2350 3100
F 0 "R59" V 2430 3100 50  0000 C CNN
F 1 "10K" V 2350 3100 50  0000 C CNN
F 2 "" H 2350 3100 60  0001 C CNN
F 3 "" H 2350 3100 60  0001 C CNN
	1    2350 3100
	0    1    1    0   
$EndComp
Text Label 7250 2000 0    60   ~ 0
+5VD
$Comp
L dac-rescue:NPN Q10
U 1 1 4E46BA6A
P 6450 3450
F 0 "Q10" H 6600 3450 50  0000 C CNN
F 1 "NPN" H 6352 3600 50  0000 C CNN
F 2 "" H 6450 3450 60  0001 C CNN
F 3 "" H 6450 3450 60  0001 C CNN
	1    6450 3450
	1    0    0    -1  
$EndComp
$Comp
L dac-rescue:R-RESCUE-dac R62
U 1 1 4E46BA69
P 5950 2550
F 0 "R62" V 6030 2550 50  0000 C CNN
F 1 "10K" V 5950 2550 50  0000 C CNN
F 2 "" H 5950 2550 60  0001 C CNN
F 3 "" H 5950 2550 60  0001 C CNN
	1    5950 2550
	0    1    1    0   
$EndComp
$Comp
L dac-rescue:NPN Q11
U 1 1 4E46BA68
P 7000 2300
F 0 "Q11" H 7150 2300 50  0000 C CNN
F 1 "NPN" H 6902 2450 50  0000 C CNN
F 2 "" H 7000 2300 60  0001 C CNN
F 3 "" H 7000 2300 60  0001 C CNN
	1    7000 2300
	1    0    0    -1  
$EndComp
$Comp
L dac-rescue:NPN Q9
U 1 1 4E46BA67
P 6450 2550
F 0 "Q9" H 6600 2550 50  0000 C CNN
F 1 "NPN" H 6352 2700 50  0000 C CNN
F 2 "" H 6450 2550 60  0001 C CNN
F 3 "" H 6450 2550 60  0001 C CNN
	1    6450 2550
	1    0    0    -1  
$EndComp
$Comp
L dac-rescue:R-RESCUE-dac R61
U 1 1 4E46BA66
P 5950 2300
F 0 "R61" V 6030 2300 50  0000 C CNN
F 1 "10K" V 5950 2300 50  0000 C CNN
F 2 "" H 5950 2300 60  0001 C CNN
F 3 "" H 5950 2300 60  0001 C CNN
	1    5950 2300
	0    1    1    0   
$EndComp
$Comp
L dac-rescue:R-RESCUE-dac R64
U 1 1 4E46BA65
P 5950 3450
F 0 "R64" V 6030 3450 50  0000 C CNN
F 1 "10K" V 5950 3450 50  0000 C CNN
F 2 "" H 5950 3450 60  0001 C CNN
F 3 "" H 5950 3450 60  0001 C CNN
	1    5950 3450
	0    1    1    0   
$EndComp
$Comp
L dac-rescue:NPN Q12
U 1 1 4E46BA64
P 7000 3150
F 0 "Q12" H 7150 3150 50  0000 C CNN
F 1 "NPN" H 6902 3300 50  0000 C CNN
F 2 "" H 7000 3150 60  0001 C CNN
F 3 "" H 7000 3150 60  0001 C CNN
	1    7000 3150
	1    0    0    -1  
$EndComp
Text Label 6650 3750 0    60   ~ 0
GND
Text Label 7250 3450 0    60   ~ 0
GND
$Comp
L dac-rescue:R-RESCUE-dac R63
U 1 1 4E46BA63
P 5950 3150
F 0 "R63" V 6030 3150 50  0000 C CNN
F 1 "10K" V 5950 3150 50  0000 C CNN
F 2 "" H 5950 3150 60  0001 C CNN
F 3 "" H 5950 3150 60  0001 C CNN
	1    5950 3150
	0    1    1    0   
$EndComp
Text Label 3550 5750 0    60   ~ 0
+5VD
$Comp
L dac-rescue:NPN Q2
U 1 1 4E46B8AE
P 2750 7200
F 0 "Q2" H 2900 7200 50  0000 C CNN
F 1 "NPN" H 2652 7350 50  0000 C CNN
F 2 "" H 2750 7200 60  0001 C CNN
F 3 "" H 2750 7200 60  0001 C CNN
	1    2750 7200
	1    0    0    -1  
$EndComp
$Comp
L dac-rescue:R-RESCUE-dac R55
U 1 1 4E46B915
P 2250 6300
F 0 "R55" V 2330 6300 50  0000 C CNN
F 1 "10K" V 2250 6300 50  0000 C CNN
F 2 "" H 2250 6300 60  0001 C CNN
F 3 "" H 2250 6300 60  0001 C CNN
	1    2250 6300
	0    1    1    0   
$EndComp
$Comp
L dac-rescue:NPN Q5
U 1 1 4E46B914
P 3300 6050
F 0 "Q5" H 3450 6050 50  0000 C CNN
F 1 "NPN" H 3202 6200 50  0000 C CNN
F 2 "" H 3300 6050 60  0001 C CNN
F 3 "" H 3300 6050 60  0001 C CNN
	1    3300 6050
	1    0    0    -1  
$EndComp
$Comp
L dac-rescue:NPN Q1
U 1 1 4E46B913
P 2750 6300
F 0 "Q1" H 2900 6300 50  0000 C CNN
F 1 "NPN" H 2652 6450 50  0000 C CNN
F 2 "" H 2750 6300 60  0001 C CNN
F 3 "" H 2750 6300 60  0001 C CNN
	1    2750 6300
	1    0    0    -1  
$EndComp
$Comp
L dac-rescue:R-RESCUE-dac R54
U 1 1 4E46B912
P 2250 6050
F 0 "R54" V 2330 6050 50  0000 C CNN
F 1 "10K" V 2250 6050 50  0000 C CNN
F 2 "" H 2250 6050 60  0001 C CNN
F 3 "" H 2250 6050 60  0001 C CNN
	1    2250 6050
	0    1    1    0   
$EndComp
$Comp
L dac-rescue:R-RESCUE-dac R56
U 1 1 4E46B8CD
P 2250 7200
F 0 "R56" V 2330 7200 50  0000 C CNN
F 1 "10K" V 2250 7200 50  0000 C CNN
F 2 "" H 2250 7200 60  0001 C CNN
F 3 "" H 2250 7200 60  0001 C CNN
	1    2250 7200
	0    1    1    0   
$EndComp
$Comp
L dac-rescue:NPN Q6
U 1 1 4E46B8B4
P 3300 6900
F 0 "Q6" H 3450 6900 50  0000 C CNN
F 1 "NPN" H 3202 7050 50  0000 C CNN
F 2 "" H 3300 6900 60  0001 C CNN
F 3 "" H 3300 6900 60  0001 C CNN
	1    3300 6900
	1    0    0    -1  
$EndComp
Text Label 3450 6600 0    60   ~ 0
BOB1
Text HLabel 7450 900  2    60   Input ~ 0
OL
Text HLabel 7450 1200 2    60   Input ~ 0
OR
Text HLabel 7450 1100 2    60   Input ~ 0
AOUTL
Text HLabel 7450 1400 2    60   Input ~ 0
AOUTR
Text HLabel 1800 7200 0    60   Input ~ 0
OUT_GND_CONNECT
Text HLabel 1800 6900 0    60   Input ~ 0
OUT_GND_DISCONNECT
Text HLabel 5900 5250 0    60   Input ~ 0
OUTSEL0
Text HLabel 5900 5350 0    60   Input ~ 0
OUTSEL1
Text HLabel 5900 5450 0    60   Input ~ 0
OUTSEL2
Text Label 5150 6150 0    60   ~ 0
GND
$Comp
L dac-rescue:CP1-RESCUE-dac C57
U 1 1 4E44EEB8
P 4600 5900
F 0 "C57" H 4650 6000 50  0000 L CNN
F 1 "470uF" H 4650 5800 50  0000 L CNN
F 2 "" H 4600 5900 60  0001 C CNN
F 3 "" H 4600 5900 60  0001 C CNN
	1    4600 5900
	1    0    0    -1  
$EndComp
Text Label 4200 5650 0    60   ~ 0
+5VD
Text Label 10750 2800 0    60   ~ 0
COILB
Text Label 10200 2800 0    60   ~ 0
COILT
Text Label 7150 2850 0    60   ~ 0
COILB1
Text Label 6600 2850 0    60   ~ 0
COILT1
Text Label 2950 7500 0    60   ~ 0
GND
Text Label 2200 5150 0    60   ~ 0
BOB2
Text Label 2200 5250 0    60   ~ 0
BOB1
Text Label 2900 6600 0    60   ~ 0
BOB2
Text Label 3550 7200 0    60   ~ 0
GND
$Comp
L dac-rescue:R-RESCUE-dac R28
U 1 1 4E2A8333
P 2250 6900
F 0 "R28" V 2330 6900 50  0000 C CNN
F 1 "10K" V 2250 6900 50  0000 C CNN
F 2 "" H 2250 6900 60  0001 C CNN
F 3 "" H 2250 6900 60  0001 C CNN
	1    2250 6900
	0    1    1    0   
$EndComp
Text Notes 2750 650  0    60   ~ 0
SELECTION RCA/SPDIF
Text Notes 750  2550 0    60   ~ 0
RELAIS BISTABLES
Text Label 8100 5750 0    60   ~ 0
SOUTCMD_RCA
Text Label 8100 5850 0    60   ~ 0
SOUTCMD_SPDIF
Text Label 4350 1350 0    60   ~ 0
RCAR
Text Label 4350 1200 0    60   ~ 0
RCAL
Text Label 8800 1250 0    60   ~ 0
RCAR
Text Label 8800 950  0    60   ~ 0
RCAL
Text Label 1900 3400 2    60   ~ 0
SOUTCMD_RCA
Text Label 1900 3100 2    60   ~ 0
SOUTCMD_SPDIF
Text Label 3550 2800 0    60   ~ 0
COILB2
Text Label 3000 2800 0    60   ~ 0
COILT2
Text Label 2550 1550 0    60   ~ 0
COILB2
Text Label 2550 1450 0    60   ~ 0
COILT2
$Comp
L dac-rescue:RELAY_2RT K6
U 1 1 4E2A8174
P 3300 1200
F 0 "K6" H 3250 1600 70  0000 C CNN
F 1 "RELAY_2RT" H 3450 700 70  0000 C CNN
F 2 "" H 3300 1200 60  0001 C CNN
F 3 "" H 3300 1200 60  0001 C CNN
	1    3300 1200
	1    0    0    -1  
$EndComp
Text Label 5500 3450 2    60   ~ 0
SOUTCMD_AKM
Text Notes 7350 1600 0    60   ~ 0
AK9396
Text Notes 7350 650  0    60   ~ 0
TDA1541
Text Label 5500 3150 2    60   ~ 0
SOUTCMD_TDA
Text Label 5650 1600 0    60   ~ 0
COILB1
Text Label 5650 1500 0    60   ~ 0
COILT1
$Comp
L dac-rescue:RELAY_2RT K7
U 1 1 4E2A8054
P 6400 1250
F 0 "K7" H 6350 1650 70  0000 C CNN
F 1 "RELAY_2RT" H 6550 750 70  0000 C CNN
F 2 "" H 6400 1250 60  0001 C CNN
F 3 "" H 6400 1250 60  0001 C CNN
	1    6400 1250
	1    0    0    -1  
$EndComp
$Comp
L dac-rescue:CONN_2 P9
U 1 1 4E2A79DF
P 10950 1300
F 0 "P9" V 10900 1300 40  0000 C CNN
F 1 "CONN_2" V 11000 1300 40  0000 C CNN
F 2 "" H 10950 1300 60  0001 C CNN
F 3 "" H 10950 1300 60  0001 C CNN
	1    10950 1300
	1    0    0    -1  
$EndComp
Text Label 9100 3100 2    60   ~ 0
SOUTCMD_TUNER
Text Label 8800 1550 0    60   ~ 0
COILB
Text Label 8800 1450 0    60   ~ 0
COILT
$Comp
L dac-rescue:CONN_2 P8
U 1 1 4E2A7894
P 10950 850
F 0 "P8" V 10900 850 40  0000 C CNN
F 1 "CONN_2" V 11000 850 40  0000 C CNN
F 2 "" H 10950 850 60  0001 C CNN
F 3 "" H 10950 850 60  0001 C CNN
	1    10950 850 
	1    0    0    -1  
$EndComp
$Comp
L dac-rescue:CONN_2 P7
U 1 1 4E2A7893
P 1600 1100
F 0 "P7" V 1550 1100 40  0000 C CNN
F 1 "CONN_2" V 1650 1100 40  0000 C CNN
F 2 "" H 1600 1100 60  0001 C CNN
F 3 "" H 1600 1100 60  0001 C CNN
	1    1600 1100
	-1   0    0    1   
$EndComp
Text Label 2150 1250 0    60   ~ 0
OUTR
Text Label 2150 950  0    60   ~ 0
OUTL
Text Label 9100 3400 2    60   ~ 0
SOUTCMD_AUX
$Comp
L dac-rescue:RELAY_2RT K8
U 1 1 4E2A788F
P 9550 1200
F 0 "K8" H 9500 1600 70  0000 C CNN
F 1 "RELAY_2RT" H 9700 700 70  0000 C CNN
F 2 "" H 9550 1200 60  0001 C CNN
F 3 "" H 9550 1200 60  0001 C CNN
	1    9550 1200
	1    0    0    -1  
$EndComp
Text GLabel 6650 6350 0    60   Input ~ 0
GND
Text Label 6800 4900 0    60   ~ 0
+5VD
Text GLabel 7400 4900 2    60   Input ~ 0
+5VD
Text GLabel 4300 4850 2    60   Input ~ 0
AGND
$Comp
L dac-rescue:R-RESCUE-dac R37
U 1 1 4E2881BE
P 8250 6150
F 0 "R37" V 8330 6150 50  0000 C CNN
F 1 "100k" V 8250 6150 50  0000 C CNN
F 2 "" H 8250 6150 60  0001 C CNN
F 3 "" H 8250 6150 60  0001 C CNN
	1    8250 6150
	0    1    1    0   
$EndComp
$Comp
L dac-rescue:R-RESCUE-dac R36
U 1 1 4E2881A7
P 8200 5150
F 0 "R36" V 8280 5150 50  0000 C CNN
F 1 "100k" V 8200 5150 50  0000 C CNN
F 2 "" H 8200 5150 60  0001 C CNN
F 3 "" H 8200 5150 60  0001 C CNN
	1    8200 5150
	0    1    1    0   
$EndComp
Text Label 7350 6350 0    60   ~ 0
GND
Text Label 8100 5550 0    60   ~ 0
SOUTCMD_TUNER
Text Label 8100 5650 0    60   ~ 0
SOUTCMD_AUX
Text Label 8100 5350 0    60   ~ 0
SOUTCMD_TDA
Text Label 8100 5450 0    60   ~ 0
SOUTCMD_AKM
Text Label 5900 5850 0    60   ~ 0
+5VD
Text Label 5900 5650 0    60   ~ 0
GND
$Comp
L dac-rescue:CONN_4 P6
U 1 1 4E286C4E
P 1000 4750
F 0 "P6" V 950 4750 50  0000 C CNN
F 1 "CONN_4" V 1050 4750 50  0000 C CNN
F 2 "" H 1000 4750 60  0001 C CNN
F 3 "" H 1000 4750 60  0001 C CNN
	1    1000 4750
	-1   0    0    1   
$EndComp
Text Notes 900  4450 0    60   ~ 0
OUT GND ISOLATION
Text Notes 10350 650  0    60   ~ 0
PHONO/TUNER
Text Notes 10600 1550 0    60   ~ 0
AUX RCA
$Comp
L dac-rescue:RELAY_2RT K5
U 1 1 4E286A1E
P 3000 4900
F 0 "K5" H 2950 5300 70  0000 C CNN
F 1 "RELAY_2RT" H 3150 4400 70  0000 C CNN
F 2 "" H 3000 4900 60  0001 C CNN
F 3 "" H 3000 4900 60  0001 C CNN
	1    3000 4900
	1    0    0    -1  
$EndComp
$EndSCHEMATC
