EESchema Schematic File Version 4
EELAYER 30 0
EELAYER END
$Descr A4 11693 8268
encoding utf-8
Sheet 1 1
Title ""
Date ""
Rev ""
Comp ""
Comment1 ""
Comment2 ""
Comment3 ""
Comment4 ""
$EndDescr
$Comp
L Device:R R2
U 1 1 5F18C429
P 2450 6800
F 0 "R2" V 2650 6750 50  0000 L CNN
F 1 "1K" V 2550 6750 50  0000 L CNN
F 2 "Resistor_SMD:R_0805_2012Metric" V 2380 6800 50  0001 C CNN
F 3 "~" H 2450 6800 50  0001 C CNN
	1    2450 6800
	0    -1   -1   0   
$EndComp
$Comp
L Device:R R1
U 1 1 5F18C87F
P 2450 6400
F 0 "R1" V 2650 6350 50  0000 L CNN
F 1 "1K" V 2550 6350 50  0000 L CNN
F 2 "Resistor_SMD:R_0805_2012Metric" V 2380 6400 50  0001 C CNN
F 3 "~" H 2450 6400 50  0001 C CNN
	1    2450 6400
	0    -1   -1   0   
$EndComp
$Comp
L Device:LED D2
U 1 1 5F18CE85
P 1950 6800
F 0 "D2" H 2200 6650 50  0000 R CNN
F 1 "LED" H 2200 6750 50  0000 R CNN
F 2 "LED_SMD:LED_0805_2012Metric_Pad1.15x1.40mm_HandSolder" H 1950 6800 50  0001 C CNN
F 3 "~" H 1950 6800 50  0001 C CNN
F 4 "1771117" H 1950 6800 50  0001 C CNN "Ref Farnell"
	1    1950 6800
	-1   0    0    1   
$EndComp
$Comp
L Device:LED D1
U 1 1 5F18DAEA
P 1950 6400
F 0 "D1" H 2200 6250 50  0000 R CNN
F 1 "LED" H 2200 6350 50  0000 R CNN
F 2 "LED_SMD:LED_0805_2012Metric_Pad1.15x1.40mm_HandSolder" H 1950 6400 50  0001 C CNN
F 3 "~" H 1950 6400 50  0001 C CNN
F 4 "2217974" H 1950 6400 50  0001 C CNN "Ref Farnell"
	1    1950 6400
	-1   0    0    1   
$EndComp
Wire Wire Line
	1600 6800 1800 6800
$Comp
L Device:C C1
U 1 1 5F18FFB0
P 9400 1350
F 0 "C1" H 9515 1396 50  0000 L CNN
F 1 "10uF" H 9515 1305 50  0000 L CNN
F 2 "Capacitor_SMD:C_0805_2012Metric" H 9438 1200 50  0001 C CNN
F 3 "~" H 9400 1350 50  0001 C CNN
F 4 "1867958" H 9400 1350 50  0001 C CNN "Ref Farnell"
	1    9400 1350
	1    0    0    -1  
$EndComp
$Comp
L Device:Antenna_Shield AE1
U 1 1 5F1A014D
P 9600 2950
F 0 "AE1" H 9650 2950 50  0000 L CNN
F 1 "Antenna_Shield" H 8950 2950 50  0000 L CNN
F 2 "_CONNECTOR_SMA:5-1814400-1" H 9600 3050 50  0001 C CNN
F 3 "~" H 9600 3050 50  0001 C CNN
F 4 "2096224" H 9600 2950 50  0001 C CNN "Ref Farnell"
	1    9600 2950
	-1   0    0    -1  
$EndComp
Wire Wire Line
	1600 6400 1800 6400
NoConn ~ 5850 5950
NoConn ~ 5950 5950
NoConn ~ 6050 5950
NoConn ~ 6150 5950
NoConn ~ 6650 5950
NoConn ~ 6750 5950
NoConn ~ 6850 5950
NoConn ~ 6950 5950
NoConn ~ 7050 5950
NoConn ~ 7550 5050
NoConn ~ 7550 5150
NoConn ~ 7550 5250
NoConn ~ 7550 5350
NoConn ~ 7550 5450
NoConn ~ 7550 5550
NoConn ~ 7550 4550
NoConn ~ 7550 4450
NoConn ~ 7550 4350
NoConn ~ 7550 4250
NoConn ~ 7550 3650
NoConn ~ 7550 3750
NoConn ~ 7550 3850
NoConn ~ 7550 3950
NoConn ~ 5300 3650
NoConn ~ 5300 3750
NoConn ~ 5300 3850
NoConn ~ 5300 4050
NoConn ~ 5300 4150
Text Notes 1700 3000 2    50   ~ 0
Chip programing interface\n
NoConn ~ 5300 5050
NoConn ~ 5300 5150
NoConn ~ 5300 5250
NoConn ~ 5300 5350
NoConn ~ 6350 5950
NoConn ~ 6450 5950
NoConn ~ 6550 5950
NoConn ~ 5750 2950
NoConn ~ 5850 2950
NoConn ~ 5950 2950
NoConn ~ 6850 2950
NoConn ~ 6950 2950
NoConn ~ 7050 2950
$Comp
L power:GND #PWR0101
U 1 1 5F546251
P 4850 7200
F 0 "#PWR0101" H 4850 6950 50  0001 C CNN
F 1 "GND" H 4855 7027 50  0000 C CNN
F 2 "" H 4850 7200 50  0001 C CNN
F 3 "" H 4850 7200 50  0001 C CNN
	1    4850 7200
	1    0    0    -1  
$EndComp
$Comp
L power:+3.3V #PWR0102
U 1 1 5F551BEA
P 7750 4650
F 0 "#PWR0102" H 7750 4500 50  0001 C CNN
F 1 "+3.3V" V 7765 4778 50  0000 L CNN
F 2 "" H 7750 4650 50  0001 C CNN
F 3 "" H 7750 4650 50  0001 C CNN
	1    7750 4650
	0    1    1    0   
$EndComp
$Comp
L power:GND #PWR0103
U 1 1 5F572887
P 6250 2750
F 0 "#PWR0103" H 6250 2500 50  0001 C CNN
F 1 "GND" V 6250 2550 50  0000 C CNN
F 2 "" H 6250 2750 50  0001 C CNN
F 3 "" H 6250 2750 50  0001 C CNN
	1    6250 2750
	-1   0    0    1   
$EndComp
$Comp
L power:GND #PWR0105
U 1 1 5F593C4E
P 2500 1800
F 0 "#PWR0105" H 2500 1550 50  0001 C CNN
F 1 "GND" V 2500 1650 50  0000 R CNN
F 2 "" H 2500 1800 50  0001 C CNN
F 3 "" H 2500 1800 50  0001 C CNN
	1    2500 1800
	0    -1   -1   0   
$EndComp
Text GLabel 2500 2400 2    50   Input ~ 0
CSIDENT
$Comp
L power:+3.3V #PWR0106
U 1 1 5F5BEB27
P 2500 1600
F 0 "#PWR0106" H 2500 1450 50  0001 C CNN
F 1 "+3.3V" V 2550 1600 50  0000 L CNN
F 2 "" H 2500 1600 50  0001 C CNN
F 3 "" H 2500 1600 50  0001 C CNN
	1    2500 1600
	0    1    1    0   
$EndComp
Text GLabel 2500 2300 2    50   Input ~ 0
RST
Text GLabel 5100 4650 0    50   Input ~ 0
CLK
Wire Wire Line
	5300 4650 5100 4650
Text GLabel 5100 4750 0    50   Input ~ 0
MOSI
Wire Wire Line
	5100 4750 5300 4750
Text GLabel 5100 4950 0    50   Output ~ 0
MISO
Text GLabel 5100 4850 0    50   Input ~ 0
CS
Wire Wire Line
	5300 4850 5100 4850
Wire Wire Line
	5300 4950 5100 4950
Text GLabel 5100 4550 0    50   Input ~ 0
RST
Wire Wire Line
	5100 4550 5300 4550
$Comp
L power:+3.3V #PWR0107
U 1 1 5F60791C
P 1700 3450
F 0 "#PWR0107" H 1700 3300 50  0001 C CNN
F 1 "+3.3V" V 1715 3578 50  0000 L CNN
F 2 "" H 1700 3450 50  0001 C CNN
F 3 "" H 1700 3450 50  0001 C CNN
	1    1700 3450
	0    -1   -1   0   
$EndComp
Wire Wire Line
	1700 3450 1900 3450
$Comp
L power:GND #PWR0108
U 1 1 5F60D164
P 2600 3650
F 0 "#PWR0108" H 2600 3400 50  0001 C CNN
F 1 "GND" V 2605 3522 50  0000 R CNN
F 2 "" H 2600 3650 50  0001 C CNN
F 3 "" H 2600 3650 50  0001 C CNN
	1    2600 3650
	0    -1   -1   0   
$EndComp
Wire Wire Line
	2600 3650 2400 3650
Text GLabel 2600 3450 2    50   Output ~ 0
CLK
Text GLabel 1700 3550 0    50   Output ~ 0
MOSI
Text GLabel 1700 3650 0    50   Input ~ 0
MISO
Text GLabel 2600 3550 2    50   Output ~ 0
CS
Wire Wire Line
	2400 3450 2600 3450
Wire Wire Line
	1900 3550 1700 3550
Wire Wire Line
	2400 3550 2600 3550
Wire Wire Line
	1900 3650 1700 3650
Wire Wire Line
	2100 6400 2300 6400
Wire Wire Line
	2100 6800 2300 6800
$Comp
L power:+3.3V #PWR0109
U 1 1 5F6408A9
P 1600 6400
F 0 "#PWR0109" H 1600 6250 50  0001 C CNN
F 1 "+3.3V" V 1615 6528 50  0000 L CNN
F 2 "" H 1600 6400 50  0001 C CNN
F 3 "" H 1600 6400 50  0001 C CNN
	1    1600 6400
	0    -1   -1   0   
$EndComp
$Comp
L power:+3.3V #PWR0110
U 1 1 5F6424B3
P 1600 6800
F 0 "#PWR0110" H 1600 6650 50  0001 C CNN
F 1 "+3.3V" V 1615 6928 50  0000 L CNN
F 2 "" H 1600 6800 50  0001 C CNN
F 3 "" H 1600 6800 50  0001 C CNN
	1    1600 6800
	0    -1   -1   0   
$EndComp
Wire Wire Line
	2600 6400 2800 6400
Wire Wire Line
	2600 6800 2800 6800
Text GLabel 2800 6400 2    50   Input ~ 0
LED0
Text GLabel 2800 6800 2    50   Input ~ 0
LED1
Text GLabel 5100 5550 0    50   Output ~ 0
LED0
Text GLabel 5750 6150 3    50   Output ~ 0
LED1
Wire Wire Line
	5100 5550 5300 5550
Wire Wire Line
	5750 5950 5750 6150
$Comp
L power:GND #PWR0111
U 1 1 5F67406D
P 5100 3950
F 0 "#PWR0111" H 5100 3700 50  0001 C CNN
F 1 "GND" V 5105 3822 50  0000 R CNN
F 2 "" H 5100 3950 50  0001 C CNN
F 3 "" H 5100 3950 50  0001 C CNN
	1    5100 3950
	0    1    1    0   
$EndComp
Wire Wire Line
	5100 3950 5300 3950
$Comp
L power:GND #PWR0112
U 1 1 5F67857B
P 6250 6150
F 0 "#PWR0112" H 6250 5900 50  0001 C CNN
F 1 "GND" V 6250 5950 50  0000 C CNN
F 2 "" H 6250 6150 50  0001 C CNN
F 3 "" H 6250 6150 50  0001 C CNN
	1    6250 6150
	1    0    0    -1  
$EndComp
Wire Wire Line
	6250 6150 6250 5950
$Comp
L power:GND #PWR0113
U 1 1 5F67E5E1
P 7750 4850
F 0 "#PWR0113" H 7750 4600 50  0001 C CNN
F 1 "GND" V 7755 4722 50  0000 R CNN
F 2 "" H 7750 4850 50  0001 C CNN
F 3 "" H 7750 4850 50  0001 C CNN
	1    7750 4850
	0    -1   -1   0   
$EndComp
$Comp
L power:GND #PWR0114
U 1 1 5F682A5A
P 7750 4050
F 0 "#PWR0114" H 7750 3800 50  0001 C CNN
F 1 "GND" V 7755 3922 50  0000 R CNN
F 2 "" H 7750 4050 50  0001 C CNN
F 3 "" H 7750 4050 50  0001 C CNN
	1    7750 4050
	0    -1   -1   0   
$EndComp
$Comp
L power:GND #PWR0115
U 1 1 5F692C61
P 6050 2750
F 0 "#PWR0115" H 6050 2500 50  0001 C CNN
F 1 "GND" V 6050 2550 50  0000 C CNN
F 2 "" H 6050 2750 50  0001 C CNN
F 3 "" H 6050 2750 50  0001 C CNN
	1    6050 2750
	-1   0    0    1   
$EndComp
$Comp
L power:GND #PWR0116
U 1 1 5F69F966
P 5100 5450
F 0 "#PWR0116" H 5100 5200 50  0001 C CNN
F 1 "GND" V 5105 5322 50  0000 R CNN
F 2 "" H 5100 5450 50  0001 C CNN
F 3 "" H 5100 5450 50  0001 C CNN
	1    5100 5450
	0    1    1    0   
$EndComp
Wire Wire Line
	5100 5450 5300 5450
Text GLabel 7750 4750 2    50   Input ~ 0
PWR_REG_EN
$Comp
L power:+3.3V #PWR0117
U 1 1 5F6B4C14
P 7750 4950
F 0 "#PWR0117" H 7750 4800 50  0001 C CNN
F 1 "+3.3V" V 7765 5078 50  0000 L CNN
F 2 "" H 7750 4950 50  0001 C CNN
F 3 "" H 7750 4950 50  0001 C CNN
	1    7750 4950
	0    1    1    0   
$EndComp
Text GLabel 7100 1300 0    50   Output ~ 0
PWR_REG_EN
Text GLabel 2500 2600 2    50   Output ~ 0
CDTI
Text GLabel 2500 2700 2    50   Input ~ 0
CDTO
Text GLabel 2500 2500 2    50   Output ~ 0
CCLK
Text GLabel 2750 5050 2    50   Input ~ 0
CDTI
Text GLabel 2750 4950 2    50   Output ~ 0
CDTO
Text GLabel 2750 4850 2    50   Input ~ 0
CCLK
Text GLabel 1550 5050 0    50   Input ~ 0
CSIDENT
Wire Wire Line
	2750 4950 2550 4950
Wire Wire Line
	2750 5050 2550 5050
Wire Wire Line
	1550 5050 1750 5050
Wire Wire Line
	2750 4850 2550 4850
$Comp
L Mechanical:MountingHole_Pad H1
U 1 1 5F71DA7A
P 4850 7000
F 0 "H1" H 4950 7049 50  0000 L CNN
F 1 " " H 4950 6958 50  0000 L CNN
F 2 "MountingHole:MountingHole_3.2mm_M3_Pad_Via" H 4850 7000 50  0001 C CNN
F 3 "~" H 4850 7000 50  0001 C CNN
	1    4850 7000
	1    0    0    -1  
$EndComp
Wire Wire Line
	4850 7200 4850 7100
$Comp
L power:GND #PWR0118
U 1 1 5F72A5D5
P 5350 7200
F 0 "#PWR0118" H 5350 6950 50  0001 C CNN
F 1 "GND" H 5355 7027 50  0000 C CNN
F 2 "" H 5350 7200 50  0001 C CNN
F 3 "" H 5350 7200 50  0001 C CNN
	1    5350 7200
	1    0    0    -1  
$EndComp
$Comp
L Mechanical:MountingHole_Pad H2
U 1 1 5F72A5DB
P 5350 7000
F 0 "H2" H 5450 7049 50  0000 L CNN
F 1 " " H 5450 6958 50  0000 L CNN
F 2 "MountingHole:MountingHole_3.2mm_M3_Pad_Via" H 5350 7000 50  0001 C CNN
F 3 "~" H 5350 7000 50  0001 C CNN
	1    5350 7000
	1    0    0    -1  
$EndComp
Wire Wire Line
	5350 7200 5350 7100
$Comp
L power:GND #PWR0119
U 1 1 5F72D484
P 5850 7200
F 0 "#PWR0119" H 5850 6950 50  0001 C CNN
F 1 "GND" H 5855 7027 50  0000 C CNN
F 2 "" H 5850 7200 50  0001 C CNN
F 3 "" H 5850 7200 50  0001 C CNN
	1    5850 7200
	1    0    0    -1  
$EndComp
$Comp
L Mechanical:MountingHole_Pad H3
U 1 1 5F72D48A
P 5850 7000
F 0 "H3" H 5950 7049 50  0000 L CNN
F 1 " " H 5950 6958 50  0000 L CNN
F 2 "MountingHole:MountingHole_3.2mm_M3_Pad_Via" H 5850 7000 50  0001 C CNN
F 3 "~" H 5850 7000 50  0001 C CNN
	1    5850 7000
	1    0    0    -1  
$EndComp
Wire Wire Line
	5850 7200 5850 7100
$Comp
L power:GND #PWR0120
U 1 1 5F72D491
P 6350 7200
F 0 "#PWR0120" H 6350 6950 50  0001 C CNN
F 1 "GND" H 6355 7027 50  0000 C CNN
F 2 "" H 6350 7200 50  0001 C CNN
F 3 "" H 6350 7200 50  0001 C CNN
	1    6350 7200
	1    0    0    -1  
$EndComp
$Comp
L Mechanical:MountingHole_Pad H4
U 1 1 5F72D497
P 6350 7000
F 0 "H4" H 6450 7049 50  0000 L CNN
F 1 " " H 6450 6958 50  0000 L CNN
F 2 "MountingHole:MountingHole_3.2mm_M3_Pad_Via" H 6350 7000 50  0001 C CNN
F 3 "~" H 6350 7000 50  0001 C CNN
	1    6350 7000
	1    0    0    -1  
$EndComp
Wire Wire Line
	6350 7200 6350 7100
$Comp
L Device:C C3
U 1 1 5F5D178C
P 9900 1350
F 0 "C3" H 10015 1396 50  0000 L CNN
F 1 "100nF" H 10015 1305 50  0000 L CNN
F 2 "Capacitor_SMD:C_0805_2012Metric" H 9938 1200 50  0001 C CNN
F 3 "~" H 9900 1350 50  0001 C CNN
F 4 "1828830" H 9900 1350 50  0001 C CNN "Ref Farnell"
	1    9900 1350
	1    0    0    -1  
$EndComp
$Comp
L Device:C C5
U 1 1 5F5D70B6
P 10400 1350
F 0 "C5" H 10515 1396 50  0000 L CNN
F 1 "100nF" H 10515 1305 50  0000 L CNN
F 2 "Capacitor_SMD:C_0805_2012Metric" H 10438 1200 50  0001 C CNN
F 3 "~" H 10400 1350 50  0001 C CNN
F 4 "1828830" H 10400 1350 50  0001 C CNN "Ref Farnell"
	1    10400 1350
	1    0    0    -1  
$EndComp
$Comp
L power:GND #PWR0121
U 1 1 5F5D8965
P 9400 1600
F 0 "#PWR0121" H 9400 1350 50  0001 C CNN
F 1 "GND" H 9405 1427 50  0000 C CNN
F 2 "" H 9400 1600 50  0001 C CNN
F 3 "" H 9400 1600 50  0001 C CNN
	1    9400 1600
	1    0    0    -1  
$EndComp
Wire Wire Line
	9400 1600 9400 1500
$Comp
L power:GND #PWR0122
U 1 1 5F5DB2A5
P 9900 1600
F 0 "#PWR0122" H 9900 1350 50  0001 C CNN
F 1 "GND" H 9905 1427 50  0000 C CNN
F 2 "" H 9900 1600 50  0001 C CNN
F 3 "" H 9900 1600 50  0001 C CNN
	1    9900 1600
	1    0    0    -1  
$EndComp
$Comp
L power:GND #PWR0123
U 1 1 5F5DB555
P 10400 1600
F 0 "#PWR0123" H 10400 1350 50  0001 C CNN
F 1 "GND" H 10405 1427 50  0000 C CNN
F 2 "" H 10400 1600 50  0001 C CNN
F 3 "" H 10400 1600 50  0001 C CNN
	1    10400 1600
	1    0    0    -1  
$EndComp
$Comp
L power:+3.3V #PWR0124
U 1 1 5F5DBF32
P 9400 1100
F 0 "#PWR0124" H 9400 950 50  0001 C CNN
F 1 "+3.3V" H 9415 1273 50  0000 C CNN
F 2 "" H 9400 1100 50  0001 C CNN
F 3 "" H 9400 1100 50  0001 C CNN
	1    9400 1100
	1    0    0    -1  
$EndComp
$Comp
L power:+3.3V #PWR0125
U 1 1 5F5DD3FC
P 9900 1100
F 0 "#PWR0125" H 9900 950 50  0001 C CNN
F 1 "+3.3V" H 9915 1273 50  0000 C CNN
F 2 "" H 9900 1100 50  0001 C CNN
F 3 "" H 9900 1100 50  0001 C CNN
	1    9900 1100
	1    0    0    -1  
$EndComp
$Comp
L power:+3.3V #PWR0126
U 1 1 5F5DD857
P 10400 1100
F 0 "#PWR0126" H 10400 950 50  0001 C CNN
F 1 "+3.3V" H 10415 1273 50  0000 C CNN
F 2 "" H 10400 1100 50  0001 C CNN
F 3 "" H 10400 1100 50  0001 C CNN
	1    10400 1100
	1    0    0    -1  
$EndComp
Wire Wire Line
	9400 1100 9400 1200
Wire Wire Line
	9900 1100 9900 1200
Wire Wire Line
	10400 1100 10400 1200
Wire Wire Line
	10400 1500 10400 1600
Wire Wire Line
	9900 1500 9900 1600
$Comp
L Memory_EEPROM:AT25xxx U?
U 1 1 5F63B283
P 2150 4950
AR Path="/5F179EA1/5F63B283" Ref="U?"  Part="1" 
AR Path="/5F63B283" Ref="U2"  Part="1" 
F 0 "U2" H 2300 5300 50  0000 C CNN
F 1 "AT25xxx" H 2400 5200 50  0000 C CNN
F 2 "Package_SO:SOIC-8_3.9x4.9mm_P1.27mm" H 2150 4950 50  0001 C CNN
F 3 "http://ww1.microchip.com/downloads/en/DeviceDoc/Atmel-8707-SEEPROM-AT25010B-020B-040B-Datasheet.pdf" H 2150 4950 50  0001 C CNN
F 4 "1331378" H 2150 4950 50  0001 C CNN "Ref Farnell"
	1    2150 4950
	1    0    0    -1  
$EndComp
$Comp
L power:GND #PWR0129
U 1 1 5F6642B5
P 2150 5350
F 0 "#PWR0129" H 2150 5100 50  0001 C CNN
F 1 "GND" H 2155 5177 50  0000 C CNN
F 2 "" H 2150 5350 50  0001 C CNN
F 3 "" H 2150 5350 50  0001 C CNN
	1    2150 5350
	1    0    0    -1  
$EndComp
Wire Wire Line
	2150 5350 2150 5250
$Comp
L power:+3.3V #PWR0130
U 1 1 5F667A90
P 2150 4550
F 0 "#PWR0130" H 2150 4400 50  0001 C CNN
F 1 "+3.3V" H 2165 4723 50  0000 C CNN
F 2 "" H 2150 4550 50  0001 C CNN
F 3 "" H 2150 4550 50  0001 C CNN
	1    2150 4550
	1    0    0    -1  
$EndComp
Wire Wire Line
	2150 4650 2150 4550
$Comp
L power:+3.3V #PWR0131
U 1 1 5F66A3A7
P 1550 4850
F 0 "#PWR0131" H 1550 4700 50  0001 C CNN
F 1 "+3.3V" V 1565 4978 50  0000 L CNN
F 2 "" H 1550 4850 50  0001 C CNN
F 3 "" H 1550 4850 50  0001 C CNN
	1    1550 4850
	0    -1   -1   0   
$EndComp
$Comp
L power:+3.3V #PWR0132
U 1 1 5F66AA96
P 1550 4950
F 0 "#PWR0132" H 1550 4800 50  0001 C CNN
F 1 "+3.3V" V 1565 5078 50  0000 L CNN
F 2 "" H 1550 4950 50  0001 C CNN
F 3 "" H 1550 4950 50  0001 C CNN
	1    1550 4950
	0    -1   -1   0   
$EndComp
Wire Wire Line
	1550 4950 1750 4950
Wire Wire Line
	1550 4850 1750 4850
$Comp
L Device:C C2
U 1 1 5F67528F
P 3300 4950
F 0 "C2" H 3415 4996 50  0000 L CNN
F 1 "100nF" H 3415 4905 50  0000 L CNN
F 2 "Capacitor_SMD:C_0805_2012Metric" H 3338 4800 50  0001 C CNN
F 3 "~" H 3300 4950 50  0001 C CNN
F 4 "1828830" H 3300 4950 50  0001 C CNN "Ref Farnell"
	1    3300 4950
	1    0    0    -1  
$EndComp
$Comp
L power:GND #PWR0133
U 1 1 5F675295
P 3300 5200
F 0 "#PWR0133" H 3300 4950 50  0001 C CNN
F 1 "GND" H 3305 5027 50  0000 C CNN
F 2 "" H 3300 5200 50  0001 C CNN
F 3 "" H 3300 5200 50  0001 C CNN
	1    3300 5200
	1    0    0    -1  
$EndComp
$Comp
L power:+3.3V #PWR0134
U 1 1 5F67529B
P 3300 4700
F 0 "#PWR0134" H 3300 4550 50  0001 C CNN
F 1 "+3.3V" H 3315 4873 50  0000 C CNN
F 2 "" H 3300 4700 50  0001 C CNN
F 3 "" H 3300 4700 50  0001 C CNN
	1    3300 4700
	1    0    0    -1  
$EndComp
Wire Wire Line
	3300 4700 3300 4800
Wire Wire Line
	3300 5100 3300 5200
NoConn ~ 6350 2950
Text GLabel 6450 2750 1    50   Output ~ 0
SPKR_RP
Text GLabel 6550 2750 1    50   Output ~ 0
SPKR_RN
Text GLabel 6650 2750 1    50   Output ~ 0
SPKR_LP
Text GLabel 6750 2750 1    50   Output ~ 0
SPKR_LN
Text GLabel 9600 4950 0    50   Input ~ 0
SPKR_RP
Text GLabel 9600 5050 0    50   Input ~ 0
SPKR_RN
Text GLabel 9600 5250 0    50   Input ~ 0
SPKR_LP
Text GLabel 9600 5350 0    50   Input ~ 0
SPKR_LN
Wire Wire Line
	9600 4950 9800 4950
Wire Wire Line
	9600 5050 9800 5050
Wire Wire Line
	9600 5250 9800 5250
Wire Wire Line
	9600 5350 9800 5350
$Comp
L power:GND #PWR0135
U 1 1 5F5A1D2C
P 9500 3250
F 0 "#PWR0135" H 9500 3000 50  0001 C CNN
F 1 "GND" H 9505 3077 50  0000 C CNN
F 2 "" H 9500 3250 50  0001 C CNN
F 3 "" H 9500 3250 50  0001 C CNN
	1    9500 3250
	1    0    0    -1  
$EndComp
Wire Wire Line
	9500 3150 9500 3250
Wire Wire Line
	5300 4250 5100 4250
Wire Wire Line
	5300 4350 5100 4350
Wire Wire Line
	5300 4450 5100 4450
Text GLabel 5100 4250 0    50   Input ~ 0
SCLK
Text GLabel 5100 4450 0    50   BiDi ~ 0
SDATA
Text GLabel 5100 4350 0    50   Input ~ 0
LRCK
Text GLabel 2500 1900 2    50   Input ~ 0
SCLK
Text GLabel 2500 2000 2    50   BiDi ~ 0
SDATA
Text GLabel 2500 2100 2    50   Input ~ 0
LRCK
Wire Wire Line
	7750 4950 7550 4950
Wire Wire Line
	7750 4850 7550 4850
Wire Wire Line
	7750 4750 7550 4750
Wire Wire Line
	7750 4650 7550 4650
Wire Wire Line
	7750 4050 7550 4050
Wire Wire Line
	6750 2950 6750 2750
Wire Wire Line
	6650 2950 6650 2750
Wire Wire Line
	6550 2950 6550 2750
Wire Wire Line
	6450 2950 6450 2750
Wire Wire Line
	6250 2750 6250 2950
Wire Wire Line
	6050 2750 6050 2950
Text Notes 4550 6600 0    50   ~ 0
Fixing holes
Wire Notes Line
	700  4100 700  5750
Wire Notes Line
	700  5750 3800 5750
Text Notes 700  4050 0    50   ~ 0
SPI EEPROM
$Comp
L Connector_Generic:Conn_02x03_Odd_Even J1
U 1 1 5FC26A30
P 2100 3550
F 0 "J1" H 2150 3867 50  0000 C CNN
F 1 "Conn_02x03_Odd_Even" H 2150 3776 50  0000 C CNN
F 2 "Connector_PinSocket_2.54mm:PinSocket_2x03_P2.54mm_Vertical" H 2100 3550 50  0001 C CNN
F 3 "~" H 2100 3550 50  0001 C CNN
	1    2100 3550
	1    0    0    -1  
$EndComp
Wire Notes Line
	700  2850 3800 2850
Wire Notes Line
	700  6000 3800 6000
Wire Notes Line
	10850 2400 10850 4300
Wire Notes Line
	9050 2400 9050 4300
Wire Notes Line
	10850 4300 9050 4300
Wire Notes Line
	9050 2400 10850 2400
Wire Notes Line
	9050 4500 10850 4500
Wire Notes Line
	10850 4500 10850 5700
Wire Notes Line
	10850 5700 9050 5700
Wire Notes Line
	9050 4500 9050 5700
Wire Notes Line
	10850 2200 10850 650 
Wire Notes Line
	10850 650  9050 650 
Wire Notes Line
	9050 650  9050 2200
Wire Notes Line
	9050 2200 10850 2200
Text Notes 9050 2350 0    50   ~ 0
External antenna
Text Notes 9050 4450 0    50   ~ 0
Speaker output
Text Notes 9050 600  0    50   ~ 0
Decoupling capacitors
Text Notes 700  5950 0    50   ~ 0
LEDs
Wire Notes Line
	700  3050 700  3900
Wire Notes Line
	6700 6650 6700 7600
Text GLabel 9700 3250 2    50   BiDi ~ 0
ANTENNA
Text GLabel 6150 2750 1    50   BiDi ~ 0
ANTENNA
Wire Wire Line
	6150 2750 6150 2950
Wire Wire Line
	9700 3250 9600 3250
Wire Wire Line
	9600 3250 9600 3150
$Comp
L Connector:TestPoint TP1
U 1 1 5FC09DC1
P 9800 4950
F 0 "TP1" V 9754 5138 50  0000 L CNN
F 1 "TestPoint" V 9845 5138 50  0000 L CNN
F 2 "TestPoint:TestPoint_Loop_D2.50mm_Drill1.0mm" H 10000 4950 50  0001 C CNN
F 3 "~" H 10000 4950 50  0001 C CNN
	1    9800 4950
	0    1    1    0   
$EndComp
$Comp
L Connector:TestPoint TP2
U 1 1 5FC0AA81
P 9800 5050
F 0 "TP2" V 9754 5238 50  0000 L CNN
F 1 "TestPoint" V 9845 5238 50  0000 L CNN
F 2 "TestPoint:TestPoint_Loop_D2.50mm_Drill1.0mm" H 10000 5050 50  0001 C CNN
F 3 "~" H 10000 5050 50  0001 C CNN
	1    9800 5050
	0    1    1    0   
$EndComp
$Comp
L Connector:TestPoint TP3
U 1 1 5FC0AC11
P 9800 5250
F 0 "TP3" V 9754 5438 50  0000 L CNN
F 1 "TestPoint" V 9845 5438 50  0000 L CNN
F 2 "TestPoint:TestPoint_Loop_D2.50mm_Drill1.0mm" H 10000 5250 50  0001 C CNN
F 3 "~" H 10000 5250 50  0001 C CNN
	1    9800 5250
	0    1    1    0   
$EndComp
$Comp
L Connector:TestPoint TP4
U 1 1 5FC0ADDF
P 9800 5350
F 0 "TP4" V 9754 5538 50  0000 L CNN
F 1 "TestPoint" V 9845 5538 50  0000 L CNN
F 2 "TestPoint:TestPoint_Loop_D2.50mm_Drill1.0mm" H 10000 5350 50  0001 C CNN
F 3 "~" H 10000 5350 50  0001 C CNN
	1    9800 5350
	0    1    1    0   
$EndComp
Wire Notes Line
	4550 7600 4550 6650
Wire Notes Line
	4550 7600 6700 7600
Wire Notes Line
	4550 6650 6700 6650
Wire Wire Line
	1600 7150 1800 7150
Wire Wire Line
	2100 7150 2300 7150
Wire Wire Line
	2600 7150 2800 7150
Text GLabel 1600 7150 0    50   Input ~ 0
3V3_OUT
$Comp
L power:GND #PWR0127
U 1 1 5FD01D64
P 2800 7150
F 0 "#PWR0127" H 2800 6900 50  0001 C CNN
F 1 "GND" V 2805 7022 50  0000 R CNN
F 2 "" H 2800 7150 50  0001 C CNN
F 3 "" H 2800 7150 50  0001 C CNN
	1    2800 7150
	0    -1   -1   0   
$EndComp
Text GLabel 7750 4150 2    50   Output ~ 0
3V3_OUT
Wire Wire Line
	7750 4150 7550 4150
Wire Notes Line
	3800 7600 700  7600
Wire Notes Line
	3800 6000 3800 7600
Wire Notes Line
	700  6000 700  7600
$Comp
L Device:LED D3
U 1 1 5FCFE4CE
P 1950 7150
F 0 "D3" H 2200 7000 50  0000 R CNN
F 1 "LED" H 2200 7100 50  0000 R CNN
F 2 "LED_SMD:LED_0805_2012Metric_Pad1.15x1.40mm_HandSolder" H 1950 7150 50  0001 C CNN
F 3 "~" H 1950 7150 50  0001 C CNN
F 4 "1771117" H 1950 7150 50  0001 C CNN "Ref Farnell"
	1    1950 7150
	-1   0    0    1   
$EndComp
$Comp
L Device:R R3
U 1 1 5FCFE4C8
P 2450 7150
F 0 "R3" V 2650 7100 50  0000 L CNN
F 1 "1K" V 2550 7100 50  0000 L CNN
F 2 "Resistor_SMD:R_0805_2012Metric" V 2380 7150 50  0001 C CNN
F 3 "~" H 2450 7150 50  0001 C CNN
	1    2450 7150
	0    -1   -1   0   
$EndComp
$Comp
L Connector:Conn_01x12_Female J3
U 1 1 608FE86E
P 2000 2200
F 0 "J3" H 1892 1375 50  0000 C CNN
F 1 "Conn_01x12_Female" H 1892 1466 50  0000 C CNN
F 2 "lib:ConnectorMicromatch-12" H 2000 2200 50  0001 C CNN
F 3 "~" H 2000 2200 50  0001 C CNN
	1    2000 2200
	-1   0    0    1   
$EndComp
Wire Wire Line
	2200 1800 2500 1800
Wire Wire Line
	2200 2600 2500 2600
Wire Wire Line
	2200 2400 2500 2400
Wire Wire Line
	2200 1900 2500 1900
Wire Wire Line
	2200 2300 2500 2300
Wire Wire Line
	2500 2100 2200 2100
Wire Wire Line
	2200 2000 2500 2000
Wire Wire Line
	2500 2500 2200 2500
Wire Wire Line
	2200 1600 2500 1600
Wire Wire Line
	2200 2700 2500 2700
Wire Notes Line
	3800 3900 3800 3050
Wire Notes Line
	700  3900 3800 3900
Wire Notes Line
	3800 3050 700  3050
Wire Notes Line
	3800 4100 700  4100
Wire Notes Line
	3800 5750 3800 4100
NoConn ~ 2200 1700
$Comp
L bluetoothAudioModule-rescue:BTM870-B-BluetoothAudio U1
U 1 1 5F1A6CD0
P 6300 6050
F 0 "U1" H 7550 9000 50  0000 C CNN
F 1 "BTM870-B" H 7700 8900 50  0000 C CNN
F 2 "BTM8670:BTM8670" H 6300 6050 50  0001 C CNN
F 3 "" H 6300 6050 50  0001 C CNN
	1    6300 6050
	1    0    0    -1  
$EndComp
Wire Notes Line
	700  1150 3800 1150
Wire Notes Line
	3800 1150 3800 2850
Wire Notes Line
	700  1150 700  2850
$Comp
L Device:R R4
U 1 1 60A0AD87
P 7550 1100
F 0 "R4" H 7620 1146 50  0000 L CNN
F 1 "10k" H 7620 1055 50  0000 L CNN
F 2 "Resistor_SMD:R_0805_2012Metric" V 7480 1100 50  0001 C CNN
F 3 "~" H 7550 1100 50  0001 C CNN
	1    7550 1100
	1    0    0    -1  
$EndComp
$Comp
L Device:R R6
U 1 1 60A0B69A
P 8050 1800
F 0 "R6" H 8120 1846 50  0000 L CNN
F 1 "10k" H 8120 1755 50  0000 L CNN
F 2 "Resistor_SMD:R_0805_2012Metric" V 7980 1800 50  0001 C CNN
F 3 "~" H 8050 1800 50  0001 C CNN
	1    8050 1800
	1    0    0    -1  
$EndComp
$Comp
L Device:R R5
U 1 1 60A0CA66
P 8050 1100
F 0 "R5" H 8120 1146 50  0000 L CNN
F 1 "1k" H 8120 1055 50  0000 L CNN
F 2 "Resistor_SMD:R_0805_2012Metric" V 7980 1100 50  0001 C CNN
F 3 "~" H 8050 1100 50  0001 C CNN
	1    8050 1100
	1    0    0    -1  
$EndComp
$Comp
L Transistor_BJT:MMBT3904 Q1
U 1 1 60A15822
P 7650 1550
F 0 "Q1" H 7841 1596 50  0000 L CNN
F 1 "MMBT3904" H 7841 1505 50  0000 L CNN
F 2 "Package_TO_SOT_SMD:SOT-23" H 7850 1475 50  0001 L CIN
F 3 "https://www.onsemi.com/pub/Collateral/2N3903-D.PDF" H 7650 1550 50  0001 L CNN
	1    7650 1550
	-1   0    0    -1  
$EndComp
Wire Wire Line
	7550 950  7550 850 
Wire Wire Line
	7550 850  8050 850 
Wire Wire Line
	8050 850  8050 950 
Wire Wire Line
	8050 1250 8050 1550
Wire Wire Line
	8050 1950 8050 2000
Wire Wire Line
	8050 2000 7550 2000
Wire Wire Line
	7550 2000 7550 1750
Wire Wire Line
	7100 1300 7550 1300
Wire Wire Line
	7550 1300 7550 1350
Wire Wire Line
	7550 1300 7550 1250
Connection ~ 7550 1300
$Comp
L power:+3.3V #PWR02
U 1 1 60A3695F
P 8250 850
F 0 "#PWR02" H 8250 700 50  0001 C CNN
F 1 "+3.3V" V 8265 978 50  0000 L CNN
F 2 "" H 8250 850 50  0001 C CNN
F 3 "" H 8250 850 50  0001 C CNN
	1    8250 850 
	0    1    1    0   
$EndComp
Wire Wire Line
	8050 850  8250 850 
Connection ~ 8050 850 
$Comp
L power:GND #PWR01
U 1 1 60A4604D
P 7550 2000
F 0 "#PWR01" H 7550 1750 50  0001 C CNN
F 1 "GND" H 7555 1827 50  0000 C CNN
F 2 "" H 7550 2000 50  0001 C CNN
F 3 "" H 7550 2000 50  0001 C CNN
	1    7550 2000
	1    0    0    -1  
$EndComp
Connection ~ 7550 2000
Wire Wire Line
	7850 1550 8050 1550
Connection ~ 8050 1550
Wire Wire Line
	8050 1550 8050 1650
Wire Notes Line
	8650 650  6500 650 
Wire Notes Line
	6500 650  6500 2150
Wire Notes Line
	6500 2150 8650 2150
Wire Notes Line
	8650 2150 8650 650 
Text Notes 6500 600  0    50   ~ 0
Boot circuit
Text Notes 700  1100 0    50   ~ 0
Digital side
Text Notes 900  1250 0    50   ~ 0
This device is I2S master and the MCLK clock must be rebuilt using a pll\n
NoConn ~ 2200 2200
$EndSCHEMATC
